^C:\USERS\PLU\DOCUMENTS\PETETRLU\KITCHEN\FAUCET\SELF_HELP\TEST1\TEST1.MKB
C:\USERS\PLU\DOCUMENTS\PETETRLU\KITCHEN\SPICES\AIRPLAY4.4\MODULES\IWGEOM\IWGEOM.MKF
C:\USERS\PLU\DOCUMENTS\PETETRLU\KITCHEN\SPICES\AIRPLAY4.4\MODULES\IWUTIL\IWUTIL.MKF
C:\USERS\PLU\DOCUMENTS\PETETRLU\KITCHEN\SPICES\AIRPLAY4.4\S3E\H\S3E.MKF
C:\USERS\PLU\DOCUMENTS\PETETRLU\KITCHEN\FAUCET\AIRPLAYGL44TEMPLATE\UG\UG.MKF
C:\USERS\PLU\DOCUMENTS\PETETRLU\KITCHEN\SPICES\AIRPLAY4.4\MODULES\THIRD_PARTY\LIBPNG\LIBPNG.MKF
C:\USERS\PLU\DOCUMENTS\PETETRLU\KITCHEN\SPICES\AIRPLAY4.4\MODULES\THIRD_PARTY\ZLIB\ZLIB.MKF
C:\USERS\PLU\DOCUMENTS\PETETRLU\KITCHEN\SPICES\AIRPLAY4.4\MODULES\IWGX\IWGX.MKF
C:\USERS\PLU\DOCUMENTS\PETETRLU\KITCHEN\SPICES\AIRPLAY4.4\MODULES\IWGL\IWGL.MKF
C:\USERS\PLU\DOCUMENTS\PETETRLU\KITCHEN\SPICES\AIRPLAY4.4\MODULES\IWRESMANAGER\IWRESMANAGER.MKF
C:\USERS\PLU\DOCUMENTS\PETETRLU\KITCHEN\FAUCET\AIRPLAYGL44TEMPLATE\TEMPLATE.MKF
C:\USERS\PLU\DOCUMENTS\PETETRLU\KITCHEN\SPICES\AIRPLAY4.4\EXAMPLES\SOUNDENGINE\SOUNDENGINE.MKF