# 1 "c:/users/plu/documents/petetrlu/kitchen/spices/airplay4.4/modules/third_party/zlib/upstream/adler32.c"
# 1 "<built-in>"
# 1 "<command-line>"
# 1 "C:/Users/plu/Documents/petetrlu/kitchen/faucet/self_help/test1/build_test1_vc10/temp_defines_release.h" 1
# 1 "<command-line>" 2
# 1 "c:/users/plu/documents/petetrlu/kitchen/spices/airplay4.4/modules/third_party/zlib/upstream/adler32.c"
# 9 "c:/users/plu/documents/petetrlu/kitchen/spices/airplay4.4/modules/third_party/zlib/upstream/adler32.c"
# 1 "c:/users/plu/documents/petetrlu/kitchen/spices/airplay4.4/modules/third_party/zlib/upstream/zlib.h" 1
# 34 "c:/users/plu/documents/petetrlu/kitchen/spices/airplay4.4/modules/third_party/zlib/upstream/zlib.h"
# 1 "c:/users/plu/documents/petetrlu/kitchen/spices/airplay4.4/modules/third_party/zlib/upstream/zconf.h" 1
# 261 "c:/users/plu/documents/petetrlu/kitchen/spices/airplay4.4/modules/third_party/zlib/upstream/zconf.h"
typedef unsigned char Byte;

typedef unsigned int uInt;
typedef unsigned long uLong;





   typedef Byte Bytef;

typedef char charf;
typedef int intf;
typedef uInt uIntf;
typedef uLong uLongf;


   typedef void const *voidpc;
   typedef void *voidpf;
   typedef void *voidp;
# 35 "c:/users/plu/documents/petetrlu/kitchen/spices/airplay4.4/modules/third_party/zlib/upstream/zlib.h" 2
# 77 "c:/users/plu/documents/petetrlu/kitchen/spices/airplay4.4/modules/third_party/zlib/upstream/zlib.h"
typedef voidpf (*alloc_func) (voidpf opaque, uInt items, uInt size);
typedef void (*free_func) (voidpf opaque, voidpf address);

struct internal_state;

typedef struct z_stream_s {
    Bytef *next_in;
    uInt avail_in;
    uLong total_in;

    Bytef *next_out;
    uInt avail_out;
    uLong total_out;

    char *msg;
    struct internal_state *state;

    alloc_func zalloc;
    free_func zfree;
    voidpf opaque;

    int data_type;
    uLong adler;
    uLong reserved;
} z_stream;

typedef z_stream *z_streamp;





typedef struct gz_header_s {
    int text;
    uLong time;
    int xflags;
    int os;
    Bytef *extra;
    uInt extra_len;
    uInt extra_max;
    Bytef *name;
    uInt name_max;
    Bytef *comment;
    uInt comm_max;
    int hcrc;
    int done;

} gz_header;

typedef gz_header *gz_headerp;
# 212 "c:/users/plu/documents/petetrlu/kitchen/spices/airplay4.4/modules/third_party/zlib/upstream/zlib.h"
extern const char * zlibVersion (void);
# 242 "c:/users/plu/documents/petetrlu/kitchen/spices/airplay4.4/modules/third_party/zlib/upstream/zlib.h"
extern int deflate (z_streamp strm, int flush);
# 328 "c:/users/plu/documents/petetrlu/kitchen/spices/airplay4.4/modules/third_party/zlib/upstream/zlib.h"
extern int deflateEnd (z_streamp strm);
# 363 "c:/users/plu/documents/petetrlu/kitchen/spices/airplay4.4/modules/third_party/zlib/upstream/zlib.h"
extern int inflate (z_streamp strm, int flush);
# 462 "c:/users/plu/documents/petetrlu/kitchen/spices/airplay4.4/modules/third_party/zlib/upstream/zlib.h"
extern int inflateEnd (z_streamp strm);
# 538 "c:/users/plu/documents/petetrlu/kitchen/spices/airplay4.4/modules/third_party/zlib/upstream/zlib.h"
extern int deflateSetDictionary (z_streamp strm, const Bytef *dictionary, uInt dictLength);
# 577 "c:/users/plu/documents/petetrlu/kitchen/spices/airplay4.4/modules/third_party/zlib/upstream/zlib.h"
extern int deflateCopy (z_streamp dest, z_streamp source);
# 595 "c:/users/plu/documents/petetrlu/kitchen/spices/airplay4.4/modules/third_party/zlib/upstream/zlib.h"
extern int deflateReset (z_streamp strm);
# 606 "c:/users/plu/documents/petetrlu/kitchen/spices/airplay4.4/modules/third_party/zlib/upstream/zlib.h"
extern int deflateParams (z_streamp strm, int level, int strategy);
# 627 "c:/users/plu/documents/petetrlu/kitchen/spices/airplay4.4/modules/third_party/zlib/upstream/zlib.h"
extern int deflateTune (z_streamp strm, int good_length, int max_lazy, int nice_length, int max_chain);
# 644 "c:/users/plu/documents/petetrlu/kitchen/spices/airplay4.4/modules/third_party/zlib/upstream/zlib.h"
extern uLong deflateBound (z_streamp strm, uLong sourceLen);
# 653 "c:/users/plu/documents/petetrlu/kitchen/spices/airplay4.4/modules/third_party/zlib/upstream/zlib.h"
extern int deflatePrime (z_streamp strm, int bits, int value);
# 669 "c:/users/plu/documents/petetrlu/kitchen/spices/airplay4.4/modules/third_party/zlib/upstream/zlib.h"
extern int deflateSetHeader (z_streamp strm, gz_headerp head);
# 736 "c:/users/plu/documents/petetrlu/kitchen/spices/airplay4.4/modules/third_party/zlib/upstream/zlib.h"
extern int inflateSetDictionary (z_streamp strm, const Bytef *dictionary, uInt dictLength);
# 758 "c:/users/plu/documents/petetrlu/kitchen/spices/airplay4.4/modules/third_party/zlib/upstream/zlib.h"
extern int inflateSync (z_streamp strm);
# 773 "c:/users/plu/documents/petetrlu/kitchen/spices/airplay4.4/modules/third_party/zlib/upstream/zlib.h"
extern int inflateCopy (z_streamp dest, z_streamp source);
# 789 "c:/users/plu/documents/petetrlu/kitchen/spices/airplay4.4/modules/third_party/zlib/upstream/zlib.h"
extern int inflateReset (z_streamp strm);
# 799 "c:/users/plu/documents/petetrlu/kitchen/spices/airplay4.4/modules/third_party/zlib/upstream/zlib.h"
extern int inflatePrime (z_streamp strm, int bits, int value);
# 815 "c:/users/plu/documents/petetrlu/kitchen/spices/airplay4.4/modules/third_party/zlib/upstream/zlib.h"
extern int inflateGetHeader (z_streamp strm, gz_headerp head);
# 877 "c:/users/plu/documents/petetrlu/kitchen/spices/airplay4.4/modules/third_party/zlib/upstream/zlib.h"
typedef unsigned (*in_func) (void *, unsigned char * *);
typedef int (*out_func) (void *, unsigned char *, unsigned);

extern int inflateBack (z_streamp strm, in_func in, void *in_desc, out_func out, void *out_desc);
# 949 "c:/users/plu/documents/petetrlu/kitchen/spices/airplay4.4/modules/third_party/zlib/upstream/zlib.h"
extern int inflateBackEnd (z_streamp strm);







extern uLong zlibCompileFlags (void);
# 1009 "c:/users/plu/documents/petetrlu/kitchen/spices/airplay4.4/modules/third_party/zlib/upstream/zlib.h"
extern int compress (Bytef *dest, uLongf *destLen, const Bytef *source, uLong sourceLen);
# 1024 "c:/users/plu/documents/petetrlu/kitchen/spices/airplay4.4/modules/third_party/zlib/upstream/zlib.h"
extern int compress2 (Bytef *dest, uLongf *destLen, const Bytef *source, uLong sourceLen, int level);
# 1040 "c:/users/plu/documents/petetrlu/kitchen/spices/airplay4.4/modules/third_party/zlib/upstream/zlib.h"
extern uLong compressBound (uLong sourceLen);






extern int uncompress (Bytef *dest, uLongf *destLen, const Bytef *source, uLong sourceLen);
# 1066 "c:/users/plu/documents/petetrlu/kitchen/spices/airplay4.4/modules/third_party/zlib/upstream/zlib.h"
typedef voidp gzFile;

extern gzFile gzopen (const char *path, const char *mode);
# 1085 "c:/users/plu/documents/petetrlu/kitchen/spices/airplay4.4/modules/third_party/zlib/upstream/zlib.h"
extern gzFile gzdopen (int fd, const char *mode);
# 1098 "c:/users/plu/documents/petetrlu/kitchen/spices/airplay4.4/modules/third_party/zlib/upstream/zlib.h"
extern int gzsetparams (gzFile file, int level, int strategy);







extern int gzread (gzFile file, voidp buf, unsigned len);







extern int gzwrite (gzFile file, voidpc buf, unsigned len);







extern int gzprintf (gzFile file, const char *format, ...);
# 1135 "c:/users/plu/documents/petetrlu/kitchen/spices/airplay4.4/modules/third_party/zlib/upstream/zlib.h"
extern int gzputs (gzFile file, const char *s);






extern char * gzgets (gzFile file, char *buf, int len);
# 1151 "c:/users/plu/documents/petetrlu/kitchen/spices/airplay4.4/modules/third_party/zlib/upstream/zlib.h"
extern int gzputc (gzFile file, int c);





extern int gzgetc (gzFile file);





extern int gzungetc (int c, gzFile file);
# 1173 "c:/users/plu/documents/petetrlu/kitchen/spices/airplay4.4/modules/third_party/zlib/upstream/zlib.h"
extern int gzflush (gzFile file, int flush);
# 1183 "c:/users/plu/documents/petetrlu/kitchen/spices/airplay4.4/modules/third_party/zlib/upstream/zlib.h"
extern long gzseek (gzFile file, long offset, int whence);
# 1201 "c:/users/plu/documents/petetrlu/kitchen/spices/airplay4.4/modules/third_party/zlib/upstream/zlib.h"
extern int gzrewind (gzFile file);






extern long gztell (gzFile file);
# 1217 "c:/users/plu/documents/petetrlu/kitchen/spices/airplay4.4/modules/third_party/zlib/upstream/zlib.h"
extern int gzeof (gzFile file);





extern int gzdirect (gzFile file);





extern int gzclose (gzFile file);






extern const char * gzerror (gzFile file, int *errnum);
# 1245 "c:/users/plu/documents/petetrlu/kitchen/spices/airplay4.4/modules/third_party/zlib/upstream/zlib.h"
extern void gzclearerr (gzFile file);
# 1260 "c:/users/plu/documents/petetrlu/kitchen/spices/airplay4.4/modules/third_party/zlib/upstream/zlib.h"
extern uLong adler32 (uLong adler, const Bytef *buf, uInt len);
# 1276 "c:/users/plu/documents/petetrlu/kitchen/spices/airplay4.4/modules/third_party/zlib/upstream/zlib.h"
extern uLong adler32_combine (uLong adler1, uLong adler2, long len2);
# 1285 "c:/users/plu/documents/petetrlu/kitchen/spices/airplay4.4/modules/third_party/zlib/upstream/zlib.h"
extern uLong crc32 (uLong crc, const Bytef *buf, uInt len);
# 1301 "c:/users/plu/documents/petetrlu/kitchen/spices/airplay4.4/modules/third_party/zlib/upstream/zlib.h"
extern uLong crc32_combine (uLong crc1, uLong crc2, long len2);
# 1317 "c:/users/plu/documents/petetrlu/kitchen/spices/airplay4.4/modules/third_party/zlib/upstream/zlib.h"
extern int deflateInit_ (z_streamp strm, int level, const char *version, int stream_size);

extern int inflateInit_ (z_streamp strm, const char *version, int stream_size);

extern int deflateInit2_ (z_streamp strm, int level, int method, int windowBits, int memLevel, int strategy, const char *version, int stream_size);



extern int inflateInit2_ (z_streamp strm, int windowBits, const char *version, int stream_size);

extern int inflateBackInit_ (z_streamp strm, int windowBits, unsigned char *window, const char *version, int stream_size);
# 1346 "c:/users/plu/documents/petetrlu/kitchen/spices/airplay4.4/modules/third_party/zlib/upstream/zlib.h"
    struct internal_state {int dummy;};


extern const char * zError (int);
extern int inflateSyncPoint (z_streamp z);
extern const uLongf * get_crc_table (void);
# 10 "c:/users/plu/documents/petetrlu/kitchen/spices/airplay4.4/modules/third_party/zlib/upstream/adler32.c" 2
# 57 "c:/users/plu/documents/petetrlu/kitchen/spices/airplay4.4/modules/third_party/zlib/upstream/adler32.c"
uLong adler32(adler, buf, len)
    uLong adler;
    const Bytef *buf;
    uInt len;
{
    unsigned long sum2;
    unsigned n;


    sum2 = (adler >> 16) & 0xffff;
    adler &= 0xffff;


    if (len == 1) {
        adler += buf[0];
        if (adler >= 65521UL)
            adler -= 65521UL;
        sum2 += adler;
        if (sum2 >= 65521UL)
            sum2 -= 65521UL;
        return adler | (sum2 << 16);
    }


    if (buf == 0)
        return 1L;


    if (len < 16) {
        while (len--) {
            adler += *buf++;
            sum2 += adler;
        }
        if (adler >= 65521UL)
            adler -= 65521UL;
        sum2 %= 65521UL;
        return adler | (sum2 << 16);
    }


    while (len >= 5552) {
        len -= 5552;
        n = 5552 / 16;
        do {
            {adler += (buf)[0]; sum2 += adler;}; {adler += (buf)[0 +1]; sum2 += adler;};; {adler += (buf)[0 +2]; sum2 += adler;}; {adler += (buf)[0 +2 +1]; sum2 += adler;};;; {adler += (buf)[0 +4]; sum2 += adler;}; {adler += (buf)[0 +4 +1]; sum2 += adler;};; {adler += (buf)[0 +4 +2]; sum2 += adler;}; {adler += (buf)[0 +4 +2 +1]; sum2 += adler;};;;; {adler += (buf)[8]; sum2 += adler;}; {adler += (buf)[8 +1]; sum2 += adler;};; {adler += (buf)[8 +2]; sum2 += adler;}; {adler += (buf)[8 +2 +1]; sum2 += adler;};;; {adler += (buf)[8 +4]; sum2 += adler;}; {adler += (buf)[8 +4 +1]; sum2 += adler;};; {adler += (buf)[8 +4 +2]; sum2 += adler;}; {adler += (buf)[8 +4 +2 +1]; sum2 += adler;};;;;;
            buf += 16;
        } while (--n);
        adler %= 65521UL;
        sum2 %= 65521UL;
    }


    if (len) {
        while (len >= 16) {
            len -= 16;
            {adler += (buf)[0]; sum2 += adler;}; {adler += (buf)[0 +1]; sum2 += adler;};; {adler += (buf)[0 +2]; sum2 += adler;}; {adler += (buf)[0 +2 +1]; sum2 += adler;};;; {adler += (buf)[0 +4]; sum2 += adler;}; {adler += (buf)[0 +4 +1]; sum2 += adler;};; {adler += (buf)[0 +4 +2]; sum2 += adler;}; {adler += (buf)[0 +4 +2 +1]; sum2 += adler;};;;; {adler += (buf)[8]; sum2 += adler;}; {adler += (buf)[8 +1]; sum2 += adler;};; {adler += (buf)[8 +2]; sum2 += adler;}; {adler += (buf)[8 +2 +1]; sum2 += adler;};;; {adler += (buf)[8 +4]; sum2 += adler;}; {adler += (buf)[8 +4 +1]; sum2 += adler;};; {adler += (buf)[8 +4 +2]; sum2 += adler;}; {adler += (buf)[8 +4 +2 +1]; sum2 += adler;};;;;;
            buf += 16;
        }
        while (len--) {
            adler += *buf++;
            sum2 += adler;
        }
        adler %= 65521UL;
        sum2 %= 65521UL;
    }


    return adler | (sum2 << 16);
}


uLong adler32_combine(adler1, adler2, len2)
    uLong adler1;
    uLong adler2;
    long len2;
{
    unsigned long sum1;
    unsigned long sum2;
    unsigned rem;


    rem = (unsigned)(len2 % 65521UL);
    sum1 = adler1 & 0xffff;
    sum2 = rem * sum1;
    sum2 %= 65521UL;
    sum1 += (adler2 & 0xffff) + 65521UL - 1;
    sum2 += ((adler1 >> 16) & 0xffff) + ((adler2 >> 16) & 0xffff) + 65521UL - rem;
    if (sum1 > 65521UL) sum1 -= 65521UL;
    if (sum1 > 65521UL) sum1 -= 65521UL;
    if (sum2 > (65521UL << 1)) sum2 -= (65521UL << 1);
    if (sum2 > 65521UL) sum2 -= 65521UL;
    return sum1 | (sum2 << 16);
}
