# 1 "c:/users/plu/documents/petetrlu/kitchen/spices/airplay4.4/modules/third_party/zlib/upstream/deflate.c"
# 1 "<built-in>"
# 1 "<command-line>"
# 1 "C:/Users/plu/Documents/petetrlu/kitchen/faucet/self_help/test1/build_test1_vc10/temp_defines_release.h" 1
# 1 "<command-line>" 2
# 1 "c:/users/plu/documents/petetrlu/kitchen/spices/airplay4.4/modules/third_party/zlib/upstream/deflate.c"
# 52 "c:/users/plu/documents/petetrlu/kitchen/spices/airplay4.4/modules/third_party/zlib/upstream/deflate.c"
# 1 "c:/users/plu/documents/petetrlu/kitchen/spices/airplay4.4/modules/third_party/zlib/upstream/deflate.h" 1
# 16 "c:/users/plu/documents/petetrlu/kitchen/spices/airplay4.4/modules/third_party/zlib/upstream/deflate.h"
# 1 "c:/users/plu/documents/petetrlu/kitchen/spices/airplay4.4/modules/third_party/zlib/upstream/zutil.h" 1
# 17 "c:/users/plu/documents/petetrlu/kitchen/spices/airplay4.4/modules/third_party/zlib/upstream/zutil.h"
# 1 "c:/users/plu/documents/petetrlu/kitchen/spices/airplay4.4/modules/third_party/zlib/upstream/zlib.h" 1
# 34 "c:/users/plu/documents/petetrlu/kitchen/spices/airplay4.4/modules/third_party/zlib/upstream/zlib.h"
# 1 "c:/users/plu/documents/petetrlu/kitchen/spices/airplay4.4/modules/third_party/zlib/upstream/zconf.h" 1
# 261 "c:/users/plu/documents/petetrlu/kitchen/spices/airplay4.4/modules/third_party/zlib/upstream/zconf.h"
typedef unsigned char Byte;

typedef unsigned int uInt;
typedef unsigned long uLong;





   typedef Byte Bytef;

typedef char charf;
typedef int intf;
typedef uInt uIntf;
typedef uLong uLongf;


   typedef void const *voidpc;
   typedef void *voidpf;
   typedef void *voidp;
# 35 "c:/users/plu/documents/petetrlu/kitchen/spices/airplay4.4/modules/third_party/zlib/upstream/zlib.h" 2
# 77 "c:/users/plu/documents/petetrlu/kitchen/spices/airplay4.4/modules/third_party/zlib/upstream/zlib.h"
typedef voidpf (*alloc_func) (voidpf opaque, uInt items, uInt size);
typedef void (*free_func) (voidpf opaque, voidpf address);

struct internal_state;

typedef struct z_stream_s {
    Bytef *next_in;
    uInt avail_in;
    uLong total_in;

    Bytef *next_out;
    uInt avail_out;
    uLong total_out;

    char *msg;
    struct internal_state *state;

    alloc_func zalloc;
    free_func zfree;
    voidpf opaque;

    int data_type;
    uLong adler;
    uLong reserved;
} z_stream;

typedef z_stream *z_streamp;





typedef struct gz_header_s {
    int text;
    uLong time;
    int xflags;
    int os;
    Bytef *extra;
    uInt extra_len;
    uInt extra_max;
    Bytef *name;
    uInt name_max;
    Bytef *comment;
    uInt comm_max;
    int hcrc;
    int done;

} gz_header;

typedef gz_header *gz_headerp;
# 212 "c:/users/plu/documents/petetrlu/kitchen/spices/airplay4.4/modules/third_party/zlib/upstream/zlib.h"
extern const char * zlibVersion (void);
# 242 "c:/users/plu/documents/petetrlu/kitchen/spices/airplay4.4/modules/third_party/zlib/upstream/zlib.h"
extern int deflate (z_streamp strm, int flush);
# 328 "c:/users/plu/documents/petetrlu/kitchen/spices/airplay4.4/modules/third_party/zlib/upstream/zlib.h"
extern int deflateEnd (z_streamp strm);
# 363 "c:/users/plu/documents/petetrlu/kitchen/spices/airplay4.4/modules/third_party/zlib/upstream/zlib.h"
extern int inflate (z_streamp strm, int flush);
# 462 "c:/users/plu/documents/petetrlu/kitchen/spices/airplay4.4/modules/third_party/zlib/upstream/zlib.h"
extern int inflateEnd (z_streamp strm);
# 538 "c:/users/plu/documents/petetrlu/kitchen/spices/airplay4.4/modules/third_party/zlib/upstream/zlib.h"
extern int deflateSetDictionary (z_streamp strm, const Bytef *dictionary, uInt dictLength);
# 577 "c:/users/plu/documents/petetrlu/kitchen/spices/airplay4.4/modules/third_party/zlib/upstream/zlib.h"
extern int deflateCopy (z_streamp dest, z_streamp source);
# 595 "c:/users/plu/documents/petetrlu/kitchen/spices/airplay4.4/modules/third_party/zlib/upstream/zlib.h"
extern int deflateReset (z_streamp strm);
# 606 "c:/users/plu/documents/petetrlu/kitchen/spices/airplay4.4/modules/third_party/zlib/upstream/zlib.h"
extern int deflateParams (z_streamp strm, int level, int strategy);
# 627 "c:/users/plu/documents/petetrlu/kitchen/spices/airplay4.4/modules/third_party/zlib/upstream/zlib.h"
extern int deflateTune (z_streamp strm, int good_length, int max_lazy, int nice_length, int max_chain);
# 644 "c:/users/plu/documents/petetrlu/kitchen/spices/airplay4.4/modules/third_party/zlib/upstream/zlib.h"
extern uLong deflateBound (z_streamp strm, uLong sourceLen);
# 653 "c:/users/plu/documents/petetrlu/kitchen/spices/airplay4.4/modules/third_party/zlib/upstream/zlib.h"
extern int deflatePrime (z_streamp strm, int bits, int value);
# 669 "c:/users/plu/documents/petetrlu/kitchen/spices/airplay4.4/modules/third_party/zlib/upstream/zlib.h"
extern int deflateSetHeader (z_streamp strm, gz_headerp head);
# 736 "c:/users/plu/documents/petetrlu/kitchen/spices/airplay4.4/modules/third_party/zlib/upstream/zlib.h"
extern int inflateSetDictionary (z_streamp strm, const Bytef *dictionary, uInt dictLength);
# 758 "c:/users/plu/documents/petetrlu/kitchen/spices/airplay4.4/modules/third_party/zlib/upstream/zlib.h"
extern int inflateSync (z_streamp strm);
# 773 "c:/users/plu/documents/petetrlu/kitchen/spices/airplay4.4/modules/third_party/zlib/upstream/zlib.h"
extern int inflateCopy (z_streamp dest, z_streamp source);
# 789 "c:/users/plu/documents/petetrlu/kitchen/spices/airplay4.4/modules/third_party/zlib/upstream/zlib.h"
extern int inflateReset (z_streamp strm);
# 799 "c:/users/plu/documents/petetrlu/kitchen/spices/airplay4.4/modules/third_party/zlib/upstream/zlib.h"
extern int inflatePrime (z_streamp strm, int bits, int value);
# 815 "c:/users/plu/documents/petetrlu/kitchen/spices/airplay4.4/modules/third_party/zlib/upstream/zlib.h"
extern int inflateGetHeader (z_streamp strm, gz_headerp head);
# 877 "c:/users/plu/documents/petetrlu/kitchen/spices/airplay4.4/modules/third_party/zlib/upstream/zlib.h"
typedef unsigned (*in_func) (void *, unsigned char * *);
typedef int (*out_func) (void *, unsigned char *, unsigned);

extern int inflateBack (z_streamp strm, in_func in, void *in_desc, out_func out, void *out_desc);
# 949 "c:/users/plu/documents/petetrlu/kitchen/spices/airplay4.4/modules/third_party/zlib/upstream/zlib.h"
extern int inflateBackEnd (z_streamp strm);







extern uLong zlibCompileFlags (void);
# 1009 "c:/users/plu/documents/petetrlu/kitchen/spices/airplay4.4/modules/third_party/zlib/upstream/zlib.h"
extern int compress (Bytef *dest, uLongf *destLen, const Bytef *source, uLong sourceLen);
# 1024 "c:/users/plu/documents/petetrlu/kitchen/spices/airplay4.4/modules/third_party/zlib/upstream/zlib.h"
extern int compress2 (Bytef *dest, uLongf *destLen, const Bytef *source, uLong sourceLen, int level);
# 1040 "c:/users/plu/documents/petetrlu/kitchen/spices/airplay4.4/modules/third_party/zlib/upstream/zlib.h"
extern uLong compressBound (uLong sourceLen);






extern int uncompress (Bytef *dest, uLongf *destLen, const Bytef *source, uLong sourceLen);
# 1066 "c:/users/plu/documents/petetrlu/kitchen/spices/airplay4.4/modules/third_party/zlib/upstream/zlib.h"
typedef voidp gzFile;

extern gzFile gzopen (const char *path, const char *mode);
# 1085 "c:/users/plu/documents/petetrlu/kitchen/spices/airplay4.4/modules/third_party/zlib/upstream/zlib.h"
extern gzFile gzdopen (int fd, const char *mode);
# 1098 "c:/users/plu/documents/petetrlu/kitchen/spices/airplay4.4/modules/third_party/zlib/upstream/zlib.h"
extern int gzsetparams (gzFile file, int level, int strategy);







extern int gzread (gzFile file, voidp buf, unsigned len);







extern int gzwrite (gzFile file, voidpc buf, unsigned len);







extern int gzprintf (gzFile file, const char *format, ...);
# 1135 "c:/users/plu/documents/petetrlu/kitchen/spices/airplay4.4/modules/third_party/zlib/upstream/zlib.h"
extern int gzputs (gzFile file, const char *s);






extern char * gzgets (gzFile file, char *buf, int len);
# 1151 "c:/users/plu/documents/petetrlu/kitchen/spices/airplay4.4/modules/third_party/zlib/upstream/zlib.h"
extern int gzputc (gzFile file, int c);





extern int gzgetc (gzFile file);





extern int gzungetc (int c, gzFile file);
# 1173 "c:/users/plu/documents/petetrlu/kitchen/spices/airplay4.4/modules/third_party/zlib/upstream/zlib.h"
extern int gzflush (gzFile file, int flush);
# 1183 "c:/users/plu/documents/petetrlu/kitchen/spices/airplay4.4/modules/third_party/zlib/upstream/zlib.h"
extern long gzseek (gzFile file, long offset, int whence);
# 1201 "c:/users/plu/documents/petetrlu/kitchen/spices/airplay4.4/modules/third_party/zlib/upstream/zlib.h"
extern int gzrewind (gzFile file);






extern long gztell (gzFile file);
# 1217 "c:/users/plu/documents/petetrlu/kitchen/spices/airplay4.4/modules/third_party/zlib/upstream/zlib.h"
extern int gzeof (gzFile file);





extern int gzdirect (gzFile file);





extern int gzclose (gzFile file);






extern const char * gzerror (gzFile file, int *errnum);
# 1245 "c:/users/plu/documents/petetrlu/kitchen/spices/airplay4.4/modules/third_party/zlib/upstream/zlib.h"
extern void gzclearerr (gzFile file);
# 1260 "c:/users/plu/documents/petetrlu/kitchen/spices/airplay4.4/modules/third_party/zlib/upstream/zlib.h"
extern uLong adler32 (uLong adler, const Bytef *buf, uInt len);
# 1276 "c:/users/plu/documents/petetrlu/kitchen/spices/airplay4.4/modules/third_party/zlib/upstream/zlib.h"
extern uLong adler32_combine (uLong adler1, uLong adler2, long len2);
# 1285 "c:/users/plu/documents/petetrlu/kitchen/spices/airplay4.4/modules/third_party/zlib/upstream/zlib.h"
extern uLong crc32 (uLong crc, const Bytef *buf, uInt len);
# 1301 "c:/users/plu/documents/petetrlu/kitchen/spices/airplay4.4/modules/third_party/zlib/upstream/zlib.h"
extern uLong crc32_combine (uLong crc1, uLong crc2, long len2);
# 1317 "c:/users/plu/documents/petetrlu/kitchen/spices/airplay4.4/modules/third_party/zlib/upstream/zlib.h"
extern int deflateInit_ (z_streamp strm, int level, const char *version, int stream_size);

extern int inflateInit_ (z_streamp strm, const char *version, int stream_size);

extern int deflateInit2_ (z_streamp strm, int level, int method, int windowBits, int memLevel, int strategy, const char *version, int stream_size);



extern int inflateInit2_ (z_streamp strm, int windowBits, const char *version, int stream_size);

extern int inflateBackInit_ (z_streamp strm, int windowBits, unsigned char *window, const char *version, int stream_size);
# 1349 "c:/users/plu/documents/petetrlu/kitchen/spices/airplay4.4/modules/third_party/zlib/upstream/zlib.h"
extern const char * zError (int);
extern int inflateSyncPoint (z_streamp z);
extern const uLongf * get_crc_table (void);
# 18 "c:/users/plu/documents/petetrlu/kitchen/spices/airplay4.4/modules/third_party/zlib/upstream/zutil.h" 2



# 1 "c:/users/plu/documents/petetrlu/kitchen/spices/airplay4.4/s3e/h/std/stddef.h" 1
# 15 "c:/users/plu/documents/petetrlu/kitchen/spices/airplay4.4/s3e/h/std/stddef.h"
typedef signed int ptrdiff_t;


    typedef unsigned int wint_t;
    typedef unsigned long int wctype_t;



    typedef unsigned short wchar_t;



typedef unsigned int size_t;
# 22 "c:/users/plu/documents/petetrlu/kitchen/spices/airplay4.4/modules/third_party/zlib/upstream/zutil.h" 2

# 1 "c:/users/plu/documents/petetrlu/kitchen/spices/airplay4.4/s3e/h/std/string.h" 1
# 15 "c:/users/plu/documents/petetrlu/kitchen/spices/airplay4.4/s3e/h/std/string.h"
# 1 "c:/users/plu/documents/petetrlu/kitchen/spices/airplay4.4/s3e/h/std/sys/types.h" 1
# 15 "c:/users/plu/documents/petetrlu/kitchen/spices/airplay4.4/s3e/h/std/sys/types.h"
# 1 "c:/users/plu/documents/petetrlu/kitchen/spices/airplay4.4/s3e/h/s3eTypes.h" 1
# 37 "c:/users/plu/documents/petetrlu/kitchen/spices/airplay4.4/s3e/h/s3eTypes.h"
typedef unsigned char s3e_uint8_t;
typedef signed char s3e_int8_t;
typedef unsigned short int s3e_uint16_t;
typedef signed short int s3e_int16_t;
typedef unsigned int s3e_uint32_t;
typedef signed int s3e_int32_t;
# 51 "c:/users/plu/documents/petetrlu/kitchen/spices/airplay4.4/s3e/h/s3eTypes.h"
  typedef signed long long s3e_int64_t;
  typedef unsigned long long s3e_uint64_t;
# 72 "c:/users/plu/documents/petetrlu/kitchen/spices/airplay4.4/s3e/h/s3eTypes.h"
typedef s3e_uint64_t uint64_t;
typedef s3e_int64_t int64_t;
typedef s3e_uint32_t uint32_t;
typedef s3e_int32_t int32_t;
typedef s3e_uint16_t uint16_t;
typedef s3e_int16_t int16_t;
typedef s3e_uint8_t uint8_t;
typedef s3e_int8_t int8_t;
# 93 "c:/users/plu/documents/petetrlu/kitchen/spices/airplay4.4/s3e/h/s3eTypes.h"
 typedef int intptr_t;
 typedef unsigned int uintptr_t;
# 104 "c:/users/plu/documents/petetrlu/kitchen/spices/airplay4.4/s3e/h/s3eTypes.h"
typedef unsigned int uint;
typedef unsigned short int ushort;
typedef unsigned long int ulong;
typedef unsigned char uint8;
typedef signed char int8;







typedef int64_t int64;
typedef uint64_t uint64;
# 126 "c:/users/plu/documents/petetrlu/kitchen/spices/airplay4.4/s3e/h/s3eTypes.h"
typedef unsigned int uint32;
# 135 "c:/users/plu/documents/petetrlu/kitchen/spices/airplay4.4/s3e/h/s3eTypes.h"
typedef signed int int32;





typedef uint16_t uint16;




typedef int16_t int16;
# 217 "c:/users/plu/documents/petetrlu/kitchen/spices/airplay4.4/s3e/h/s3eTypes.h"
typedef enum s3eResult
{
    S3E_RESULT_SUCCESS = 0,
    S3E_RESULT_ERROR = 1
} s3eResult;




typedef uint8 s3eBool;
# 237 "c:/users/plu/documents/petetrlu/kitchen/spices/airplay4.4/s3e/h/s3eTypes.h"
typedef unsigned short s3eWChar;
# 308 "c:/users/plu/documents/petetrlu/kitchen/spices/airplay4.4/s3e/h/s3eTypes.h"
typedef int32 (*s3eCallback) (void* systemData, void* userData);
# 16 "c:/users/plu/documents/petetrlu/kitchen/spices/airplay4.4/s3e/h/std/sys/types.h" 2

# 1 "c:/users/plu/documents/petetrlu/kitchen/spices/airplay4.4/s3e/h/std/stdint.h" 1
# 19 "c:/users/plu/documents/petetrlu/kitchen/spices/airplay4.4/s3e/h/std/stdint.h"
typedef signed char int_least8_t;
typedef short int_least16_t;
typedef long int_least32_t;
typedef int64_t int_least64_t;

typedef unsigned char uint_least8_t;
typedef unsigned short uint_least16_t;
typedef unsigned long uint_least32_t;
typedef uint64_t uint_least64_t;

typedef signed char int_fast8_t;
typedef short int_fast16_t;
typedef long int_fast32_t;
typedef int64_t int_fast64_t;

typedef unsigned char uint_fast8_t;
typedef unsigned short uint_fast16_t;
typedef unsigned long uint_fast32_t;
typedef uint64_t uint_fast64_t;

typedef int64_t intmax_t;
typedef uint64_t uintmax_t;
# 18 "c:/users/plu/documents/petetrlu/kitchen/spices/airplay4.4/s3e/h/std/sys/types.h" 2
# 1 "c:/users/plu/documents/petetrlu/kitchen/spices/airplay4.4/s3e/h/std/sys/select.h" 1
# 24 "c:/users/plu/documents/petetrlu/kitchen/spices/airplay4.4/s3e/h/std/sys/select.h"
struct timeval;

typedef struct fd_set
{
    char fds_bits[256/8];
} fd_set;
# 39 "c:/users/plu/documents/petetrlu/kitchen/spices/airplay4.4/s3e/h/std/sys/select.h"


int select(int nfds, fd_set *readfds, fd_set *writefds, fd_set *exceptfds, struct timeval *timeout);


# 19 "c:/users/plu/documents/petetrlu/kitchen/spices/airplay4.4/s3e/h/std/sys/types.h" 2



typedef long off_t;

typedef int64_t off64_t;
# 33 "c:/users/plu/documents/petetrlu/kitchen/spices/airplay4.4/s3e/h/std/sys/types.h"
typedef uint u_int;
typedef uint8_t u_int8_t;
typedef uint16_t u_int16_t;
typedef uint32_t u_int32_t;
typedef uint64_t u_int64_t;

typedef unsigned short u_short;
typedef unsigned long u_long;
typedef unsigned char u_char;

typedef int ssize_t;
typedef int pid_t;
typedef short uid_t;
typedef short gid_t;
typedef int idtype_t;
typedef int id_t;
typedef uint32 mode_t;
typedef short dev_t;
typedef short ino_t;
typedef int key_t;
typedef void* caddr_t;
# 16 "c:/users/plu/documents/petetrlu/kitchen/spices/airplay4.4/s3e/h/std/string.h" 2



void *memcpy(void *dest, const void *src, size_t n);
void *memset(void *s, int c, size_t n);
int memcmp(const void *s1, const void *s2, size_t n);
void *memmove(void *dest, const void *src, size_t n);
void *memchr(const void *s, int c, size_t n);
void *memrchr(const void *s, int c, size_t n);







int strcmp(const char *s1, const char *s2);
int strncmp(const char *s1, const char *s2, size_t n);
char *strsep(char **stringp, const char *delim);
char *strcpy(char *dest, const char *src);
char *strncpy(char *dest, const char *src, size_t n);
char *strchr(const char *s, int c);
char *strstr(const char *haystack, const char *needle);
char *strrchr(const char *s, int c);
char *strdup(const char *s);
char *strtok(char *str, const char *delim);
char *strtok_r(char *str, const char *delim, char **saveptr);
char *strcat(char *dest, const char *src);
char *strncat(char *dest, const char *src, size_t n);
size_t strlen(const char *s);
size_t strnlen(const char *s, size_t n);
int strcasecmp(const char *s1, const char *s2);
int strncasecmp(const char *s1, const char *s2, size_t n);
size_t strspn(const char *s, const char *accept);
size_t strcspn(const char *s, const char *reject);
char *strpbrk(const char *s, const char *accept);
int strcoll(const char *s1, const char *s2);
char *strerror(int errnum);
size_t strxfrm(char *dest, const char *src, size_t n);

int strerror_r(int errnum, char *buf, size_t buflen);





size_t strlcpy(char* dest, const char* src, size_t len);
size_t strlcat(char* dest, const char* src, size_t len);


# 24 "c:/users/plu/documents/petetrlu/kitchen/spices/airplay4.4/modules/third_party/zlib/upstream/zutil.h" 2
# 1 "c:/users/plu/documents/petetrlu/kitchen/spices/airplay4.4/s3e/h/std/stdlib.h" 1
# 16 "c:/users/plu/documents/petetrlu/kitchen/spices/airplay4.4/s3e/h/std/stdlib.h"
# 1 "c:/users/plu/documents/petetrlu/kitchen/spices/airplay4.4/s3e/h/std/malloc.h" 1
# 16 "c:/users/plu/documents/petetrlu/kitchen/spices/airplay4.4/s3e/h/std/malloc.h"
# 1 "c:/users/plu/documents/petetrlu/kitchen/spices/airplay4.4/s3e/h/std/alloca.h" 1
# 17 "c:/users/plu/documents/petetrlu/kitchen/spices/airplay4.4/s3e/h/std/alloca.h"



    extern void *alloca(size_t __size);
# 35 "c:/users/plu/documents/petetrlu/kitchen/spices/airplay4.4/s3e/h/std/alloca.h"

# 17 "c:/users/plu/documents/petetrlu/kitchen/spices/airplay4.4/s3e/h/std/malloc.h" 2



void *calloc(size_t nmemb, size_t size);
void *malloc(size_t size);
void free(void *ptr);
void *realloc(void *ptr, size_t size);


# 17 "c:/users/plu/documents/petetrlu/kitchen/spices/airplay4.4/s3e/h/std/stdlib.h" 2
# 28 "c:/users/plu/documents/petetrlu/kitchen/spices/airplay4.4/s3e/h/std/stdlib.h"


double atof(const char* string);
int atoi(const char *nptr);
long atol(const char *nptr);
int64_t atoll(const char *nptr);
int64_t atoq(const char *nptr);
int abs(int j);
long int labs(long int j);
int64_t llabs(int64_t j);
void qsort(void *base, size_t nmemb, size_t size, int(*compar)(const void *, const void *));
void *bsearch(const void *key, const void *base, size_t nmemb, size_t size, int (*compar)(const void *, const void *));
void abort(void);
int putenv(char *string);
char *getenv(const char *name);
int setenv(const char *name, const char *value, int overwrite);
int unsetenv(const char *name);
void exit(int status) __attribute__ ((noreturn));
void _exit(int status) __attribute__ ((noreturn));
void _Exit(int status) __attribute__ ((noreturn));
unsigned long int strtoul(const char *nptr, char **endptr, int base);
uint64_t strtoull(const char *nptr, char **endptr, int base);
long int strtol(const char *nptr, char **endptr, int base);
int64_t strtoll(const char *nptr, char **endptr, int base);
double strtod(const char *nptr, char **endptr);
float strtof(const char *nptr, char **endptr);
long double strtold(const char *nptr, char **endptr);
int atexit(void (*function)(void));
int system(const char *command);
int posix_memalign(void **memptr, size_t alignment, size_t size);
char *mktemp(char *templ);
int mkstemp(char *templ);



int rand(void);
void srand(unsigned int seed);

long int random(void);
void srandom(unsigned int seed);

size_t __ctype_get_mb_cur_max();


int mblen(const char *s, size_t n);
int mbtowc(wchar_t *pwc, const char *s, size_t n);
int wctomb(char *s, wchar_t wc);
size_t mbstowcs(wchar_t *dest, const char *src, size_t n);
size_t wcstombs(char *dest, const wchar_t *src, size_t n);

typedef struct
{
    int quot;
    int rem;
} div_t;

typedef struct
{
    int quot;
    int rem;
} ldiv_t;

typedef struct
{
    int64_t quot;
    int64_t rem;
} lldiv_t;

div_t div(int numerator, int denominator);
ldiv_t ldiv(long numerator, long denominator);
lldiv_t lldiv(int64_t numerator, int64_t denominator);
# 117 "c:/users/plu/documents/petetrlu/kitchen/spices/airplay4.4/s3e/h/std/stdlib.h"

# 25 "c:/users/plu/documents/petetrlu/kitchen/spices/airplay4.4/modules/third_party/zlib/upstream/zutil.h" 2
# 38 "c:/users/plu/documents/petetrlu/kitchen/spices/airplay4.4/modules/third_party/zlib/upstream/zutil.h"
# 1 "c:/users/plu/documents/petetrlu/kitchen/spices/airplay4.4/s3e/h/std/errno.h" 1
# 17 "c:/users/plu/documents/petetrlu/kitchen/spices/airplay4.4/s3e/h/std/errno.h"

# 31 "c:/users/plu/documents/petetrlu/kitchen/spices/airplay4.4/s3e/h/std/errno.h"
        extern int *__errno(void);
# 41 "c:/users/plu/documents/petetrlu/kitchen/spices/airplay4.4/s3e/h/std/errno.h"
char *strerror(int errnum);


# 39 "c:/users/plu/documents/petetrlu/kitchen/spices/airplay4.4/modules/third_party/zlib/upstream/zutil.h" 2
# 47 "c:/users/plu/documents/petetrlu/kitchen/spices/airplay4.4/modules/third_party/zlib/upstream/zutil.h"
typedef unsigned char uch;
typedef uch uchf;
typedef unsigned short ush;
typedef ush ushf;
typedef unsigned long ulg;

extern const char * const z_errmsg[10];
# 261 "c:/users/plu/documents/petetrlu/kitchen/spices/airplay4.4/modules/third_party/zlib/upstream/zutil.h"
voidpf zcalloc (voidpf opaque, unsigned items, unsigned size);
void zcfree (voidpf opaque, voidpf ptr);
# 17 "c:/users/plu/documents/petetrlu/kitchen/spices/airplay4.4/modules/third_party/zlib/upstream/deflate.h" 2
# 62 "c:/users/plu/documents/petetrlu/kitchen/spices/airplay4.4/modules/third_party/zlib/upstream/deflate.h"
typedef struct ct_data_s {
    union {
        ush freq;
        ush code;
    } fc;
    union {
        ush dad;
        ush len;
    } dl;
} ct_data;






typedef struct static_tree_desc_s static_tree_desc;

typedef struct tree_desc_s {
    ct_data *dyn_tree;
    int max_code;
    static_tree_desc *stat_desc;
} tree_desc;

typedef ush Pos;
typedef Pos Posf;
typedef unsigned IPos;





typedef struct internal_state {
    z_streamp strm;
    int status;
    Bytef *pending_buf;
    ulg pending_buf_size;
    Bytef *pending_out;
    uInt pending;
    int wrap;
    gz_headerp gzhead;
    uInt gzindex;
    Byte method;
    int last_flush;



    uInt w_size;
    uInt w_bits;
    uInt w_mask;

    Bytef *window;
# 123 "c:/users/plu/documents/petetrlu/kitchen/spices/airplay4.4/modules/third_party/zlib/upstream/deflate.h"
    ulg window_size;




    Posf *prev;





    Posf *head;

    uInt ins_h;
    uInt hash_size;
    uInt hash_bits;
    uInt hash_mask;

    uInt hash_shift;






    long block_start;




    uInt match_length;
    IPos prev_match;
    int match_available;
    uInt strstart;
    uInt match_start;
    uInt lookahead;

    uInt prev_length;




    uInt max_chain_length;





    uInt max_lazy_match;
# 182 "c:/users/plu/documents/petetrlu/kitchen/spices/airplay4.4/modules/third_party/zlib/upstream/deflate.h"
    int level;
    int strategy;

    uInt good_match;


    int nice_match;



    struct ct_data_s dyn_ltree[(2*(256 +1+29)+1)];
    struct ct_data_s dyn_dtree[2*30 +1];
    struct ct_data_s bl_tree[2*19 +1];

    struct tree_desc_s l_desc;
    struct tree_desc_s d_desc;
    struct tree_desc_s bl_desc;

    ush bl_count[15 +1];


    int heap[2*(256 +1+29)+1];
    int heap_len;
    int heap_max;




    uch depth[2*(256 +1+29)+1];



    uchf *l_buf;

    uInt lit_bufsize;
# 236 "c:/users/plu/documents/petetrlu/kitchen/spices/airplay4.4/modules/third_party/zlib/upstream/deflate.h"
    uInt last_lit;

    ushf *d_buf;





    ulg opt_len;
    ulg static_len;
    uInt matches;
    int last_eob_len;






    ush bi_buf;



    int bi_valid;




} deflate_state;
# 282 "c:/users/plu/documents/petetrlu/kitchen/spices/airplay4.4/modules/third_party/zlib/upstream/deflate.h"
void _tr_init (deflate_state *s);
int _tr_tally (deflate_state *s, unsigned dist, unsigned lc);
void _tr_flush_block (deflate_state *s, charf *buf, ulg stored_len, int eof);

void _tr_align (deflate_state *s);
void _tr_stored_block (deflate_state *s, charf *buf, ulg stored_len, int eof);
# 304 "c:/users/plu/documents/petetrlu/kitchen/spices/airplay4.4/modules/third_party/zlib/upstream/deflate.h"
  extern const uch _length_code[];
  extern const uch _dist_code[];
# 53 "c:/users/plu/documents/petetrlu/kitchen/spices/airplay4.4/modules/third_party/zlib/upstream/deflate.c" 2

const char deflate_copyright[] =
   " deflate 1.2.3 Copyright 1995-2005 Jean-loup Gailly ";
# 66 "c:/users/plu/documents/petetrlu/kitchen/spices/airplay4.4/modules/third_party/zlib/upstream/deflate.c"
typedef enum {
    need_more,
    block_done,
    finish_started,
    finish_done
} block_state;

typedef block_state (*compress_func) (deflate_state *s, int flush);


static void fill_window (deflate_state *s);
static block_state deflate_stored (deflate_state *s, int flush);
static block_state deflate_fast (deflate_state *s, int flush);

static block_state deflate_slow (deflate_state *s, int flush);

static void lm_init (deflate_state *s);
static void putShortMSB (deflate_state *s, uInt b);
static void flush_pending (z_streamp strm);
static int read_buf (z_streamp strm, Bytef *buf, unsigned size);





static uInt longest_match (deflate_state *s, IPos cur_match);


static uInt longest_match_fast (deflate_state *s, IPos cur_match);
# 123 "c:/users/plu/documents/petetrlu/kitchen/spices/airplay4.4/modules/third_party/zlib/upstream/deflate.c"
typedef struct config_s {
   ush good_length;
   ush max_lazy;
   ush nice_length;
   ush max_chain;
   compress_func func;
} config;







static const config configuration_table[10] = {

        {0, 0, 0, 0, deflate_stored},
        {4, 4, 8, 4, deflate_fast},
        {4, 5, 16, 8, deflate_fast},
        {4, 6, 32, 32, deflate_fast},

        {4, 4, 16, 16, deflate_slow},
        {8, 16, 32, 32, deflate_slow},
        {8, 16, 128, 128, deflate_slow},
        {8, 32, 128, 256, deflate_slow},
        {32, 128, 258, 1024, deflate_slow},
        {32, 258, 258, 4096, deflate_slow}};
# 161 "c:/users/plu/documents/petetrlu/kitchen/spices/airplay4.4/modules/third_party/zlib/upstream/deflate.c"
struct static_tree_desc_s {int dummy;};
# 204 "c:/users/plu/documents/petetrlu/kitchen/spices/airplay4.4/modules/third_party/zlib/upstream/deflate.c"
int deflateInit_(strm, level, version, stream_size)
    z_streamp strm;
    int level;
    const char *version;
    int stream_size;
{
    return deflateInit2_(strm, level, 8, 15, 8,
                         0, version, stream_size);

}


int deflateInit2_(strm, level, method, windowBits, memLevel, strategy,
                  version, stream_size)
    z_streamp strm;
    int level;
    int method;
    int windowBits;
    int memLevel;
    int strategy;
    const char *version;
    int stream_size;
{
    deflate_state *s;
    int wrap = 1;
    static const char my_version[] = "1.2.3";

    ushf *overlay;




    if (version == 0 || version[0] != my_version[0] ||
        stream_size != sizeof(z_stream)) {
        return (-6);
    }
    if (strm == 0) return (-2);

    strm->msg = 0;
    if (strm->zalloc == (alloc_func)0) {
        strm->zalloc = zcalloc;
        strm->opaque = (voidpf)0;
    }
    if (strm->zfree == (free_func)0) strm->zfree = zcfree;




    if (level == (-1)) level = 6;


    if (windowBits < 0) {
        wrap = 0;
        windowBits = -windowBits;
    }

    else if (windowBits > 15) {
        wrap = 2;
        windowBits -= 16;
    }

    if (memLevel < 1 || memLevel > 9 || method != 8 ||
        windowBits < 8 || windowBits > 15 || level < 0 || level > 9 ||
        strategy < 0 || strategy > 4) {
        return (-2);
    }
    if (windowBits == 8) windowBits = 9;
    s = (deflate_state *) (*((strm)->zalloc))((strm)->opaque, (1), (sizeof(deflate_state)));
    if (s == 0) return (-4);
    strm->state = (struct internal_state *)s;
    s->strm = strm;

    s->wrap = wrap;
    s->gzhead = 0;
    s->w_bits = windowBits;
    s->w_size = 1 << s->w_bits;
    s->w_mask = s->w_size - 1;

    s->hash_bits = memLevel + 7;
    s->hash_size = 1 << s->hash_bits;
    s->hash_mask = s->hash_size - 1;
    s->hash_shift = ((s->hash_bits+3 -1)/3);

    s->window = (Bytef *) (*((strm)->zalloc))((strm)->opaque, (s->w_size), (2*sizeof(Byte)));
    s->prev = (Posf *) (*((strm)->zalloc))((strm)->opaque, (s->w_size), (sizeof(Pos)));
    s->head = (Posf *) (*((strm)->zalloc))((strm)->opaque, (s->hash_size), (sizeof(Pos)));

    s->lit_bufsize = 1 << (memLevel + 6);

    overlay = (ushf *) (*((strm)->zalloc))((strm)->opaque, (s->lit_bufsize), (sizeof(ush)+2));
    s->pending_buf = (uchf *) overlay;
    s->pending_buf_size = (ulg)s->lit_bufsize * (sizeof(ush)+2L);

    if (s->window == 0 || s->prev == 0 || s->head == 0 ||
        s->pending_buf == 0) {
        s->status = 666;
        strm->msg = (char*)z_errmsg[2 -((-4))];
        deflateEnd (strm);
        return (-4);
    }
    s->d_buf = overlay + s->lit_bufsize/sizeof(ush);
    s->l_buf = s->pending_buf + (1+sizeof(ush))*s->lit_bufsize;

    s->level = level;
    s->strategy = strategy;
    s->method = (Byte)method;

    return deflateReset(strm);
}


int deflateSetDictionary (strm, dictionary, dictLength)
    z_streamp strm;
    const Bytef *dictionary;
    uInt dictLength;
{
    deflate_state *s;
    uInt length = dictLength;
    uInt n;
    IPos hash_head = 0;

    if (strm == 0 || strm->state == 0 || dictionary == 0 ||
        strm->state->wrap == 2 ||
        (strm->state->wrap == 1 && strm->state->status != 42))
        return (-2);

    s = strm->state;
    if (s->wrap)
        strm->adler = adler32(strm->adler, dictionary, dictLength);

    if (length < 3) return 0;
    if (length > ((s)->w_size-(258 +3 +1))) {
        length = ((s)->w_size-(258 +3 +1));
        dictionary += dictLength - length;
    }
    memcpy(s->window, dictionary, length);
    s->strstart = length;
    s->block_start = (long)length;





    s->ins_h = s->window[0];
    (s->ins_h = (((s->ins_h)<<s->hash_shift) ^ (s->window[1])) & s->hash_mask);
    for (n = 0; n <= length - 3; n++) {
        ((s->ins_h = (((s->ins_h)<<s->hash_shift) ^ (s->window[(n) + (3 -1)])) & s->hash_mask), hash_head = s->prev[(n) & s->w_mask] = s->head[s->ins_h], s->head[s->ins_h] = (Pos)(n));
    }
    if (hash_head) hash_head = 0;
    return 0;
}


int deflateReset (strm)
    z_streamp strm;
{
    deflate_state *s;

    if (strm == 0 || strm->state == 0 ||
        strm->zalloc == (alloc_func)0 || strm->zfree == (free_func)0) {
        return (-2);
    }

    strm->total_in = strm->total_out = 0;
    strm->msg = 0;
    strm->data_type = 2;

    s = (deflate_state *)strm->state;
    s->pending = 0;
    s->pending_out = s->pending_buf;

    if (s->wrap < 0) {
        s->wrap = -s->wrap;
    }
    s->status = s->wrap ? 42 : 113;
    strm->adler =

        s->wrap == 2 ? crc32(0L, 0, 0) :

        adler32(0L, 0, 0);
    s->last_flush = 0;

    _tr_init(s);
    lm_init(s);

    return 0;
}


int deflateSetHeader (strm, head)
    z_streamp strm;
    gz_headerp head;
{
    if (strm == 0 || strm->state == 0) return (-2);
    if (strm->state->wrap != 2) return (-2);
    strm->state->gzhead = head;
    return 0;
}


int deflatePrime (strm, bits, value)
    z_streamp strm;
    int bits;
    int value;
{
    if (strm == 0 || strm->state == 0) return (-2);
    strm->state->bi_valid = bits;
    strm->state->bi_buf = (ush)(value & ((1 << bits) - 1));
    return 0;
}


int deflateParams(strm, level, strategy)
    z_streamp strm;
    int level;
    int strategy;
{
    deflate_state *s;
    compress_func func;
    int err = 0;

    if (strm == 0 || strm->state == 0) return (-2);
    s = strm->state;




    if (level == (-1)) level = 6;

    if (level < 0 || level > 9 || strategy < 0 || strategy > 4) {
        return (-2);
    }
    func = configuration_table[s->level].func;

    if (func != configuration_table[level].func && strm->total_in != 0) {

        err = deflate(strm, 1);
    }
    if (s->level != level) {
        s->level = level;
        s->max_lazy_match = configuration_table[level].max_lazy;
        s->good_match = configuration_table[level].good_length;
        s->nice_match = configuration_table[level].nice_length;
        s->max_chain_length = configuration_table[level].max_chain;
    }
    s->strategy = strategy;
    return err;
}


int deflateTune(strm, good_length, max_lazy, nice_length, max_chain)
    z_streamp strm;
    int good_length;
    int max_lazy;
    int nice_length;
    int max_chain;
{
    deflate_state *s;

    if (strm == 0 || strm->state == 0) return (-2);
    s = strm->state;
    s->good_match = good_length;
    s->max_lazy_match = max_lazy;
    s->nice_match = nice_length;
    s->max_chain_length = max_chain;
    return 0;
}
# 489 "c:/users/plu/documents/petetrlu/kitchen/spices/airplay4.4/modules/third_party/zlib/upstream/deflate.c"
uLong deflateBound(strm, sourceLen)
    z_streamp strm;
    uLong sourceLen;
{
    deflate_state *s;
    uLong destLen;


    destLen = sourceLen +
              ((sourceLen + 7) >> 3) + ((sourceLen + 63) >> 6) + 11;


    if (strm == 0 || strm->state == 0)
        return destLen;


    s = strm->state;
    if (s->w_bits != 15 || s->hash_bits != 8 + 7)
        return destLen;


    return compressBound(sourceLen);
}






static void putShortMSB (s, b)
    deflate_state *s;
    uInt b;
{
    {s->pending_buf[s->pending++] = ((Byte)(b >> 8));};
    {s->pending_buf[s->pending++] = ((Byte)(b & 0xff));};
}







static void flush_pending(strm)
    z_streamp strm;
{
    unsigned len = strm->state->pending;

    if (len > strm->avail_out) len = strm->avail_out;
    if (len == 0) return;

    memcpy(strm->next_out, strm->state->pending_out, len);
    strm->next_out += len;
    strm->state->pending_out += len;
    strm->total_out += len;
    strm->avail_out -= len;
    strm->state->pending -= len;
    if (strm->state->pending == 0) {
        strm->state->pending_out = strm->state->pending_buf;
    }
}


int deflate (strm, flush)
    z_streamp strm;
    int flush;
{
    int old_flush;
    deflate_state *s;

    if (strm == 0 || strm->state == 0 ||
        flush > 4 || flush < 0) {
        return (-2);
    }
    s = strm->state;

    if (strm->next_out == 0 ||
        (strm->next_in == 0 && strm->avail_in != 0) ||
        (s->status == 666 && flush != 4)) {
        return (strm->msg = (char*)z_errmsg[2 -((-2))], ((-2)));
    }
    if (strm->avail_out == 0) return (strm->msg = (char*)z_errmsg[2 -((-5))], ((-5)));

    s->strm = strm;
    old_flush = s->last_flush;
    s->last_flush = flush;


    if (s->status == 42) {

        if (s->wrap == 2) {
            strm->adler = crc32(0L, 0, 0);
            {s->pending_buf[s->pending++] = (31);};
            {s->pending_buf[s->pending++] = (139);};
            {s->pending_buf[s->pending++] = (8);};
            if (s->gzhead == ((void *)0)) {
                {s->pending_buf[s->pending++] = (0);};
                {s->pending_buf[s->pending++] = (0);};
                {s->pending_buf[s->pending++] = (0);};
                {s->pending_buf[s->pending++] = (0);};
                {s->pending_buf[s->pending++] = (0);};
                {s->pending_buf[s->pending++] = (s->level == 9 ? 2 : (s->strategy >= 2 || s->level < 2 ? 4 : 0));};


                {s->pending_buf[s->pending++] = (0x03);};
                s->status = 113;
            }
            else {
                {s->pending_buf[s->pending++] = ((s->gzhead->text ? 1 : 0) + (s->gzhead->hcrc ? 2 : 0) + (s->gzhead->extra == 0 ? 0 : 4) + (s->gzhead->name == 0 ? 0 : 8) + (s->gzhead->comment == 0 ? 0 : 16));};





                {s->pending_buf[s->pending++] = ((Byte)(s->gzhead->time & 0xff));};
                {s->pending_buf[s->pending++] = ((Byte)((s->gzhead->time >> 8) & 0xff));};
                {s->pending_buf[s->pending++] = ((Byte)((s->gzhead->time >> 16) & 0xff));};
                {s->pending_buf[s->pending++] = ((Byte)((s->gzhead->time >> 24) & 0xff));};
                {s->pending_buf[s->pending++] = (s->level == 9 ? 2 : (s->strategy >= 2 || s->level < 2 ? 4 : 0));};


                {s->pending_buf[s->pending++] = (s->gzhead->os & 0xff);};
                if (s->gzhead->extra != ((void *)0)) {
                    {s->pending_buf[s->pending++] = (s->gzhead->extra_len & 0xff);};
                    {s->pending_buf[s->pending++] = ((s->gzhead->extra_len >> 8) & 0xff);};
                }
                if (s->gzhead->hcrc)
                    strm->adler = crc32(strm->adler, s->pending_buf,
                                        s->pending);
                s->gzindex = 0;
                s->status = 69;
            }
        }
        else

        {
            uInt header = (8 + ((s->w_bits-8)<<4)) << 8;
            uInt level_flags;

            if (s->strategy >= 2 || s->level < 2)
                level_flags = 0;
            else if (s->level < 6)
                level_flags = 1;
            else if (s->level == 6)
                level_flags = 2;
            else
                level_flags = 3;
            header |= (level_flags << 6);
            if (s->strstart != 0) header |= 0x20;
            header += 31 - (header % 31);

            s->status = 113;
            putShortMSB(s, header);


            if (s->strstart != 0) {
                putShortMSB(s, (uInt)(strm->adler >> 16));
                putShortMSB(s, (uInt)(strm->adler & 0xffff));
            }
            strm->adler = adler32(0L, 0, 0);
        }
    }

    if (s->status == 69) {
        if (s->gzhead->extra != ((void *)0)) {
            uInt beg = s->pending;

            while (s->gzindex < (s->gzhead->extra_len & 0xffff)) {
                if (s->pending == s->pending_buf_size) {
                    if (s->gzhead->hcrc && s->pending > beg)
                        strm->adler = crc32(strm->adler, s->pending_buf + beg,
                                            s->pending - beg);
                    flush_pending(strm);
                    beg = s->pending;
                    if (s->pending == s->pending_buf_size)
                        break;
                }
                {s->pending_buf[s->pending++] = (s->gzhead->extra[s->gzindex]);};
                s->gzindex++;
            }
            if (s->gzhead->hcrc && s->pending > beg)
                strm->adler = crc32(strm->adler, s->pending_buf + beg,
                                    s->pending - beg);
            if (s->gzindex == s->gzhead->extra_len) {
                s->gzindex = 0;
                s->status = 73;
            }
        }
        else
            s->status = 73;
    }
    if (s->status == 73) {
        if (s->gzhead->name != ((void *)0)) {
            uInt beg = s->pending;
            int val;

            do {
                if (s->pending == s->pending_buf_size) {
                    if (s->gzhead->hcrc && s->pending > beg)
                        strm->adler = crc32(strm->adler, s->pending_buf + beg,
                                            s->pending - beg);
                    flush_pending(strm);
                    beg = s->pending;
                    if (s->pending == s->pending_buf_size) {
                        val = 1;
                        break;
                    }
                }
                val = s->gzhead->name[s->gzindex++];
                {s->pending_buf[s->pending++] = (val);};
            } while (val != 0);
            if (s->gzhead->hcrc && s->pending > beg)
                strm->adler = crc32(strm->adler, s->pending_buf + beg,
                                    s->pending - beg);
            if (val == 0) {
                s->gzindex = 0;
                s->status = 91;
            }
        }
        else
            s->status = 91;
    }
    if (s->status == 91) {
        if (s->gzhead->comment != ((void *)0)) {
            uInt beg = s->pending;
            int val;

            do {
                if (s->pending == s->pending_buf_size) {
                    if (s->gzhead->hcrc && s->pending > beg)
                        strm->adler = crc32(strm->adler, s->pending_buf + beg,
                                            s->pending - beg);
                    flush_pending(strm);
                    beg = s->pending;
                    if (s->pending == s->pending_buf_size) {
                        val = 1;
                        break;
                    }
                }
                val = s->gzhead->comment[s->gzindex++];
                {s->pending_buf[s->pending++] = (val);};
            } while (val != 0);
            if (s->gzhead->hcrc && s->pending > beg)
                strm->adler = crc32(strm->adler, s->pending_buf + beg,
                                    s->pending - beg);
            if (val == 0)
                s->status = 103;
        }
        else
            s->status = 103;
    }
    if (s->status == 103) {
        if (s->gzhead->hcrc) {
            if (s->pending + 2 > s->pending_buf_size)
                flush_pending(strm);
            if (s->pending + 2 <= s->pending_buf_size) {
                {s->pending_buf[s->pending++] = ((Byte)(strm->adler & 0xff));};
                {s->pending_buf[s->pending++] = ((Byte)((strm->adler >> 8) & 0xff));};
                strm->adler = crc32(0L, 0, 0);
                s->status = 113;
            }
        }
        else
            s->status = 113;
    }



    if (s->pending != 0) {
        flush_pending(strm);
        if (strm->avail_out == 0) {






            s->last_flush = -1;
            return 0;
        }





    } else if (strm->avail_in == 0 && flush <= old_flush &&
               flush != 4) {
        return (strm->msg = (char*)z_errmsg[2 -((-5))], ((-5)));
    }


    if (s->status == 666 && strm->avail_in != 0) {
        return (strm->msg = (char*)z_errmsg[2 -((-5))], ((-5)));
    }



    if (strm->avail_in != 0 || s->lookahead != 0 ||
        (flush != 0 && s->status != 666)) {
        block_state bstate;

        bstate = (*(configuration_table[s->level].func))(s, flush);

        if (bstate == finish_started || bstate == finish_done) {
            s->status = 666;
        }
        if (bstate == need_more || bstate == finish_started) {
            if (strm->avail_out == 0) {
                s->last_flush = -1;
            }
            return 0;







        }
        if (bstate == block_done) {
            if (flush == 1) {
                _tr_align(s);
            } else {
                _tr_stored_block(s, (char*)0, 0L, 0);



                if (flush == 3) {
                    s->head[s->hash_size-1] = 0; memset((Bytef *)s->head, 0, (unsigned)(s->hash_size-1)*sizeof(*s->head));;
                }
            }
            flush_pending(strm);
            if (strm->avail_out == 0) {
              s->last_flush = -1;
              return 0;
            }
        }
    }
    ;

    if (flush != 4) return 0;
    if (s->wrap <= 0) return 1;



    if (s->wrap == 2) {
        {s->pending_buf[s->pending++] = ((Byte)(strm->adler & 0xff));};
        {s->pending_buf[s->pending++] = ((Byte)((strm->adler >> 8) & 0xff));};
        {s->pending_buf[s->pending++] = ((Byte)((strm->adler >> 16) & 0xff));};
        {s->pending_buf[s->pending++] = ((Byte)((strm->adler >> 24) & 0xff));};
        {s->pending_buf[s->pending++] = ((Byte)(strm->total_in & 0xff));};
        {s->pending_buf[s->pending++] = ((Byte)((strm->total_in >> 8) & 0xff));};
        {s->pending_buf[s->pending++] = ((Byte)((strm->total_in >> 16) & 0xff));};
        {s->pending_buf[s->pending++] = ((Byte)((strm->total_in >> 24) & 0xff));};
    }
    else

    {
        putShortMSB(s, (uInt)(strm->adler >> 16));
        putShortMSB(s, (uInt)(strm->adler & 0xffff));
    }
    flush_pending(strm);



    if (s->wrap > 0) s->wrap = -s->wrap;
    return s->pending != 0 ? 0 : 1;
}


int deflateEnd (strm)
    z_streamp strm;
{
    int status;

    if (strm == 0 || strm->state == 0) return (-2);

    status = strm->state->status;
    if (status != 42 &&
        status != 69 &&
        status != 73 &&
        status != 91 &&
        status != 103 &&
        status != 113 &&
        status != 666) {
      return (-2);
    }


    {if (strm->state->pending_buf) (*((strm)->zfree))((strm)->opaque, (voidpf)(strm->state->pending_buf));};
    {if (strm->state->head) (*((strm)->zfree))((strm)->opaque, (voidpf)(strm->state->head));};
    {if (strm->state->prev) (*((strm)->zfree))((strm)->opaque, (voidpf)(strm->state->prev));};
    {if (strm->state->window) (*((strm)->zfree))((strm)->opaque, (voidpf)(strm->state->window));};

    (*((strm)->zfree))((strm)->opaque, (voidpf)(strm->state));
    strm->state = 0;

    return status == 113 ? (-3) : 0;
}






int deflateCopy (dest, source)
    z_streamp dest;
    z_streamp source;
{



    deflate_state *ds;
    deflate_state *ss;
    ushf *overlay;


    if (source == 0 || dest == 0 || source->state == 0) {
        return (-2);
    }

    ss = source->state;

    memcpy(dest, source, sizeof(z_stream));

    ds = (deflate_state *) (*((dest)->zalloc))((dest)->opaque, (1), (sizeof(deflate_state)));
    if (ds == 0) return (-4);
    dest->state = (struct internal_state *) ds;
    memcpy(ds, ss, sizeof(deflate_state));
    ds->strm = dest;

    ds->window = (Bytef *) (*((dest)->zalloc))((dest)->opaque, (ds->w_size), (2*sizeof(Byte)));
    ds->prev = (Posf *) (*((dest)->zalloc))((dest)->opaque, (ds->w_size), (sizeof(Pos)));
    ds->head = (Posf *) (*((dest)->zalloc))((dest)->opaque, (ds->hash_size), (sizeof(Pos)));
    overlay = (ushf *) (*((dest)->zalloc))((dest)->opaque, (ds->lit_bufsize), (sizeof(ush)+2));
    ds->pending_buf = (uchf *) overlay;

    if (ds->window == 0 || ds->prev == 0 || ds->head == 0 ||
        ds->pending_buf == 0) {
        deflateEnd (dest);
        return (-4);
    }

    memcpy(ds->window, ss->window, ds->w_size * 2 * sizeof(Byte));
    memcpy(ds->prev, ss->prev, ds->w_size * sizeof(Pos));
    memcpy(ds->head, ss->head, ds->hash_size * sizeof(Pos));
    memcpy(ds->pending_buf, ss->pending_buf, (uInt)ds->pending_buf_size);

    ds->pending_out = ds->pending_buf + (ss->pending_out - ss->pending_buf);
    ds->d_buf = overlay + ds->lit_bufsize/sizeof(ush);
    ds->l_buf = ds->pending_buf + (1+sizeof(ush))*ds->lit_bufsize;

    ds->l_desc.dyn_tree = ds->dyn_ltree;
    ds->d_desc.dyn_tree = ds->dyn_dtree;
    ds->bl_desc.dyn_tree = ds->bl_tree;

    return 0;

}
# 956 "c:/users/plu/documents/petetrlu/kitchen/spices/airplay4.4/modules/third_party/zlib/upstream/deflate.c"
static int read_buf(strm, buf, size)
    z_streamp strm;
    Bytef *buf;
    unsigned size;
{
    unsigned len = strm->avail_in;

    if (len > size) len = size;
    if (len == 0) return 0;

    strm->avail_in -= len;

    if (strm->state->wrap == 1) {
        strm->adler = adler32(strm->adler, strm->next_in, len);
    }

    else if (strm->state->wrap == 2) {
        strm->adler = crc32(strm->adler, strm->next_in, len);
    }

    memcpy(buf, strm->next_in, len);
    strm->next_in += len;
    strm->total_in += len;

    return (int)len;
}




static void lm_init (s)
    deflate_state *s;
{
    s->window_size = (ulg)2L*s->w_size;

    s->head[s->hash_size-1] = 0; memset((Bytef *)s->head, 0, (unsigned)(s->hash_size-1)*sizeof(*s->head));;



    s->max_lazy_match = configuration_table[s->level].max_lazy;
    s->good_match = configuration_table[s->level].good_length;
    s->nice_match = configuration_table[s->level].nice_length;
    s->max_chain_length = configuration_table[s->level].max_chain;

    s->strstart = 0;
    s->block_start = 0L;
    s->lookahead = 0;
    s->match_length = s->prev_length = 3 -1;
    s->match_available = 0;
    s->ins_h = 0;





}
# 1027 "c:/users/plu/documents/petetrlu/kitchen/spices/airplay4.4/modules/third_party/zlib/upstream/deflate.c"
static uInt longest_match(s, cur_match)
    deflate_state *s;
    IPos cur_match;
{
    unsigned chain_length = s->max_chain_length;
    register Bytef *scan = s->window + s->strstart;
    register Bytef *match;
    register int len;
    int best_len = s->prev_length;
    int nice_match = s->nice_match;
    IPos limit = s->strstart > (IPos)((s)->w_size-(258 +3 +1)) ?
        s->strstart - (IPos)((s)->w_size-(258 +3 +1)) : 0;



    Posf *prev = s->prev;
    uInt wmask = s->w_mask;
# 1053 "c:/users/plu/documents/petetrlu/kitchen/spices/airplay4.4/modules/third_party/zlib/upstream/deflate.c"
    register Bytef *strend = s->window + s->strstart + 258;
    register Byte scan_end1 = scan[best_len-1];
    register Byte scan_end = scan[best_len];





    ;


    if (s->prev_length >= s->good_match) {
        chain_length >>= 2;
    }



    if ((uInt)nice_match > s->lookahead) nice_match = s->lookahead;

    ;

    do {
        ;
        match = s->window + cur_match;
# 1121 "c:/users/plu/documents/petetrlu/kitchen/spices/airplay4.4/modules/third_party/zlib/upstream/deflate.c"
        if (match[best_len] != scan_end ||
            match[best_len-1] != scan_end1 ||
            *match != *scan ||
            *++match != scan[1]) continue;







        scan += 2, match++;
        ;




        do {
        } while (*++scan == *++match && *++scan == *++match &&
                 *++scan == *++match && *++scan == *++match &&
                 *++scan == *++match && *++scan == *++match &&
                 *++scan == *++match && *++scan == *++match &&
                 scan < strend);

        ;

        len = 258 - (int)(strend - scan);
        scan = strend - 258;



        if (len > best_len) {
            s->match_start = cur_match;
            best_len = len;
            if (len >= nice_match) break;



            scan_end1 = scan[best_len-1];
            scan_end = scan[best_len];

        }
    } while ((cur_match = prev[cur_match & wmask]) > limit
             && --chain_length != 0);

    if ((uInt)best_len <= s->lookahead) return (uInt)best_len;
    return s->lookahead;
}






static uInt longest_match_fast(s, cur_match)
    deflate_state *s;
    IPos cur_match;
{
    register Bytef *scan = s->window + s->strstart;
    register Bytef *match;
    register int len;
    register Bytef *strend = s->window + s->strstart + 258;




    ;

    ;

    ;

    match = s->window + cur_match;



    if (match[0] != scan[0] || match[1] != scan[1]) return 3 -1;







    scan += 2, match += 2;
    ;




    do {
    } while (*++scan == *++match && *++scan == *++match &&
             *++scan == *++match && *++scan == *++match &&
             *++scan == *++match && *++scan == *++match &&
             *++scan == *++match && *++scan == *++match &&
             scan < strend);

    ;

    len = 258 - (int)(strend - scan);

    if (len < 3) return 3 - 1;

    s->match_start = cur_match;
    return (uInt)len <= s->lookahead ? (uInt)len : s->lookahead;
}
# 1266 "c:/users/plu/documents/petetrlu/kitchen/spices/airplay4.4/modules/third_party/zlib/upstream/deflate.c"
static void fill_window(s)
    deflate_state *s;
{
    register unsigned n, m;
    register Posf *p;
    unsigned more;
    uInt wsize = s->w_size;

    do {
        more = (unsigned)(s->window_size -(ulg)s->lookahead -(ulg)s->strstart);


        if (sizeof(int) <= 2) {
            if (more == 0 && s->strstart == 0 && s->lookahead == 0) {
                more = wsize;

            } else if (more == (unsigned)(-1)) {



                more--;
            }
        }




        if (s->strstart >= wsize+((s)->w_size-(258 +3 +1))) {

            memcpy(s->window, s->window+wsize, (unsigned)wsize);
            s->match_start -= wsize;
            s->strstart -= wsize;
            s->block_start -= (long) wsize;
# 1307 "c:/users/plu/documents/petetrlu/kitchen/spices/airplay4.4/modules/third_party/zlib/upstream/deflate.c"
            n = s->hash_size;
            p = &s->head[n];
            do {
                m = *--p;
                *p = (Pos)(m >= wsize ? m-wsize : 0);
            } while (--n);

            n = wsize;

            p = &s->prev[n];
            do {
                m = *--p;
                *p = (Pos)(m >= wsize ? m-wsize : 0);



            } while (--n);

            more += wsize;
        }
        if (s->strm->avail_in == 0) return;
# 1340 "c:/users/plu/documents/petetrlu/kitchen/spices/airplay4.4/modules/third_party/zlib/upstream/deflate.c"
        ;

        n = read_buf(s->strm, s->window + s->strstart + s->lookahead, more);
        s->lookahead += n;


        if (s->lookahead >= 3) {
            s->ins_h = s->window[s->strstart];
            (s->ins_h = (((s->ins_h)<<s->hash_shift) ^ (s->window[s->strstart+1])) & s->hash_mask);



        }




    } while (s->lookahead < (258 +3 +1) && s->strm->avail_in != 0);
}
# 1390 "c:/users/plu/documents/petetrlu/kitchen/spices/airplay4.4/modules/third_party/zlib/upstream/deflate.c"
static block_state deflate_stored(s, flush)
    deflate_state *s;
    int flush;
{



    ulg max_block_size = 0xffff;
    ulg max_start;

    if (max_block_size > s->pending_buf_size - 5) {
        max_block_size = s->pending_buf_size - 5;
    }


    for (;;) {

        if (s->lookahead <= 1) {

            ;


            fill_window(s);
            if (s->lookahead == 0 && flush == 0) return need_more;

            if (s->lookahead == 0) break;
        }
        ;

        s->strstart += s->lookahead;
        s->lookahead = 0;


        max_start = s->block_start + max_block_size;
        if (s->strstart == 0 || (ulg)s->strstart >= max_start) {

            s->lookahead = (uInt)(s->strstart - max_start);
            s->strstart = (uInt)max_start;
            { { _tr_flush_block(s, (s->block_start >= 0L ? (charf *)&s->window[(unsigned)s->block_start] : (charf *)0), (ulg)((long)s->strstart - s->block_start), (0)); s->block_start = s->strstart; flush_pending(s->strm); ; }; if (s->strm->avail_out == 0) return (0) ? finish_started : need_more; };
        }



        if (s->strstart - (uInt)s->block_start >= ((s)->w_size-(258 +3 +1))) {
            { { _tr_flush_block(s, (s->block_start >= 0L ? (charf *)&s->window[(unsigned)s->block_start] : (charf *)0), (ulg)((long)s->strstart - s->block_start), (0)); s->block_start = s->strstart; flush_pending(s->strm); ; }; if (s->strm->avail_out == 0) return (0) ? finish_started : need_more; };
        }
    }
    { { _tr_flush_block(s, (s->block_start >= 0L ? (charf *)&s->window[(unsigned)s->block_start] : (charf *)0), (ulg)((long)s->strstart - s->block_start), (flush == 4)); s->block_start = s->strstart; flush_pending(s->strm); ; }; if (s->strm->avail_out == 0) return (flush == 4) ? finish_started : need_more; };
    return flush == 4 ? finish_done : block_done;
}
# 1448 "c:/users/plu/documents/petetrlu/kitchen/spices/airplay4.4/modules/third_party/zlib/upstream/deflate.c"
static block_state deflate_fast(s, flush)
    deflate_state *s;
    int flush;
{
    IPos hash_head = 0;
    int bflush;

    for (;;) {





        if (s->lookahead < (258 +3 +1)) {
            fill_window(s);
            if (s->lookahead < (258 +3 +1) && flush == 0) {
                return need_more;
            }
            if (s->lookahead == 0) break;
        }




        if (s->lookahead >= 3) {
            ((s->ins_h = (((s->ins_h)<<s->hash_shift) ^ (s->window[(s->strstart) + (3 -1)])) & s->hash_mask), hash_head = s->prev[(s->strstart) & s->w_mask] = s->head[s->ins_h], s->head[s->ins_h] = (Pos)(s->strstart));
        }




        if (hash_head != 0 && s->strstart - hash_head <= ((s)->w_size-(258 +3 +1))) {
# 1490 "c:/users/plu/documents/petetrlu/kitchen/spices/airplay4.4/modules/third_party/zlib/upstream/deflate.c"
            if (s->strategy != 2 && s->strategy != 3) {
                s->match_length = longest_match (s, hash_head);
            } else if (s->strategy == 3 && s->strstart - hash_head == 1) {
                s->match_length = longest_match_fast (s, hash_head);
            }


        }
        if (s->match_length >= 3) {
            ;

            { uch len = (s->match_length - 3); ush dist = (s->strstart - s->match_start); s->d_buf[s->last_lit] = dist; s->l_buf[s->last_lit++] = len; dist--; s->dyn_ltree[_length_code[len]+256 +1].fc.freq++; s->dyn_dtree[((dist) < 256 ? _dist_code[dist] : _dist_code[256+((dist)>>7)])].fc.freq++; bflush = (s->last_lit == s->lit_bufsize-1); };


            s->lookahead -= s->match_length;





            if (s->match_length <= s->max_lazy_match &&
                s->lookahead >= 3) {
                s->match_length--;
                do {
                    s->strstart++;
                    ((s->ins_h = (((s->ins_h)<<s->hash_shift) ^ (s->window[(s->strstart) + (3 -1)])) & s->hash_mask), hash_head = s->prev[(s->strstart) & s->w_mask] = s->head[s->ins_h], s->head[s->ins_h] = (Pos)(s->strstart));



                } while (--s->match_length != 0);
                s->strstart++;
            } else

            {
                s->strstart += s->match_length;
                s->match_length = 0;
                s->ins_h = s->window[s->strstart];
                (s->ins_h = (((s->ins_h)<<s->hash_shift) ^ (s->window[s->strstart+1])) & s->hash_mask);






            }
        } else {

            ;
            { uch cc = (s->window[s->strstart]); s->d_buf[s->last_lit] = 0; s->l_buf[s->last_lit++] = cc; s->dyn_ltree[cc].fc.freq++; bflush = (s->last_lit == s->lit_bufsize-1); };
            s->lookahead--;
            s->strstart++;
        }
        if (bflush) { { _tr_flush_block(s, (s->block_start >= 0L ? (charf *)&s->window[(unsigned)s->block_start] : (charf *)0), (ulg)((long)s->strstart - s->block_start), (0)); s->block_start = s->strstart; flush_pending(s->strm); ; }; if (s->strm->avail_out == 0) return (0) ? finish_started : need_more; };
    }
    { { _tr_flush_block(s, (s->block_start >= 0L ? (charf *)&s->window[(unsigned)s->block_start] : (charf *)0), (ulg)((long)s->strstart - s->block_start), (flush == 4)); s->block_start = s->strstart; flush_pending(s->strm); ; }; if (s->strm->avail_out == 0) return (flush == 4) ? finish_started : need_more; };
    return flush == 4 ? finish_done : block_done;
}







static block_state deflate_slow(s, flush)
    deflate_state *s;
    int flush;
{
    IPos hash_head = 0;
    int bflush;


    for (;;) {





        if (s->lookahead < (258 +3 +1)) {
            fill_window(s);
            if (s->lookahead < (258 +3 +1) && flush == 0) {
                return need_more;
            }
            if (s->lookahead == 0) break;
        }




        if (s->lookahead >= 3) {
            ((s->ins_h = (((s->ins_h)<<s->hash_shift) ^ (s->window[(s->strstart) + (3 -1)])) & s->hash_mask), hash_head = s->prev[(s->strstart) & s->w_mask] = s->head[s->ins_h], s->head[s->ins_h] = (Pos)(s->strstart));
        }



        s->prev_length = s->match_length, s->prev_match = s->match_start;
        s->match_length = 3 -1;

        if (hash_head != 0 && s->prev_length < s->max_lazy_match &&
            s->strstart - hash_head <= ((s)->w_size-(258 +3 +1))) {




            if (s->strategy != 2 && s->strategy != 3) {
                s->match_length = longest_match (s, hash_head);
            } else if (s->strategy == 3 && s->strstart - hash_head == 1) {
                s->match_length = longest_match_fast (s, hash_head);
            }


            if (s->match_length <= 5 && (s->strategy == 1

                || (s->match_length == 3 &&
                    s->strstart - s->match_start > 4096)

                )) {




                s->match_length = 3 -1;
            }
        }



        if (s->prev_length >= 3 && s->match_length <= s->prev_length) {
            uInt max_insert = s->strstart + s->lookahead - 3;


            ;

            { uch len = (s->prev_length - 3); ush dist = (s->strstart -1 - s->prev_match); s->d_buf[s->last_lit] = dist; s->l_buf[s->last_lit++] = len; dist--; s->dyn_ltree[_length_code[len]+256 +1].fc.freq++; s->dyn_dtree[((dist) < 256 ? _dist_code[dist] : _dist_code[256+((dist)>>7)])].fc.freq++; bflush = (s->last_lit == s->lit_bufsize-1); };







            s->lookahead -= s->prev_length-1;
            s->prev_length -= 2;
            do {
                if (++s->strstart <= max_insert) {
                    ((s->ins_h = (((s->ins_h)<<s->hash_shift) ^ (s->window[(s->strstart) + (3 -1)])) & s->hash_mask), hash_head = s->prev[(s->strstart) & s->w_mask] = s->head[s->ins_h], s->head[s->ins_h] = (Pos)(s->strstart));
                }
            } while (--s->prev_length != 0);
            s->match_available = 0;
            s->match_length = 3 -1;
            s->strstart++;

            if (bflush) { { _tr_flush_block(s, (s->block_start >= 0L ? (charf *)&s->window[(unsigned)s->block_start] : (charf *)0), (ulg)((long)s->strstart - s->block_start), (0)); s->block_start = s->strstart; flush_pending(s->strm); ; }; if (s->strm->avail_out == 0) return (0) ? finish_started : need_more; };

        } else if (s->match_available) {




            ;
            { uch cc = (s->window[s->strstart-1]); s->d_buf[s->last_lit] = 0; s->l_buf[s->last_lit++] = cc; s->dyn_ltree[cc].fc.freq++; bflush = (s->last_lit == s->lit_bufsize-1); };
            if (bflush) {
                { _tr_flush_block(s, (s->block_start >= 0L ? (charf *)&s->window[(unsigned)s->block_start] : (charf *)0), (ulg)((long)s->strstart - s->block_start), (0)); s->block_start = s->strstart; flush_pending(s->strm); ; };
            }
            s->strstart++;
            s->lookahead--;
            if (s->strm->avail_out == 0) return need_more;
        } else {



            s->match_available = 1;
            s->strstart++;
            s->lookahead--;
        }
    }
    ;
    if (s->match_available) {
        ;
        { uch cc = (s->window[s->strstart-1]); s->d_buf[s->last_lit] = 0; s->l_buf[s->last_lit++] = cc; s->dyn_ltree[cc].fc.freq++; bflush = (s->last_lit == s->lit_bufsize-1); };
        s->match_available = 0;
    }
    { { _tr_flush_block(s, (s->block_start >= 0L ? (charf *)&s->window[(unsigned)s->block_start] : (charf *)0), (ulg)((long)s->strstart - s->block_start), (flush == 4)); s->block_start = s->strstart; flush_pending(s->strm); ; }; if (s->strm->avail_out == 0) return (flush == 4) ? finish_started : need_more; };
    return flush == 4 ? finish_done : block_done;
}
