# 1 "c:/users/plu/documents/petetrlu/kitchen/spices/airplay4.4/modules/third_party/zlib/upstream/gzio.c"
# 1 "<built-in>"
# 1 "<command-line>"
# 1 "C:/Users/plu/Documents/petetrlu/kitchen/faucet/self_help/test1/build_test1_vc10/temp_defines_release.h" 1
# 1 "<command-line>" 2
# 1 "c:/users/plu/documents/petetrlu/kitchen/spices/airplay4.4/modules/third_party/zlib/upstream/gzio.c"
# 10 "c:/users/plu/documents/petetrlu/kitchen/spices/airplay4.4/modules/third_party/zlib/upstream/gzio.c"
# 1 "c:/users/plu/documents/petetrlu/kitchen/spices/airplay4.4/s3e/h/std/stdio.h" 1
# 15 "c:/users/plu/documents/petetrlu/kitchen/spices/airplay4.4/s3e/h/std/stdio.h"
# 1 "c:/users/plu/documents/petetrlu/kitchen/spices/airplay4.4/s3e/h/std/sys/types.h" 1
# 15 "c:/users/plu/documents/petetrlu/kitchen/spices/airplay4.4/s3e/h/std/sys/types.h"
# 1 "c:/users/plu/documents/petetrlu/kitchen/spices/airplay4.4/s3e/h/s3eTypes.h" 1
# 37 "c:/users/plu/documents/petetrlu/kitchen/spices/airplay4.4/s3e/h/s3eTypes.h"
typedef unsigned char s3e_uint8_t;
typedef signed char s3e_int8_t;
typedef unsigned short int s3e_uint16_t;
typedef signed short int s3e_int16_t;
typedef unsigned int s3e_uint32_t;
typedef signed int s3e_int32_t;
# 51 "c:/users/plu/documents/petetrlu/kitchen/spices/airplay4.4/s3e/h/s3eTypes.h"
  typedef signed long long s3e_int64_t;
  typedef unsigned long long s3e_uint64_t;
# 72 "c:/users/plu/documents/petetrlu/kitchen/spices/airplay4.4/s3e/h/s3eTypes.h"
typedef s3e_uint64_t uint64_t;
typedef s3e_int64_t int64_t;
typedef s3e_uint32_t uint32_t;
typedef s3e_int32_t int32_t;
typedef s3e_uint16_t uint16_t;
typedef s3e_int16_t int16_t;
typedef s3e_uint8_t uint8_t;
typedef s3e_int8_t int8_t;
# 93 "c:/users/plu/documents/petetrlu/kitchen/spices/airplay4.4/s3e/h/s3eTypes.h"
 typedef int intptr_t;
 typedef unsigned int uintptr_t;
# 104 "c:/users/plu/documents/petetrlu/kitchen/spices/airplay4.4/s3e/h/s3eTypes.h"
typedef unsigned int uint;
typedef unsigned short int ushort;
typedef unsigned long int ulong;
typedef unsigned char uint8;
typedef signed char int8;







typedef int64_t int64;
typedef uint64_t uint64;
# 126 "c:/users/plu/documents/petetrlu/kitchen/spices/airplay4.4/s3e/h/s3eTypes.h"
typedef unsigned int uint32;
# 135 "c:/users/plu/documents/petetrlu/kitchen/spices/airplay4.4/s3e/h/s3eTypes.h"
typedef signed int int32;





typedef uint16_t uint16;




typedef int16_t int16;
# 217 "c:/users/plu/documents/petetrlu/kitchen/spices/airplay4.4/s3e/h/s3eTypes.h"
typedef enum s3eResult
{
    S3E_RESULT_SUCCESS = 0,
    S3E_RESULT_ERROR = 1
} s3eResult;




typedef uint8 s3eBool;
# 237 "c:/users/plu/documents/petetrlu/kitchen/spices/airplay4.4/s3e/h/s3eTypes.h"
typedef unsigned short s3eWChar;
# 308 "c:/users/plu/documents/petetrlu/kitchen/spices/airplay4.4/s3e/h/s3eTypes.h"
typedef int32 (*s3eCallback) (void* systemData, void* userData);
# 16 "c:/users/plu/documents/petetrlu/kitchen/spices/airplay4.4/s3e/h/std/sys/types.h" 2
# 1 "c:/users/plu/documents/petetrlu/kitchen/spices/airplay4.4/s3e/h/std/stddef.h" 1
# 15 "c:/users/plu/documents/petetrlu/kitchen/spices/airplay4.4/s3e/h/std/stddef.h"
typedef signed int ptrdiff_t;


    typedef unsigned int wint_t;
    typedef unsigned long int wctype_t;



    typedef unsigned short wchar_t;



typedef unsigned int size_t;
# 17 "c:/users/plu/documents/petetrlu/kitchen/spices/airplay4.4/s3e/h/std/sys/types.h" 2
# 1 "c:/users/plu/documents/petetrlu/kitchen/spices/airplay4.4/s3e/h/std/stdint.h" 1
# 19 "c:/users/plu/documents/petetrlu/kitchen/spices/airplay4.4/s3e/h/std/stdint.h"
typedef signed char int_least8_t;
typedef short int_least16_t;
typedef long int_least32_t;
typedef int64_t int_least64_t;

typedef unsigned char uint_least8_t;
typedef unsigned short uint_least16_t;
typedef unsigned long uint_least32_t;
typedef uint64_t uint_least64_t;

typedef signed char int_fast8_t;
typedef short int_fast16_t;
typedef long int_fast32_t;
typedef int64_t int_fast64_t;

typedef unsigned char uint_fast8_t;
typedef unsigned short uint_fast16_t;
typedef unsigned long uint_fast32_t;
typedef uint64_t uint_fast64_t;

typedef int64_t intmax_t;
typedef uint64_t uintmax_t;
# 18 "c:/users/plu/documents/petetrlu/kitchen/spices/airplay4.4/s3e/h/std/sys/types.h" 2
# 1 "c:/users/plu/documents/petetrlu/kitchen/spices/airplay4.4/s3e/h/std/sys/select.h" 1
# 24 "c:/users/plu/documents/petetrlu/kitchen/spices/airplay4.4/s3e/h/std/sys/select.h"
struct timeval;

typedef struct fd_set
{
    char fds_bits[256/8];
} fd_set;
# 39 "c:/users/plu/documents/petetrlu/kitchen/spices/airplay4.4/s3e/h/std/sys/select.h"


int select(int nfds, fd_set *readfds, fd_set *writefds, fd_set *exceptfds, struct timeval *timeout);


# 19 "c:/users/plu/documents/petetrlu/kitchen/spices/airplay4.4/s3e/h/std/sys/types.h" 2



typedef long off_t;

typedef int64_t off64_t;
# 33 "c:/users/plu/documents/petetrlu/kitchen/spices/airplay4.4/s3e/h/std/sys/types.h"
typedef uint u_int;
typedef uint8_t u_int8_t;
typedef uint16_t u_int16_t;
typedef uint32_t u_int32_t;
typedef uint64_t u_int64_t;

typedef unsigned short u_short;
typedef unsigned long u_long;
typedef unsigned char u_char;

typedef int ssize_t;
typedef int pid_t;
typedef short uid_t;
typedef short gid_t;
typedef int idtype_t;
typedef int id_t;
typedef uint32 mode_t;
typedef short dev_t;
typedef short ino_t;
typedef int key_t;
typedef void* caddr_t;
# 16 "c:/users/plu/documents/petetrlu/kitchen/spices/airplay4.4/s3e/h/std/stdio.h" 2



struct __XXFILE;
typedef struct __XXFILE FILE;

typedef uint32 fpos_t;
# 38 "c:/users/plu/documents/petetrlu/kitchen/spices/airplay4.4/s3e/h/std/stdio.h"

# 54 "c:/users/plu/documents/petetrlu/kitchen/spices/airplay4.4/s3e/h/std/stdio.h"
extern FILE *__aeabi_stdin;
extern FILE *__aeabi_stdout;
extern FILE *__aeabi_stderr;
# 66 "c:/users/plu/documents/petetrlu/kitchen/spices/airplay4.4/s3e/h/std/stdio.h"
FILE *fopen(const char *path, const char *mode);
int fclose(FILE *fp);
int fcloseall();
int fflush(FILE *stream);

FILE *fopen(const char *path, const char *mode);
FILE *fdopen(int fildes, const char *mode);
FILE *freopen(const char *path, const char *mode, FILE *stream);

size_t fread(void *ptr, size_t size, size_t nmemb, FILE *stream);
size_t fwrite(const void *ptr, size_t size, size_t nmemb, FILE *stream);

int fputc(int c, FILE *stream);
int fputs(const char *s, FILE *stream);
int putc(int c, FILE *stream);
int putchar(int c);
int puts(const char *s);

int fgetc(FILE *stream);
char *fgets(char *s, int size, FILE *stream);
int getc(FILE *stream);
int getchar(void);
char *gets(char *s);
int ungetc(int c, FILE *stream);

int fseek(FILE *stream, long offset, int whence);
long ftell(FILE *stream);
void rewind(FILE *stream);
int fgetpos(FILE *stream, fpos_t *pos);
int fsetpos(FILE *stream, fpos_t *pos);

void flockfile(FILE *filehandle);
int ftrylockfile(FILE *filehandle);
void funlockfile(FILE *filehandle);

int getc_unlocked(FILE *stream);
int getchar_unlocked(void);
int putc_unlocked(int c, FILE *stream);
int putchar_unlocked(int c);

FILE *popen(const char *command, const char *type);
int pclose(FILE *stream);

char *tempnam(const char *dir, const char *pfx);




int printf(const char *format, ...) __attribute__((format(printf, 1, 2)));



int fprintf(FILE *stream, const char* format, ...) __attribute__((format(printf, 2, 3)));



int sprintf(char *str, const char* format, ...) __attribute__((format(printf, 2, 3)));



int snprintf(char *str, size_t size, const char *format, ...) __attribute__((format(printf, 3, 4)));




int scanf(const char *format, ...);



int fscanf(FILE *stream, const char *format, ...);



int sscanf(const char *str, const char *format, ...);

void clearerr(FILE *stream);
int feof(FILE *stream);
int ferror(FILE *stream);
int fileno(FILE *stream);

int remove(const char *pathname);
int rename(const char *oldpath, const char *newpath);

void perror(const char *s);

FILE *tmpfile(void);
char *tmpnam(char *s);

void setbuf(FILE *stream, char *buf);
void setbuffer(FILE *stream, char *buf, size_t size);
void setlinebuf(FILE *stream);
int setvbuf(FILE *stream, char *buf, int mode , size_t size);

# 1 "c:/users/plu/documents/petetrlu/kitchen/spices/airplay4.4/s3e/h/std/stdarg.h" 1
# 54 "c:/users/plu/documents/petetrlu/kitchen/spices/airplay4.4/s3e/h/std/stdarg.h"
typedef __builtin_va_list va_list;
# 160 "c:/users/plu/documents/petetrlu/kitchen/spices/airplay4.4/s3e/h/std/stdio.h" 2

int vfprintf(FILE *stream, const char *format, va_list ap);
int vsprintf(char *str, const char *format, va_list ap);
int vsnprintf(char *str, size_t size, const char *format, va_list ap);
int vprintf(const char *format, va_list ap);
int asprintf(char **strp, const char *fmt, ...);
int vasprintf(char **strp, const char *fmt, va_list ap);

int vscanf(const char *format, va_list ap);
int vsscanf(const char *str, const char *format, va_list ap);
int vfscanf(FILE *stream, const char *format, va_list ap);


# 11 "c:/users/plu/documents/petetrlu/kitchen/spices/airplay4.4/modules/third_party/zlib/upstream/gzio.c" 2

# 1 "c:/users/plu/documents/petetrlu/kitchen/spices/airplay4.4/modules/third_party/zlib/upstream/zutil.h" 1
# 17 "c:/users/plu/documents/petetrlu/kitchen/spices/airplay4.4/modules/third_party/zlib/upstream/zutil.h"
# 1 "c:/users/plu/documents/petetrlu/kitchen/spices/airplay4.4/modules/third_party/zlib/upstream/zlib.h" 1
# 34 "c:/users/plu/documents/petetrlu/kitchen/spices/airplay4.4/modules/third_party/zlib/upstream/zlib.h"
# 1 "c:/users/plu/documents/petetrlu/kitchen/spices/airplay4.4/modules/third_party/zlib/upstream/zconf.h" 1
# 261 "c:/users/plu/documents/petetrlu/kitchen/spices/airplay4.4/modules/third_party/zlib/upstream/zconf.h"
typedef unsigned char Byte;

typedef unsigned int uInt;
typedef unsigned long uLong;





   typedef Byte Bytef;

typedef char charf;
typedef int intf;
typedef uInt uIntf;
typedef uLong uLongf;


   typedef void const *voidpc;
   typedef void *voidpf;
   typedef void *voidp;
# 35 "c:/users/plu/documents/petetrlu/kitchen/spices/airplay4.4/modules/third_party/zlib/upstream/zlib.h" 2
# 77 "c:/users/plu/documents/petetrlu/kitchen/spices/airplay4.4/modules/third_party/zlib/upstream/zlib.h"
typedef voidpf (*alloc_func) (voidpf opaque, uInt items, uInt size);
typedef void (*free_func) (voidpf opaque, voidpf address);

struct internal_state;

typedef struct z_stream_s {
    Bytef *next_in;
    uInt avail_in;
    uLong total_in;

    Bytef *next_out;
    uInt avail_out;
    uLong total_out;

    char *msg;
    struct internal_state *state;

    alloc_func zalloc;
    free_func zfree;
    voidpf opaque;

    int data_type;
    uLong adler;
    uLong reserved;
} z_stream;

typedef z_stream *z_streamp;





typedef struct gz_header_s {
    int text;
    uLong time;
    int xflags;
    int os;
    Bytef *extra;
    uInt extra_len;
    uInt extra_max;
    Bytef *name;
    uInt name_max;
    Bytef *comment;
    uInt comm_max;
    int hcrc;
    int done;

} gz_header;

typedef gz_header *gz_headerp;
# 212 "c:/users/plu/documents/petetrlu/kitchen/spices/airplay4.4/modules/third_party/zlib/upstream/zlib.h"
extern const char * zlibVersion (void);
# 242 "c:/users/plu/documents/petetrlu/kitchen/spices/airplay4.4/modules/third_party/zlib/upstream/zlib.h"
extern int deflate (z_streamp strm, int flush);
# 328 "c:/users/plu/documents/petetrlu/kitchen/spices/airplay4.4/modules/third_party/zlib/upstream/zlib.h"
extern int deflateEnd (z_streamp strm);
# 363 "c:/users/plu/documents/petetrlu/kitchen/spices/airplay4.4/modules/third_party/zlib/upstream/zlib.h"
extern int inflate (z_streamp strm, int flush);
# 462 "c:/users/plu/documents/petetrlu/kitchen/spices/airplay4.4/modules/third_party/zlib/upstream/zlib.h"
extern int inflateEnd (z_streamp strm);
# 538 "c:/users/plu/documents/petetrlu/kitchen/spices/airplay4.4/modules/third_party/zlib/upstream/zlib.h"
extern int deflateSetDictionary (z_streamp strm, const Bytef *dictionary, uInt dictLength);
# 577 "c:/users/plu/documents/petetrlu/kitchen/spices/airplay4.4/modules/third_party/zlib/upstream/zlib.h"
extern int deflateCopy (z_streamp dest, z_streamp source);
# 595 "c:/users/plu/documents/petetrlu/kitchen/spices/airplay4.4/modules/third_party/zlib/upstream/zlib.h"
extern int deflateReset (z_streamp strm);
# 606 "c:/users/plu/documents/petetrlu/kitchen/spices/airplay4.4/modules/third_party/zlib/upstream/zlib.h"
extern int deflateParams (z_streamp strm, int level, int strategy);
# 627 "c:/users/plu/documents/petetrlu/kitchen/spices/airplay4.4/modules/third_party/zlib/upstream/zlib.h"
extern int deflateTune (z_streamp strm, int good_length, int max_lazy, int nice_length, int max_chain);
# 644 "c:/users/plu/documents/petetrlu/kitchen/spices/airplay4.4/modules/third_party/zlib/upstream/zlib.h"
extern uLong deflateBound (z_streamp strm, uLong sourceLen);
# 653 "c:/users/plu/documents/petetrlu/kitchen/spices/airplay4.4/modules/third_party/zlib/upstream/zlib.h"
extern int deflatePrime (z_streamp strm, int bits, int value);
# 669 "c:/users/plu/documents/petetrlu/kitchen/spices/airplay4.4/modules/third_party/zlib/upstream/zlib.h"
extern int deflateSetHeader (z_streamp strm, gz_headerp head);
# 736 "c:/users/plu/documents/petetrlu/kitchen/spices/airplay4.4/modules/third_party/zlib/upstream/zlib.h"
extern int inflateSetDictionary (z_streamp strm, const Bytef *dictionary, uInt dictLength);
# 758 "c:/users/plu/documents/petetrlu/kitchen/spices/airplay4.4/modules/third_party/zlib/upstream/zlib.h"
extern int inflateSync (z_streamp strm);
# 773 "c:/users/plu/documents/petetrlu/kitchen/spices/airplay4.4/modules/third_party/zlib/upstream/zlib.h"
extern int inflateCopy (z_streamp dest, z_streamp source);
# 789 "c:/users/plu/documents/petetrlu/kitchen/spices/airplay4.4/modules/third_party/zlib/upstream/zlib.h"
extern int inflateReset (z_streamp strm);
# 799 "c:/users/plu/documents/petetrlu/kitchen/spices/airplay4.4/modules/third_party/zlib/upstream/zlib.h"
extern int inflatePrime (z_streamp strm, int bits, int value);
# 815 "c:/users/plu/documents/petetrlu/kitchen/spices/airplay4.4/modules/third_party/zlib/upstream/zlib.h"
extern int inflateGetHeader (z_streamp strm, gz_headerp head);
# 877 "c:/users/plu/documents/petetrlu/kitchen/spices/airplay4.4/modules/third_party/zlib/upstream/zlib.h"
typedef unsigned (*in_func) (void *, unsigned char * *);
typedef int (*out_func) (void *, unsigned char *, unsigned);

extern int inflateBack (z_streamp strm, in_func in, void *in_desc, out_func out, void *out_desc);
# 949 "c:/users/plu/documents/petetrlu/kitchen/spices/airplay4.4/modules/third_party/zlib/upstream/zlib.h"
extern int inflateBackEnd (z_streamp strm);







extern uLong zlibCompileFlags (void);
# 1009 "c:/users/plu/documents/petetrlu/kitchen/spices/airplay4.4/modules/third_party/zlib/upstream/zlib.h"
extern int compress (Bytef *dest, uLongf *destLen, const Bytef *source, uLong sourceLen);
# 1024 "c:/users/plu/documents/petetrlu/kitchen/spices/airplay4.4/modules/third_party/zlib/upstream/zlib.h"
extern int compress2 (Bytef *dest, uLongf *destLen, const Bytef *source, uLong sourceLen, int level);
# 1040 "c:/users/plu/documents/petetrlu/kitchen/spices/airplay4.4/modules/third_party/zlib/upstream/zlib.h"
extern uLong compressBound (uLong sourceLen);






extern int uncompress (Bytef *dest, uLongf *destLen, const Bytef *source, uLong sourceLen);
# 1066 "c:/users/plu/documents/petetrlu/kitchen/spices/airplay4.4/modules/third_party/zlib/upstream/zlib.h"
typedef voidp gzFile;

extern gzFile gzopen (const char *path, const char *mode);
# 1085 "c:/users/plu/documents/petetrlu/kitchen/spices/airplay4.4/modules/third_party/zlib/upstream/zlib.h"
extern gzFile gzdopen (int fd, const char *mode);
# 1098 "c:/users/plu/documents/petetrlu/kitchen/spices/airplay4.4/modules/third_party/zlib/upstream/zlib.h"
extern int gzsetparams (gzFile file, int level, int strategy);







extern int gzread (gzFile file, voidp buf, unsigned len);







extern int gzwrite (gzFile file, voidpc buf, unsigned len);







extern int gzprintf (gzFile file, const char *format, ...);
# 1135 "c:/users/plu/documents/petetrlu/kitchen/spices/airplay4.4/modules/third_party/zlib/upstream/zlib.h"
extern int gzputs (gzFile file, const char *s);






extern char * gzgets (gzFile file, char *buf, int len);
# 1151 "c:/users/plu/documents/petetrlu/kitchen/spices/airplay4.4/modules/third_party/zlib/upstream/zlib.h"
extern int gzputc (gzFile file, int c);





extern int gzgetc (gzFile file);





extern int gzungetc (int c, gzFile file);
# 1173 "c:/users/plu/documents/petetrlu/kitchen/spices/airplay4.4/modules/third_party/zlib/upstream/zlib.h"
extern int gzflush (gzFile file, int flush);
# 1183 "c:/users/plu/documents/petetrlu/kitchen/spices/airplay4.4/modules/third_party/zlib/upstream/zlib.h"
extern long gzseek (gzFile file, long offset, int whence);
# 1201 "c:/users/plu/documents/petetrlu/kitchen/spices/airplay4.4/modules/third_party/zlib/upstream/zlib.h"
extern int gzrewind (gzFile file);






extern long gztell (gzFile file);
# 1217 "c:/users/plu/documents/petetrlu/kitchen/spices/airplay4.4/modules/third_party/zlib/upstream/zlib.h"
extern int gzeof (gzFile file);





extern int gzdirect (gzFile file);





extern int gzclose (gzFile file);






extern const char * gzerror (gzFile file, int *errnum);
# 1245 "c:/users/plu/documents/petetrlu/kitchen/spices/airplay4.4/modules/third_party/zlib/upstream/zlib.h"
extern void gzclearerr (gzFile file);
# 1260 "c:/users/plu/documents/petetrlu/kitchen/spices/airplay4.4/modules/third_party/zlib/upstream/zlib.h"
extern uLong adler32 (uLong adler, const Bytef *buf, uInt len);
# 1276 "c:/users/plu/documents/petetrlu/kitchen/spices/airplay4.4/modules/third_party/zlib/upstream/zlib.h"
extern uLong adler32_combine (uLong adler1, uLong adler2, long len2);
# 1285 "c:/users/plu/documents/petetrlu/kitchen/spices/airplay4.4/modules/third_party/zlib/upstream/zlib.h"
extern uLong crc32 (uLong crc, const Bytef *buf, uInt len);
# 1301 "c:/users/plu/documents/petetrlu/kitchen/spices/airplay4.4/modules/third_party/zlib/upstream/zlib.h"
extern uLong crc32_combine (uLong crc1, uLong crc2, long len2);
# 1317 "c:/users/plu/documents/petetrlu/kitchen/spices/airplay4.4/modules/third_party/zlib/upstream/zlib.h"
extern int deflateInit_ (z_streamp strm, int level, const char *version, int stream_size);

extern int inflateInit_ (z_streamp strm, const char *version, int stream_size);

extern int deflateInit2_ (z_streamp strm, int level, int method, int windowBits, int memLevel, int strategy, const char *version, int stream_size);



extern int inflateInit2_ (z_streamp strm, int windowBits, const char *version, int stream_size);

extern int inflateBackInit_ (z_streamp strm, int windowBits, unsigned char *window, const char *version, int stream_size);
# 1349 "c:/users/plu/documents/petetrlu/kitchen/spices/airplay4.4/modules/third_party/zlib/upstream/zlib.h"
extern const char * zError (int);
extern int inflateSyncPoint (z_streamp z);
extern const uLongf * get_crc_table (void);
# 18 "c:/users/plu/documents/petetrlu/kitchen/spices/airplay4.4/modules/third_party/zlib/upstream/zutil.h" 2





# 1 "c:/users/plu/documents/petetrlu/kitchen/spices/airplay4.4/s3e/h/std/string.h" 1
# 17 "c:/users/plu/documents/petetrlu/kitchen/spices/airplay4.4/s3e/h/std/string.h"


void *memcpy(void *dest, const void *src, size_t n);
void *memset(void *s, int c, size_t n);
int memcmp(const void *s1, const void *s2, size_t n);
void *memmove(void *dest, const void *src, size_t n);
void *memchr(const void *s, int c, size_t n);
void *memrchr(const void *s, int c, size_t n);







int strcmp(const char *s1, const char *s2);
int strncmp(const char *s1, const char *s2, size_t n);
char *strsep(char **stringp, const char *delim);
char *strcpy(char *dest, const char *src);
char *strncpy(char *dest, const char *src, size_t n);
char *strchr(const char *s, int c);
char *strstr(const char *haystack, const char *needle);
char *strrchr(const char *s, int c);
char *strdup(const char *s);
char *strtok(char *str, const char *delim);
char *strtok_r(char *str, const char *delim, char **saveptr);
char *strcat(char *dest, const char *src);
char *strncat(char *dest, const char *src, size_t n);
size_t strlen(const char *s);
size_t strnlen(const char *s, size_t n);
int strcasecmp(const char *s1, const char *s2);
int strncasecmp(const char *s1, const char *s2, size_t n);
size_t strspn(const char *s, const char *accept);
size_t strcspn(const char *s, const char *reject);
char *strpbrk(const char *s, const char *accept);
int strcoll(const char *s1, const char *s2);
char *strerror(int errnum);
size_t strxfrm(char *dest, const char *src, size_t n);

int strerror_r(int errnum, char *buf, size_t buflen);





size_t strlcpy(char* dest, const char* src, size_t len);
size_t strlcat(char* dest, const char* src, size_t len);


# 24 "c:/users/plu/documents/petetrlu/kitchen/spices/airplay4.4/modules/third_party/zlib/upstream/zutil.h" 2
# 1 "c:/users/plu/documents/petetrlu/kitchen/spices/airplay4.4/s3e/h/std/stdlib.h" 1
# 16 "c:/users/plu/documents/petetrlu/kitchen/spices/airplay4.4/s3e/h/std/stdlib.h"
# 1 "c:/users/plu/documents/petetrlu/kitchen/spices/airplay4.4/s3e/h/std/malloc.h" 1
# 16 "c:/users/plu/documents/petetrlu/kitchen/spices/airplay4.4/s3e/h/std/malloc.h"
# 1 "c:/users/plu/documents/petetrlu/kitchen/spices/airplay4.4/s3e/h/std/alloca.h" 1
# 17 "c:/users/plu/documents/petetrlu/kitchen/spices/airplay4.4/s3e/h/std/alloca.h"



    extern void *alloca(size_t __size);
# 35 "c:/users/plu/documents/petetrlu/kitchen/spices/airplay4.4/s3e/h/std/alloca.h"

# 17 "c:/users/plu/documents/petetrlu/kitchen/spices/airplay4.4/s3e/h/std/malloc.h" 2



void *calloc(size_t nmemb, size_t size);
void *malloc(size_t size);
void free(void *ptr);
void *realloc(void *ptr, size_t size);


# 17 "c:/users/plu/documents/petetrlu/kitchen/spices/airplay4.4/s3e/h/std/stdlib.h" 2
# 28 "c:/users/plu/documents/petetrlu/kitchen/spices/airplay4.4/s3e/h/std/stdlib.h"


double atof(const char* string);
int atoi(const char *nptr);
long atol(const char *nptr);
int64_t atoll(const char *nptr);
int64_t atoq(const char *nptr);
int abs(int j);
long int labs(long int j);
int64_t llabs(int64_t j);
void qsort(void *base, size_t nmemb, size_t size, int(*compar)(const void *, const void *));
void *bsearch(const void *key, const void *base, size_t nmemb, size_t size, int (*compar)(const void *, const void *));
void abort(void);
int putenv(char *string);
char *getenv(const char *name);
int setenv(const char *name, const char *value, int overwrite);
int unsetenv(const char *name);
void exit(int status) __attribute__ ((noreturn));
void _exit(int status) __attribute__ ((noreturn));
void _Exit(int status) __attribute__ ((noreturn));
unsigned long int strtoul(const char *nptr, char **endptr, int base);
uint64_t strtoull(const char *nptr, char **endptr, int base);
long int strtol(const char *nptr, char **endptr, int base);
int64_t strtoll(const char *nptr, char **endptr, int base);
double strtod(const char *nptr, char **endptr);
float strtof(const char *nptr, char **endptr);
long double strtold(const char *nptr, char **endptr);
int atexit(void (*function)(void));
int system(const char *command);
int posix_memalign(void **memptr, size_t alignment, size_t size);
char *mktemp(char *templ);
int mkstemp(char *templ);



int rand(void);
void srand(unsigned int seed);

long int random(void);
void srandom(unsigned int seed);

size_t __ctype_get_mb_cur_max();


int mblen(const char *s, size_t n);
int mbtowc(wchar_t *pwc, const char *s, size_t n);
int wctomb(char *s, wchar_t wc);
size_t mbstowcs(wchar_t *dest, const char *src, size_t n);
size_t wcstombs(char *dest, const wchar_t *src, size_t n);

typedef struct
{
    int quot;
    int rem;
} div_t;

typedef struct
{
    int quot;
    int rem;
} ldiv_t;

typedef struct
{
    int64_t quot;
    int64_t rem;
} lldiv_t;

div_t div(int numerator, int denominator);
ldiv_t ldiv(long numerator, long denominator);
lldiv_t lldiv(int64_t numerator, int64_t denominator);
# 117 "c:/users/plu/documents/petetrlu/kitchen/spices/airplay4.4/s3e/h/std/stdlib.h"

# 25 "c:/users/plu/documents/petetrlu/kitchen/spices/airplay4.4/modules/third_party/zlib/upstream/zutil.h" 2
# 38 "c:/users/plu/documents/petetrlu/kitchen/spices/airplay4.4/modules/third_party/zlib/upstream/zutil.h"
# 1 "c:/users/plu/documents/petetrlu/kitchen/spices/airplay4.4/s3e/h/std/errno.h" 1
# 17 "c:/users/plu/documents/petetrlu/kitchen/spices/airplay4.4/s3e/h/std/errno.h"

# 31 "c:/users/plu/documents/petetrlu/kitchen/spices/airplay4.4/s3e/h/std/errno.h"
        extern int *__errno(void);
# 41 "c:/users/plu/documents/petetrlu/kitchen/spices/airplay4.4/s3e/h/std/errno.h"
char *strerror(int errnum);


# 39 "c:/users/plu/documents/petetrlu/kitchen/spices/airplay4.4/modules/third_party/zlib/upstream/zutil.h" 2
# 47 "c:/users/plu/documents/petetrlu/kitchen/spices/airplay4.4/modules/third_party/zlib/upstream/zutil.h"
typedef unsigned char uch;
typedef uch uchf;
typedef unsigned short ush;
typedef ush ushf;
typedef unsigned long ulg;

extern const char * const z_errmsg[10];
# 261 "c:/users/plu/documents/petetrlu/kitchen/spices/airplay4.4/modules/third_party/zlib/upstream/zutil.h"
voidpf zcalloc (voidpf opaque, unsigned items, unsigned size);
void zcfree (voidpf opaque, voidpf ptr);
# 13 "c:/users/plu/documents/petetrlu/kitchen/spices/airplay4.4/modules/third_party/zlib/upstream/gzio.c" 2






struct internal_state {int dummy;};
# 46 "c:/users/plu/documents/petetrlu/kitchen/spices/airplay4.4/modules/third_party/zlib/upstream/gzio.c"
static int const gz_magic[2] = {0x1f, 0x8b};
# 56 "c:/users/plu/documents/petetrlu/kitchen/spices/airplay4.4/modules/third_party/zlib/upstream/gzio.c"
typedef struct gz_stream {
    z_stream stream;
    int z_err;
    int z_eof;
    FILE *file;
    Byte *inbuf;
    Byte *outbuf;
    uLong crc;
    char *msg;
    char *path;
    int transparent;
    char mode;
    long start;
    long in;
    long out;
    int back;
    int last;
} gz_stream;


static gzFile gz_open (const char *path, const char *mode, int fd);
static int do_flush (gzFile file, int flush);
static int get_byte (gz_stream *s);
static void check_header (gz_stream *s);
static int destroy (gz_stream *s);
static void putLong (FILE *file, uLong x);
static uLong getLong (gz_stream *s);
# 93 "c:/users/plu/documents/petetrlu/kitchen/spices/airplay4.4/modules/third_party/zlib/upstream/gzio.c"
static gzFile gz_open (path, mode, fd)
    const char *path;
    const char *mode;
    int fd;
{
    int err;
    int level = (-1);
    int strategy = 0;
    char *p = (char*)mode;
    gz_stream *s;
    char fmode[80];
    char *m = fmode;

    if (!path || !mode) return 0;

    s = (gz_stream *)malloc(sizeof(gz_stream));
    if (!s) return 0;

    s->stream.zalloc = (alloc_func)0;
    s->stream.zfree = (free_func)0;
    s->stream.opaque = (voidpf)0;
    s->stream.next_in = s->inbuf = 0;
    s->stream.next_out = s->outbuf = 0;
    s->stream.avail_in = s->stream.avail_out = 0;
    s->file = 0;
    s->z_err = 0;
    s->z_eof = 0;
    s->in = 0;
    s->out = 0;
    s->back = (-1);
    s->crc = crc32(0L, 0, 0);
    s->msg = 0;
    s->transparent = 0;

    s->path = (char*)malloc(strlen(path)+1);
    if (s->path == 0) {
        return destroy(s), (gzFile)0;
    }
    strcpy(s->path, path);

    s->mode = '\0';
    do {
        if (*p == 'r') s->mode = 'r';
        if (*p == 'w' || *p == 'a') s->mode = 'w';
        if (*p >= '0' && *p <= '9') {
            level = *p - '0';
        } else if (*p == 'f') {
          strategy = 1;
        } else if (*p == 'h') {
          strategy = 2;
        } else if (*p == 'R') {
          strategy = 3;
        } else {
            *m++ = *p;
        }
    } while (*p++ && m != fmode + sizeof(fmode));
    if (s->mode == '\0') return destroy(s), (gzFile)0;

    if (s->mode == 'w') {



        err = deflateInit2_((&(s->stream)),(level),(8),(-15),(8), (strategy), "1.2.3", sizeof(z_stream));



        s->stream.next_out = s->outbuf = (Byte*)malloc(16384);

        if (err != 0 || s->outbuf == 0) {
            return destroy(s), (gzFile)0;
        }
    } else {
        s->stream.next_in = s->inbuf = (Byte*)malloc(16384);

        err = inflateInit2_((&(s->stream)), (-15), "1.2.3", sizeof(z_stream));






        if (err != 0 || s->inbuf == 0) {
            return destroy(s), (gzFile)0;
        }
    }
    s->stream.avail_out = 16384;

    (*__errno()) = 0;
    s->file = fd < 0 ? fopen((path), (fmode)) : (FILE*)fdopen(fd, fmode);

    if (s->file == 0) {
        return destroy(s), (gzFile)0;
    }
    if (s->mode == 'w') {


        fprintf(s->file, "%c%c%c%c%c%c%c%c%c%c", gz_magic[0], gz_magic[1],
             8, 0 , 0,0,0,0 , 0 , 0x03);
        s->start = 10L;





    } else {
        check_header(s);
        s->start = ftell(s->file) - s->stream.avail_in;
    }

    return (gzFile)s;
}




gzFile gzopen (path, mode)
    const char *path;
    const char *mode;
{
    return gz_open (path, mode, -1);
}





gzFile gzdopen (fd, mode)
    int fd;
    const char *mode;
{
    char name[46];

    if (fd < 0) return (gzFile)0;
    sprintf(name, "<fd:%d>", fd);

    return gz_open (name, mode, fd);
}




int gzsetparams (file, level, strategy)
    gzFile file;
    int level;
    int strategy;
{
    gz_stream *s = (gz_stream*)file;

    if (s == 0 || s->mode != 'w') return (-2);


    if (s->stream.avail_out == 0) {

        s->stream.next_out = s->outbuf;
        if (fwrite(s->outbuf, 1, 16384, s->file) != 16384) {
            s->z_err = (-1);
        }
        s->stream.avail_out = 16384;
    }

    return deflateParams (&(s->stream), level, strategy);
}






static int get_byte(s)
    gz_stream *s;
{
    if (s->z_eof) return (-1);
    if (s->stream.avail_in == 0) {
        (*__errno()) = 0;
        s->stream.avail_in = (uInt)fread(s->inbuf, 1, 16384, s->file);
        if (s->stream.avail_in == 0) {
            s->z_eof = 1;
            if (ferror(s->file)) s->z_err = (-1);
            return (-1);
        }
        s->stream.next_in = s->inbuf;
    }
    s->stream.avail_in--;
    return *(s->stream.next_in)++;
}
# 288 "c:/users/plu/documents/petetrlu/kitchen/spices/airplay4.4/modules/third_party/zlib/upstream/gzio.c"
static void check_header(s)
    gz_stream *s;
{
    int method;
    int flags;
    uInt len;
    int c;




    len = s->stream.avail_in;
    if (len < 2) {
        if (len) s->inbuf[0] = s->stream.next_in[0];
        (*__errno()) = 0;
        len = (uInt)fread(s->inbuf + len, 1, 16384 >> len, s->file);
        if (len == 0 && ferror(s->file)) s->z_err = (-1);
        s->stream.avail_in += len;
        s->stream.next_in = s->inbuf;
        if (s->stream.avail_in < 2) {
            s->transparent = s->stream.avail_in;
            return;
        }
    }


    if (s->stream.next_in[0] != gz_magic[0] ||
        s->stream.next_in[1] != gz_magic[1]) {
        s->transparent = 1;
        return;
    }
    s->stream.avail_in -= 2;
    s->stream.next_in += 2;


    method = get_byte(s);
    flags = get_byte(s);
    if (method != 8 || (flags & 0xE0) != 0) {
        s->z_err = (-3);
        return;
    }


    for (len = 0; len < 6; len++) (void)get_byte(s);

    if ((flags & 0x04) != 0) {
        len = (uInt)get_byte(s);
        len += ((uInt)get_byte(s))<<8;

        while (len-- != 0 && get_byte(s) != (-1)) ;
    }
    if ((flags & 0x08) != 0) {
        while ((c = get_byte(s)) != 0 && c != (-1)) ;
    }
    if ((flags & 0x10) != 0) {
        while ((c = get_byte(s)) != 0 && c != (-1)) ;
    }
    if ((flags & 0x02) != 0) {
        for (len = 0; len < 2; len++) (void)get_byte(s);
    }
    s->z_err = s->z_eof ? (-3) : 0;
}





static int destroy (s)
    gz_stream *s;
{
    int err = 0;

    if (!s) return (-2);

    {if (s->msg) free(s->msg);};

    if (s->stream.state != 0) {
        if (s->mode == 'w') {



            err = deflateEnd(&(s->stream));

        } else if (s->mode == 'r') {
            err = inflateEnd(&(s->stream));
        }
    }
    if (s->file != 0 && fclose(s->file)) {

        if ((*__errno()) != 29)

            err = (-1);
    }
    if (s->z_err < 0) err = s->z_err;

    {if (s->inbuf) free(s->inbuf);};
    {if (s->outbuf) free(s->outbuf);};
    {if (s->path) free(s->path);};
    {if (s) free(s);};
    return err;
}





int gzread (file, buf, len)
    gzFile file;
    voidp buf;
    unsigned len;
{
    gz_stream *s = (gz_stream*)file;
    Bytef *start = (Bytef*)buf;
    Byte *next_out;

    if (s == 0 || s->mode != 'r') return (-2);

    if (s->z_err == (-3) || s->z_err == (-1)) return -1;
    if (s->z_err == 1) return 0;

    next_out = (Byte*)buf;
    s->stream.next_out = (Bytef*)buf;
    s->stream.avail_out = len;

    if (s->stream.avail_out && s->back != (-1)) {
        *next_out++ = s->back;
        s->stream.next_out++;
        s->stream.avail_out--;
        s->back = (-1);
        s->out++;
        start++;
        if (s->last) {
            s->z_err = 1;
            return 1;
        }
    }

    while (s->stream.avail_out != 0) {

        if (s->transparent) {

            uInt n = s->stream.avail_in;
            if (n > s->stream.avail_out) n = s->stream.avail_out;
            if (n > 0) {
                memcpy(s->stream.next_out, s->stream.next_in, n);
                next_out += n;
                s->stream.next_out = next_out;
                s->stream.next_in += n;
                s->stream.avail_out -= n;
                s->stream.avail_in -= n;
            }
            if (s->stream.avail_out > 0) {
                s->stream.avail_out -=
                    (uInt)fread(next_out, 1, s->stream.avail_out, s->file);
            }
            len -= s->stream.avail_out;
            s->in += len;
            s->out += len;
            if (len == 0) s->z_eof = 1;
            return (int)len;
        }
        if (s->stream.avail_in == 0 && !s->z_eof) {

            (*__errno()) = 0;
            s->stream.avail_in = (uInt)fread(s->inbuf, 1, 16384, s->file);
            if (s->stream.avail_in == 0) {
                s->z_eof = 1;
                if (ferror(s->file)) {
                    s->z_err = (-1);
                    break;
                }
            }
            s->stream.next_in = s->inbuf;
        }
        s->in += s->stream.avail_in;
        s->out += s->stream.avail_out;
        s->z_err = inflate(&(s->stream), 0);
        s->in -= s->stream.avail_in;
        s->out -= s->stream.avail_out;

        if (s->z_err == 1) {

            s->crc = crc32(s->crc, start, (uInt)(s->stream.next_out - start));
            start = s->stream.next_out;

            if (getLong(s) != s->crc) {
                s->z_err = (-3);
            } else {
                (void)getLong(s);




                check_header(s);
                if (s->z_err == 0) {
                    inflateReset(&(s->stream));
                    s->crc = crc32(0L, 0, 0);
                }
            }
        }
        if (s->z_err != 0 || s->z_eof) break;
    }
    s->crc = crc32(s->crc, start, (uInt)(s->stream.next_out - start));

    if (len == s->stream.avail_out &&
        (s->z_err == (-3) || s->z_err == (-1)))
        return -1;
    return (int)(len - s->stream.avail_out);
}






int gzgetc(file)
    gzFile file;
{
    unsigned char c;

    return gzread(file, &c, 1) == 1 ? c : -1;
}





int gzungetc(c, file)
    int c;
    gzFile file;
{
    gz_stream *s = (gz_stream*)file;

    if (s == 0 || s->mode != 'r' || c == (-1) || s->back != (-1)) return (-1);
    s->back = c;
    s->out--;
    s->last = (s->z_err == 1);
    if (s->last) s->z_err = 0;
    s->z_eof = 0;
    return c;
}
# 540 "c:/users/plu/documents/petetrlu/kitchen/spices/airplay4.4/modules/third_party/zlib/upstream/gzio.c"
char * gzgets(file, buf, len)
    gzFile file;
    char *buf;
    int len;
{
    char *b = buf;
    if (buf == 0 || len <= 0) return 0;

    while (--len > 0 && gzread(file, buf, 1) == 1 && *buf++ != '\n') ;
    *buf = '\0';
    return b == buf && len > 0 ? 0 : b;
}







int gzwrite (file, buf, len)
    gzFile file;
    voidpc buf;
    unsigned len;
{
    gz_stream *s = (gz_stream*)file;

    if (s == 0 || s->mode != 'w') return (-2);

    s->stream.next_in = (Bytef*)buf;
    s->stream.avail_in = len;

    while (s->stream.avail_in != 0) {

        if (s->stream.avail_out == 0) {

            s->stream.next_out = s->outbuf;
            if (fwrite(s->outbuf, 1, 16384, s->file) != 16384) {
                s->z_err = (-1);
                break;
            }
            s->stream.avail_out = 16384;
        }
        s->in += s->stream.avail_in;
        s->out += s->stream.avail_out;
        s->z_err = deflate(&(s->stream), 0);
        s->in -= s->stream.avail_in;
        s->out -= s->stream.avail_out;
        if (s->z_err != 0) break;
    }
    s->crc = crc32(s->crc, (const Bytef *)buf, len);

    return (int)(len - s->stream.avail_in);
}
# 603 "c:/users/plu/documents/petetrlu/kitchen/spices/airplay4.4/modules/third_party/zlib/upstream/gzio.c"
int gzprintf (gzFile file, const char *format, ...)
{
    char buf[4096];
    va_list va;
    int len;

    buf[sizeof(buf) - 1] = 0;
    __builtin_va_start(va,format);
# 627 "c:/users/plu/documents/petetrlu/kitchen/spices/airplay4.4/modules/third_party/zlib/upstream/gzio.c"
    len = vsnprintf(buf, sizeof(buf), format, va);
    __builtin_va_end(va);


    if (len <= 0 || len >= (int)sizeof(buf) || buf[sizeof(buf) - 1] != 0)
        return 0;
    return gzwrite(file, buf, (unsigned)len);
}
# 678 "c:/users/plu/documents/petetrlu/kitchen/spices/airplay4.4/modules/third_party/zlib/upstream/gzio.c"
int gzputc(file, c)
    gzFile file;
    int c;
{
    unsigned char cc = (unsigned char) c;

    return gzwrite(file, &cc, 1) == 1 ? (int)cc : -1;
}







int gzputs(file, s)
    gzFile file;
    const char *s;
{
    return gzwrite(file, (char*)s, (unsigned)strlen(s));
}






static int do_flush (file, flush)
    gzFile file;
    int flush;
{
    uInt len;
    int done = 0;
    gz_stream *s = (gz_stream*)file;

    if (s == 0 || s->mode != 'w') return (-2);

    s->stream.avail_in = 0;

    for (;;) {
        len = 16384 - s->stream.avail_out;

        if (len != 0) {
            if ((uInt)fwrite(s->outbuf, 1, len, s->file) != len) {
                s->z_err = (-1);
                return (-1);
            }
            s->stream.next_out = s->outbuf;
            s->stream.avail_out = 16384;
        }
        if (done) break;
        s->out += s->stream.avail_out;
        s->z_err = deflate(&(s->stream), flush);
        s->out -= s->stream.avail_out;


        if (len == 0 && s->z_err == (-5)) s->z_err = 0;




        done = (s->stream.avail_out != 0 || s->z_err == 1);

        if (s->z_err != 0 && s->z_err != 1) break;
    }
    return s->z_err == 1 ? 0 : s->z_err;
}

int gzflush (file, flush)
     gzFile file;
     int flush;
{
    gz_stream *s = (gz_stream*)file;
    int err = do_flush (file, flush);

    if (err) return err;
    fflush(s->file);
    return s->z_err == 1 ? 0 : s->z_err;
}
# 767 "c:/users/plu/documents/petetrlu/kitchen/spices/airplay4.4/modules/third_party/zlib/upstream/gzio.c"
long gzseek (file, offset, whence)
    gzFile file;
    long offset;
    int whence;
{
    gz_stream *s = (gz_stream*)file;

    if (s == 0 || whence == 2 ||
        s->z_err == (-1) || s->z_err == (-3)) {
        return -1L;
    }

    if (s->mode == 'w') {



        if (whence == 0) {
            offset -= s->in;
        }
        if (offset < 0) return -1L;


        if (s->inbuf == 0) {
            s->inbuf = (Byte*)malloc(16384);
            if (s->inbuf == 0) return -1L;
            memset(s->inbuf, 0, 16384);
        }
        while (offset > 0) {
            uInt size = 16384;
            if (offset < 16384) size = (uInt)offset;

            size = gzwrite(file, s->inbuf, size);
            if (size == 0) return -1L;

            offset -= size;
        }
        return s->in;

    }



    if (whence == 1) {
        offset += s->out;
    }
    if (offset < 0) return -1L;

    if (s->transparent) {

        s->back = (-1);
        s->stream.avail_in = 0;
        s->stream.next_in = s->inbuf;
        if (fseek(s->file, offset, 0) < 0) return -1L;

        s->in = s->out = offset;
        return offset;
    }


    if (offset >= s->out) {
        offset -= s->out;
    } else if (gzrewind(file) < 0) {
        return -1L;
    }


    if (offset != 0 && s->outbuf == 0) {
        s->outbuf = (Byte*)malloc(16384);
        if (s->outbuf == 0) return -1L;
    }
    if (offset && s->back != (-1)) {
        s->back = (-1);
        s->out++;
        offset--;
        if (s->last) s->z_err = 1;
    }
    while (offset > 0) {
        int size = 16384;
        if (offset < 16384) size = (int)offset;

        size = gzread(file, s->outbuf, (uInt)size);
        if (size <= 0) return -1L;
        offset -= size;
    }
    return s->out;
}




int gzrewind (file)
    gzFile file;
{
    gz_stream *s = (gz_stream*)file;

    if (s == 0 || s->mode != 'r') return -1;

    s->z_err = 0;
    s->z_eof = 0;
    s->back = (-1);
    s->stream.avail_in = 0;
    s->stream.next_in = s->inbuf;
    s->crc = crc32(0L, 0, 0);
    if (!s->transparent) (void)inflateReset(&s->stream);
    s->in = 0;
    s->out = 0;
    return fseek(s->file, s->start, 0);
}






long gztell (file)
    gzFile file;
{
    return gzseek(file, 0L, 1);
}





int gzeof (file)
    gzFile file;
{
    gz_stream *s = (gz_stream*)file;





    if (s == 0 || s->mode != 'r') return 0;
    if (s->z_eof) return 1;
    return s->z_err == 1;
}




int gzdirect (file)
    gzFile file;
{
    gz_stream *s = (gz_stream*)file;

    if (s == 0 || s->mode != 'r') return 0;
    return s->transparent;
}




static void putLong (file, x)
    FILE *file;
    uLong x;
{
    int n;
    for (n = 0; n < 4; n++) {
        fputc((int)(x & 0xff), file);
        x >>= 8;
    }
}





static uLong getLong (s)
    gz_stream *s;
{
    uLong x = (uLong)get_byte(s);
    int c;

    x += ((uLong)get_byte(s))<<8;
    x += ((uLong)get_byte(s))<<16;
    c = get_byte(s);
    if (c == (-1)) s->z_err = (-3);
    x += ((uLong)c)<<24;
    return x;
}





int gzclose (file)
    gzFile file;
{
    gz_stream *s = (gz_stream*)file;

    if (s == 0) return (-2);

    if (s->mode == 'w') {



        if (do_flush (file, 4) != 0)
            return destroy((gz_stream*)file);

        putLong (s->file, s->crc);
        putLong (s->file, (uLong)(s->in & 0xffffffff));

    }
    return destroy((gz_stream*)file);
}
# 987 "c:/users/plu/documents/petetrlu/kitchen/spices/airplay4.4/modules/third_party/zlib/upstream/gzio.c"
const char * gzerror (file, errnum)
    gzFile file;
    int *errnum;
{
    char *m;
    gz_stream *s = (gz_stream*)file;

    if (s == 0) {
        *errnum = (-2);
        return (const char*)z_errmsg[2 -((-2))];
    }
    *errnum = s->z_err;
    if (*errnum == 0) return (const char*)"";

    m = (char*)(*errnum == (-1) ? strerror((*__errno())) : s->stream.msg);

    if (m == 0 || *m == '\0') m = (char*)z_errmsg[2 -(s->z_err)];

    {if (s->msg) free(s->msg);};
    s->msg = (char*)malloc(strlen(s->path) + strlen(m) + 3);
    if (s->msg == 0) return (const char*)z_errmsg[2 -((-4))];
    strcpy(s->msg, s->path);
    strcat(s->msg, ": ");
    strcat(s->msg, m);
    return (const char*)s->msg;
}




void gzclearerr (file)
    gzFile file;
{
    gz_stream *s = (gz_stream*)file;

    if (s == 0) return;
    if (s->z_err != 1) s->z_err = 0;
    s->z_eof = 0;
    clearerr(s->file);
}
