# 1 "c:/users/plu/documents/petetrlu/kitchen/spices/airplay4.4/modules/third_party/zlib/upstream/inffast.c"
# 1 "<built-in>"
# 1 "<command-line>"
# 1 "C:/Users/plu/Documents/petetrlu/kitchen/faucet/self_help/test1/build_test1_vc10/temp_defines_release.h" 1
# 1 "<command-line>" 2
# 1 "c:/users/plu/documents/petetrlu/kitchen/spices/airplay4.4/modules/third_party/zlib/upstream/inffast.c"





# 1 "c:/users/plu/documents/petetrlu/kitchen/spices/airplay4.4/modules/third_party/zlib/upstream/zutil.h" 1
# 17 "c:/users/plu/documents/petetrlu/kitchen/spices/airplay4.4/modules/third_party/zlib/upstream/zutil.h"
# 1 "c:/users/plu/documents/petetrlu/kitchen/spices/airplay4.4/modules/third_party/zlib/upstream/zlib.h" 1
# 34 "c:/users/plu/documents/petetrlu/kitchen/spices/airplay4.4/modules/third_party/zlib/upstream/zlib.h"
# 1 "c:/users/plu/documents/petetrlu/kitchen/spices/airplay4.4/modules/third_party/zlib/upstream/zconf.h" 1
# 261 "c:/users/plu/documents/petetrlu/kitchen/spices/airplay4.4/modules/third_party/zlib/upstream/zconf.h"
typedef unsigned char Byte;

typedef unsigned int uInt;
typedef unsigned long uLong;





   typedef Byte Bytef;

typedef char charf;
typedef int intf;
typedef uInt uIntf;
typedef uLong uLongf;


   typedef void const *voidpc;
   typedef void *voidpf;
   typedef void *voidp;
# 35 "c:/users/plu/documents/petetrlu/kitchen/spices/airplay4.4/modules/third_party/zlib/upstream/zlib.h" 2
# 77 "c:/users/plu/documents/petetrlu/kitchen/spices/airplay4.4/modules/third_party/zlib/upstream/zlib.h"
typedef voidpf (*alloc_func) (voidpf opaque, uInt items, uInt size);
typedef void (*free_func) (voidpf opaque, voidpf address);

struct internal_state;

typedef struct z_stream_s {
    Bytef *next_in;
    uInt avail_in;
    uLong total_in;

    Bytef *next_out;
    uInt avail_out;
    uLong total_out;

    char *msg;
    struct internal_state *state;

    alloc_func zalloc;
    free_func zfree;
    voidpf opaque;

    int data_type;
    uLong adler;
    uLong reserved;
} z_stream;

typedef z_stream *z_streamp;





typedef struct gz_header_s {
    int text;
    uLong time;
    int xflags;
    int os;
    Bytef *extra;
    uInt extra_len;
    uInt extra_max;
    Bytef *name;
    uInt name_max;
    Bytef *comment;
    uInt comm_max;
    int hcrc;
    int done;

} gz_header;

typedef gz_header *gz_headerp;
# 212 "c:/users/plu/documents/petetrlu/kitchen/spices/airplay4.4/modules/third_party/zlib/upstream/zlib.h"
extern const char * zlibVersion (void);
# 242 "c:/users/plu/documents/petetrlu/kitchen/spices/airplay4.4/modules/third_party/zlib/upstream/zlib.h"
extern int deflate (z_streamp strm, int flush);
# 328 "c:/users/plu/documents/petetrlu/kitchen/spices/airplay4.4/modules/third_party/zlib/upstream/zlib.h"
extern int deflateEnd (z_streamp strm);
# 363 "c:/users/plu/documents/petetrlu/kitchen/spices/airplay4.4/modules/third_party/zlib/upstream/zlib.h"
extern int inflate (z_streamp strm, int flush);
# 462 "c:/users/plu/documents/petetrlu/kitchen/spices/airplay4.4/modules/third_party/zlib/upstream/zlib.h"
extern int inflateEnd (z_streamp strm);
# 538 "c:/users/plu/documents/petetrlu/kitchen/spices/airplay4.4/modules/third_party/zlib/upstream/zlib.h"
extern int deflateSetDictionary (z_streamp strm, const Bytef *dictionary, uInt dictLength);
# 577 "c:/users/plu/documents/petetrlu/kitchen/spices/airplay4.4/modules/third_party/zlib/upstream/zlib.h"
extern int deflateCopy (z_streamp dest, z_streamp source);
# 595 "c:/users/plu/documents/petetrlu/kitchen/spices/airplay4.4/modules/third_party/zlib/upstream/zlib.h"
extern int deflateReset (z_streamp strm);
# 606 "c:/users/plu/documents/petetrlu/kitchen/spices/airplay4.4/modules/third_party/zlib/upstream/zlib.h"
extern int deflateParams (z_streamp strm, int level, int strategy);
# 627 "c:/users/plu/documents/petetrlu/kitchen/spices/airplay4.4/modules/third_party/zlib/upstream/zlib.h"
extern int deflateTune (z_streamp strm, int good_length, int max_lazy, int nice_length, int max_chain);
# 644 "c:/users/plu/documents/petetrlu/kitchen/spices/airplay4.4/modules/third_party/zlib/upstream/zlib.h"
extern uLong deflateBound (z_streamp strm, uLong sourceLen);
# 653 "c:/users/plu/documents/petetrlu/kitchen/spices/airplay4.4/modules/third_party/zlib/upstream/zlib.h"
extern int deflatePrime (z_streamp strm, int bits, int value);
# 669 "c:/users/plu/documents/petetrlu/kitchen/spices/airplay4.4/modules/third_party/zlib/upstream/zlib.h"
extern int deflateSetHeader (z_streamp strm, gz_headerp head);
# 736 "c:/users/plu/documents/petetrlu/kitchen/spices/airplay4.4/modules/third_party/zlib/upstream/zlib.h"
extern int inflateSetDictionary (z_streamp strm, const Bytef *dictionary, uInt dictLength);
# 758 "c:/users/plu/documents/petetrlu/kitchen/spices/airplay4.4/modules/third_party/zlib/upstream/zlib.h"
extern int inflateSync (z_streamp strm);
# 773 "c:/users/plu/documents/petetrlu/kitchen/spices/airplay4.4/modules/third_party/zlib/upstream/zlib.h"
extern int inflateCopy (z_streamp dest, z_streamp source);
# 789 "c:/users/plu/documents/petetrlu/kitchen/spices/airplay4.4/modules/third_party/zlib/upstream/zlib.h"
extern int inflateReset (z_streamp strm);
# 799 "c:/users/plu/documents/petetrlu/kitchen/spices/airplay4.4/modules/third_party/zlib/upstream/zlib.h"
extern int inflatePrime (z_streamp strm, int bits, int value);
# 815 "c:/users/plu/documents/petetrlu/kitchen/spices/airplay4.4/modules/third_party/zlib/upstream/zlib.h"
extern int inflateGetHeader (z_streamp strm, gz_headerp head);
# 877 "c:/users/plu/documents/petetrlu/kitchen/spices/airplay4.4/modules/third_party/zlib/upstream/zlib.h"
typedef unsigned (*in_func) (void *, unsigned char * *);
typedef int (*out_func) (void *, unsigned char *, unsigned);

extern int inflateBack (z_streamp strm, in_func in, void *in_desc, out_func out, void *out_desc);
# 949 "c:/users/plu/documents/petetrlu/kitchen/spices/airplay4.4/modules/third_party/zlib/upstream/zlib.h"
extern int inflateBackEnd (z_streamp strm);







extern uLong zlibCompileFlags (void);
# 1009 "c:/users/plu/documents/petetrlu/kitchen/spices/airplay4.4/modules/third_party/zlib/upstream/zlib.h"
extern int compress (Bytef *dest, uLongf *destLen, const Bytef *source, uLong sourceLen);
# 1024 "c:/users/plu/documents/petetrlu/kitchen/spices/airplay4.4/modules/third_party/zlib/upstream/zlib.h"
extern int compress2 (Bytef *dest, uLongf *destLen, const Bytef *source, uLong sourceLen, int level);
# 1040 "c:/users/plu/documents/petetrlu/kitchen/spices/airplay4.4/modules/third_party/zlib/upstream/zlib.h"
extern uLong compressBound (uLong sourceLen);






extern int uncompress (Bytef *dest, uLongf *destLen, const Bytef *source, uLong sourceLen);
# 1066 "c:/users/plu/documents/petetrlu/kitchen/spices/airplay4.4/modules/third_party/zlib/upstream/zlib.h"
typedef voidp gzFile;

extern gzFile gzopen (const char *path, const char *mode);
# 1085 "c:/users/plu/documents/petetrlu/kitchen/spices/airplay4.4/modules/third_party/zlib/upstream/zlib.h"
extern gzFile gzdopen (int fd, const char *mode);
# 1098 "c:/users/plu/documents/petetrlu/kitchen/spices/airplay4.4/modules/third_party/zlib/upstream/zlib.h"
extern int gzsetparams (gzFile file, int level, int strategy);







extern int gzread (gzFile file, voidp buf, unsigned len);







extern int gzwrite (gzFile file, voidpc buf, unsigned len);







extern int gzprintf (gzFile file, const char *format, ...);
# 1135 "c:/users/plu/documents/petetrlu/kitchen/spices/airplay4.4/modules/third_party/zlib/upstream/zlib.h"
extern int gzputs (gzFile file, const char *s);






extern char * gzgets (gzFile file, char *buf, int len);
# 1151 "c:/users/plu/documents/petetrlu/kitchen/spices/airplay4.4/modules/third_party/zlib/upstream/zlib.h"
extern int gzputc (gzFile file, int c);





extern int gzgetc (gzFile file);





extern int gzungetc (int c, gzFile file);
# 1173 "c:/users/plu/documents/petetrlu/kitchen/spices/airplay4.4/modules/third_party/zlib/upstream/zlib.h"
extern int gzflush (gzFile file, int flush);
# 1183 "c:/users/plu/documents/petetrlu/kitchen/spices/airplay4.4/modules/third_party/zlib/upstream/zlib.h"
extern long gzseek (gzFile file, long offset, int whence);
# 1201 "c:/users/plu/documents/petetrlu/kitchen/spices/airplay4.4/modules/third_party/zlib/upstream/zlib.h"
extern int gzrewind (gzFile file);






extern long gztell (gzFile file);
# 1217 "c:/users/plu/documents/petetrlu/kitchen/spices/airplay4.4/modules/third_party/zlib/upstream/zlib.h"
extern int gzeof (gzFile file);





extern int gzdirect (gzFile file);





extern int gzclose (gzFile file);






extern const char * gzerror (gzFile file, int *errnum);
# 1245 "c:/users/plu/documents/petetrlu/kitchen/spices/airplay4.4/modules/third_party/zlib/upstream/zlib.h"
extern void gzclearerr (gzFile file);
# 1260 "c:/users/plu/documents/petetrlu/kitchen/spices/airplay4.4/modules/third_party/zlib/upstream/zlib.h"
extern uLong adler32 (uLong adler, const Bytef *buf, uInt len);
# 1276 "c:/users/plu/documents/petetrlu/kitchen/spices/airplay4.4/modules/third_party/zlib/upstream/zlib.h"
extern uLong adler32_combine (uLong adler1, uLong adler2, long len2);
# 1285 "c:/users/plu/documents/petetrlu/kitchen/spices/airplay4.4/modules/third_party/zlib/upstream/zlib.h"
extern uLong crc32 (uLong crc, const Bytef *buf, uInt len);
# 1301 "c:/users/plu/documents/petetrlu/kitchen/spices/airplay4.4/modules/third_party/zlib/upstream/zlib.h"
extern uLong crc32_combine (uLong crc1, uLong crc2, long len2);
# 1317 "c:/users/plu/documents/petetrlu/kitchen/spices/airplay4.4/modules/third_party/zlib/upstream/zlib.h"
extern int deflateInit_ (z_streamp strm, int level, const char *version, int stream_size);

extern int inflateInit_ (z_streamp strm, const char *version, int stream_size);

extern int deflateInit2_ (z_streamp strm, int level, int method, int windowBits, int memLevel, int strategy, const char *version, int stream_size);



extern int inflateInit2_ (z_streamp strm, int windowBits, const char *version, int stream_size);

extern int inflateBackInit_ (z_streamp strm, int windowBits, unsigned char *window, const char *version, int stream_size);
# 1349 "c:/users/plu/documents/petetrlu/kitchen/spices/airplay4.4/modules/third_party/zlib/upstream/zlib.h"
extern const char * zError (int);
extern int inflateSyncPoint (z_streamp z);
extern const uLongf * get_crc_table (void);
# 18 "c:/users/plu/documents/petetrlu/kitchen/spices/airplay4.4/modules/third_party/zlib/upstream/zutil.h" 2



# 1 "c:/users/plu/documents/petetrlu/kitchen/spices/airplay4.4/s3e/h/std/stddef.h" 1
# 15 "c:/users/plu/documents/petetrlu/kitchen/spices/airplay4.4/s3e/h/std/stddef.h"
typedef signed int ptrdiff_t;


    typedef unsigned int wint_t;
    typedef unsigned long int wctype_t;



    typedef unsigned short wchar_t;



typedef unsigned int size_t;
# 22 "c:/users/plu/documents/petetrlu/kitchen/spices/airplay4.4/modules/third_party/zlib/upstream/zutil.h" 2

# 1 "c:/users/plu/documents/petetrlu/kitchen/spices/airplay4.4/s3e/h/std/string.h" 1
# 15 "c:/users/plu/documents/petetrlu/kitchen/spices/airplay4.4/s3e/h/std/string.h"
# 1 "c:/users/plu/documents/petetrlu/kitchen/spices/airplay4.4/s3e/h/std/sys/types.h" 1
# 15 "c:/users/plu/documents/petetrlu/kitchen/spices/airplay4.4/s3e/h/std/sys/types.h"
# 1 "c:/users/plu/documents/petetrlu/kitchen/spices/airplay4.4/s3e/h/s3eTypes.h" 1
# 37 "c:/users/plu/documents/petetrlu/kitchen/spices/airplay4.4/s3e/h/s3eTypes.h"
typedef unsigned char s3e_uint8_t;
typedef signed char s3e_int8_t;
typedef unsigned short int s3e_uint16_t;
typedef signed short int s3e_int16_t;
typedef unsigned int s3e_uint32_t;
typedef signed int s3e_int32_t;
# 51 "c:/users/plu/documents/petetrlu/kitchen/spices/airplay4.4/s3e/h/s3eTypes.h"
  typedef signed long long s3e_int64_t;
  typedef unsigned long long s3e_uint64_t;
# 72 "c:/users/plu/documents/petetrlu/kitchen/spices/airplay4.4/s3e/h/s3eTypes.h"
typedef s3e_uint64_t uint64_t;
typedef s3e_int64_t int64_t;
typedef s3e_uint32_t uint32_t;
typedef s3e_int32_t int32_t;
typedef s3e_uint16_t uint16_t;
typedef s3e_int16_t int16_t;
typedef s3e_uint8_t uint8_t;
typedef s3e_int8_t int8_t;
# 93 "c:/users/plu/documents/petetrlu/kitchen/spices/airplay4.4/s3e/h/s3eTypes.h"
 typedef int intptr_t;
 typedef unsigned int uintptr_t;
# 104 "c:/users/plu/documents/petetrlu/kitchen/spices/airplay4.4/s3e/h/s3eTypes.h"
typedef unsigned int uint;
typedef unsigned short int ushort;
typedef unsigned long int ulong;
typedef unsigned char uint8;
typedef signed char int8;







typedef int64_t int64;
typedef uint64_t uint64;
# 126 "c:/users/plu/documents/petetrlu/kitchen/spices/airplay4.4/s3e/h/s3eTypes.h"
typedef unsigned int uint32;
# 135 "c:/users/plu/documents/petetrlu/kitchen/spices/airplay4.4/s3e/h/s3eTypes.h"
typedef signed int int32;





typedef uint16_t uint16;




typedef int16_t int16;
# 217 "c:/users/plu/documents/petetrlu/kitchen/spices/airplay4.4/s3e/h/s3eTypes.h"
typedef enum s3eResult
{
    S3E_RESULT_SUCCESS = 0,
    S3E_RESULT_ERROR = 1
} s3eResult;




typedef uint8 s3eBool;
# 237 "c:/users/plu/documents/petetrlu/kitchen/spices/airplay4.4/s3e/h/s3eTypes.h"
typedef unsigned short s3eWChar;
# 308 "c:/users/plu/documents/petetrlu/kitchen/spices/airplay4.4/s3e/h/s3eTypes.h"
typedef int32 (*s3eCallback) (void* systemData, void* userData);
# 16 "c:/users/plu/documents/petetrlu/kitchen/spices/airplay4.4/s3e/h/std/sys/types.h" 2

# 1 "c:/users/plu/documents/petetrlu/kitchen/spices/airplay4.4/s3e/h/std/stdint.h" 1
# 19 "c:/users/plu/documents/petetrlu/kitchen/spices/airplay4.4/s3e/h/std/stdint.h"
typedef signed char int_least8_t;
typedef short int_least16_t;
typedef long int_least32_t;
typedef int64_t int_least64_t;

typedef unsigned char uint_least8_t;
typedef unsigned short uint_least16_t;
typedef unsigned long uint_least32_t;
typedef uint64_t uint_least64_t;

typedef signed char int_fast8_t;
typedef short int_fast16_t;
typedef long int_fast32_t;
typedef int64_t int_fast64_t;

typedef unsigned char uint_fast8_t;
typedef unsigned short uint_fast16_t;
typedef unsigned long uint_fast32_t;
typedef uint64_t uint_fast64_t;

typedef int64_t intmax_t;
typedef uint64_t uintmax_t;
# 18 "c:/users/plu/documents/petetrlu/kitchen/spices/airplay4.4/s3e/h/std/sys/types.h" 2
# 1 "c:/users/plu/documents/petetrlu/kitchen/spices/airplay4.4/s3e/h/std/sys/select.h" 1
# 24 "c:/users/plu/documents/petetrlu/kitchen/spices/airplay4.4/s3e/h/std/sys/select.h"
struct timeval;

typedef struct fd_set
{
    char fds_bits[256/8];
} fd_set;
# 39 "c:/users/plu/documents/petetrlu/kitchen/spices/airplay4.4/s3e/h/std/sys/select.h"


int select(int nfds, fd_set *readfds, fd_set *writefds, fd_set *exceptfds, struct timeval *timeout);


# 19 "c:/users/plu/documents/petetrlu/kitchen/spices/airplay4.4/s3e/h/std/sys/types.h" 2



typedef long off_t;

typedef int64_t off64_t;
# 33 "c:/users/plu/documents/petetrlu/kitchen/spices/airplay4.4/s3e/h/std/sys/types.h"
typedef uint u_int;
typedef uint8_t u_int8_t;
typedef uint16_t u_int16_t;
typedef uint32_t u_int32_t;
typedef uint64_t u_int64_t;

typedef unsigned short u_short;
typedef unsigned long u_long;
typedef unsigned char u_char;

typedef int ssize_t;
typedef int pid_t;
typedef short uid_t;
typedef short gid_t;
typedef int idtype_t;
typedef int id_t;
typedef uint32 mode_t;
typedef short dev_t;
typedef short ino_t;
typedef int key_t;
typedef void* caddr_t;
# 16 "c:/users/plu/documents/petetrlu/kitchen/spices/airplay4.4/s3e/h/std/string.h" 2



void *memcpy(void *dest, const void *src, size_t n);
void *memset(void *s, int c, size_t n);
int memcmp(const void *s1, const void *s2, size_t n);
void *memmove(void *dest, const void *src, size_t n);
void *memchr(const void *s, int c, size_t n);
void *memrchr(const void *s, int c, size_t n);







int strcmp(const char *s1, const char *s2);
int strncmp(const char *s1, const char *s2, size_t n);
char *strsep(char **stringp, const char *delim);
char *strcpy(char *dest, const char *src);
char *strncpy(char *dest, const char *src, size_t n);
char *strchr(const char *s, int c);
char *strstr(const char *haystack, const char *needle);
char *strrchr(const char *s, int c);
char *strdup(const char *s);
char *strtok(char *str, const char *delim);
char *strtok_r(char *str, const char *delim, char **saveptr);
char *strcat(char *dest, const char *src);
char *strncat(char *dest, const char *src, size_t n);
size_t strlen(const char *s);
size_t strnlen(const char *s, size_t n);
int strcasecmp(const char *s1, const char *s2);
int strncasecmp(const char *s1, const char *s2, size_t n);
size_t strspn(const char *s, const char *accept);
size_t strcspn(const char *s, const char *reject);
char *strpbrk(const char *s, const char *accept);
int strcoll(const char *s1, const char *s2);
char *strerror(int errnum);
size_t strxfrm(char *dest, const char *src, size_t n);

int strerror_r(int errnum, char *buf, size_t buflen);





size_t strlcpy(char* dest, const char* src, size_t len);
size_t strlcat(char* dest, const char* src, size_t len);


# 24 "c:/users/plu/documents/petetrlu/kitchen/spices/airplay4.4/modules/third_party/zlib/upstream/zutil.h" 2
# 1 "c:/users/plu/documents/petetrlu/kitchen/spices/airplay4.4/s3e/h/std/stdlib.h" 1
# 16 "c:/users/plu/documents/petetrlu/kitchen/spices/airplay4.4/s3e/h/std/stdlib.h"
# 1 "c:/users/plu/documents/petetrlu/kitchen/spices/airplay4.4/s3e/h/std/malloc.h" 1
# 16 "c:/users/plu/documents/petetrlu/kitchen/spices/airplay4.4/s3e/h/std/malloc.h"
# 1 "c:/users/plu/documents/petetrlu/kitchen/spices/airplay4.4/s3e/h/std/alloca.h" 1
# 17 "c:/users/plu/documents/petetrlu/kitchen/spices/airplay4.4/s3e/h/std/alloca.h"



    extern void *alloca(size_t __size);
# 35 "c:/users/plu/documents/petetrlu/kitchen/spices/airplay4.4/s3e/h/std/alloca.h"

# 17 "c:/users/plu/documents/petetrlu/kitchen/spices/airplay4.4/s3e/h/std/malloc.h" 2



void *calloc(size_t nmemb, size_t size);
void *malloc(size_t size);
void free(void *ptr);
void *realloc(void *ptr, size_t size);


# 17 "c:/users/plu/documents/petetrlu/kitchen/spices/airplay4.4/s3e/h/std/stdlib.h" 2
# 28 "c:/users/plu/documents/petetrlu/kitchen/spices/airplay4.4/s3e/h/std/stdlib.h"


double atof(const char* string);
int atoi(const char *nptr);
long atol(const char *nptr);
int64_t atoll(const char *nptr);
int64_t atoq(const char *nptr);
int abs(int j);
long int labs(long int j);
int64_t llabs(int64_t j);
void qsort(void *base, size_t nmemb, size_t size, int(*compar)(const void *, const void *));
void *bsearch(const void *key, const void *base, size_t nmemb, size_t size, int (*compar)(const void *, const void *));
void abort(void);
int putenv(char *string);
char *getenv(const char *name);
int setenv(const char *name, const char *value, int overwrite);
int unsetenv(const char *name);
void exit(int status) __attribute__ ((noreturn));
void _exit(int status) __attribute__ ((noreturn));
void _Exit(int status) __attribute__ ((noreturn));
unsigned long int strtoul(const char *nptr, char **endptr, int base);
uint64_t strtoull(const char *nptr, char **endptr, int base);
long int strtol(const char *nptr, char **endptr, int base);
int64_t strtoll(const char *nptr, char **endptr, int base);
double strtod(const char *nptr, char **endptr);
float strtof(const char *nptr, char **endptr);
long double strtold(const char *nptr, char **endptr);
int atexit(void (*function)(void));
int system(const char *command);
int posix_memalign(void **memptr, size_t alignment, size_t size);
char *mktemp(char *templ);
int mkstemp(char *templ);



int rand(void);
void srand(unsigned int seed);

long int random(void);
void srandom(unsigned int seed);

size_t __ctype_get_mb_cur_max();


int mblen(const char *s, size_t n);
int mbtowc(wchar_t *pwc, const char *s, size_t n);
int wctomb(char *s, wchar_t wc);
size_t mbstowcs(wchar_t *dest, const char *src, size_t n);
size_t wcstombs(char *dest, const wchar_t *src, size_t n);

typedef struct
{
    int quot;
    int rem;
} div_t;

typedef struct
{
    int quot;
    int rem;
} ldiv_t;

typedef struct
{
    int64_t quot;
    int64_t rem;
} lldiv_t;

div_t div(int numerator, int denominator);
ldiv_t ldiv(long numerator, long denominator);
lldiv_t lldiv(int64_t numerator, int64_t denominator);
# 117 "c:/users/plu/documents/petetrlu/kitchen/spices/airplay4.4/s3e/h/std/stdlib.h"

# 25 "c:/users/plu/documents/petetrlu/kitchen/spices/airplay4.4/modules/third_party/zlib/upstream/zutil.h" 2
# 38 "c:/users/plu/documents/petetrlu/kitchen/spices/airplay4.4/modules/third_party/zlib/upstream/zutil.h"
# 1 "c:/users/plu/documents/petetrlu/kitchen/spices/airplay4.4/s3e/h/std/errno.h" 1
# 17 "c:/users/plu/documents/petetrlu/kitchen/spices/airplay4.4/s3e/h/std/errno.h"

# 31 "c:/users/plu/documents/petetrlu/kitchen/spices/airplay4.4/s3e/h/std/errno.h"
        extern int *__errno(void);
# 41 "c:/users/plu/documents/petetrlu/kitchen/spices/airplay4.4/s3e/h/std/errno.h"
char *strerror(int errnum);


# 39 "c:/users/plu/documents/petetrlu/kitchen/spices/airplay4.4/modules/third_party/zlib/upstream/zutil.h" 2
# 47 "c:/users/plu/documents/petetrlu/kitchen/spices/airplay4.4/modules/third_party/zlib/upstream/zutil.h"
typedef unsigned char uch;
typedef uch uchf;
typedef unsigned short ush;
typedef ush ushf;
typedef unsigned long ulg;

extern const char * const z_errmsg[10];
# 261 "c:/users/plu/documents/petetrlu/kitchen/spices/airplay4.4/modules/third_party/zlib/upstream/zutil.h"
voidpf zcalloc (voidpf opaque, unsigned items, unsigned size);
void zcfree (voidpf opaque, voidpf ptr);
# 7 "c:/users/plu/documents/petetrlu/kitchen/spices/airplay4.4/modules/third_party/zlib/upstream/inffast.c" 2
# 1 "c:/users/plu/documents/petetrlu/kitchen/spices/airplay4.4/modules/third_party/zlib/upstream/inftrees.h" 1
# 24 "c:/users/plu/documents/petetrlu/kitchen/spices/airplay4.4/modules/third_party/zlib/upstream/inftrees.h"
typedef struct {
    unsigned char op;
    unsigned char bits;
    unsigned short val;
} code;
# 47 "c:/users/plu/documents/petetrlu/kitchen/spices/airplay4.4/modules/third_party/zlib/upstream/inftrees.h"
typedef enum {
    CODES,
    LENS,
    DISTS
} codetype;

extern int inflate_table (codetype type, unsigned short *lens, unsigned codes, code * *table, unsigned *bits, unsigned short *work);
# 8 "c:/users/plu/documents/petetrlu/kitchen/spices/airplay4.4/modules/third_party/zlib/upstream/inffast.c" 2
# 1 "c:/users/plu/documents/petetrlu/kitchen/spices/airplay4.4/modules/third_party/zlib/upstream/inflate.h" 1
# 20 "c:/users/plu/documents/petetrlu/kitchen/spices/airplay4.4/modules/third_party/zlib/upstream/inflate.h"
typedef enum {
    HEAD,
    FLAGS,
    TIME,
    OS,
    EXLEN,
    EXTRA,
    NAME,
    COMMENT,
    HCRC,
    DICTID,
    DICT,
        TYPE,
        TYPEDO,
        STORED,
        COPY,
        TABLE,
        LENLENS,
        CODELENS,
            LEN,
            LENEXT,
            DIST,
            DISTEXT,
            MATCH,
            LIT,
    CHECK,
    LENGTH,
    DONE,
    BAD,
    MEM,
    SYNC
} inflate_mode;
# 77 "c:/users/plu/documents/petetrlu/kitchen/spices/airplay4.4/modules/third_party/zlib/upstream/inflate.h"
struct inflate_state {
    inflate_mode mode;
    int last;
    int wrap;
    int havedict;
    int flags;
    unsigned dmax;
    unsigned long check;
    unsigned long total;
    gz_headerp head;

    unsigned wbits;
    unsigned wsize;
    unsigned whave;
    unsigned write;
    unsigned char *window;

    unsigned long hold;
    unsigned bits;

    unsigned length;
    unsigned offset;

    unsigned extra;

    code const *lencode;
    code const *distcode;
    unsigned lenbits;
    unsigned distbits;

    unsigned ncode;
    unsigned nlen;
    unsigned ndist;
    unsigned have;
    code *next;
    unsigned short lens[320];
    unsigned short work[288];
    code codes[2048];
};
# 9 "c:/users/plu/documents/petetrlu/kitchen/spices/airplay4.4/modules/third_party/zlib/upstream/inffast.c" 2
# 1 "c:/users/plu/documents/petetrlu/kitchen/spices/airplay4.4/modules/third_party/zlib/upstream/inffast.h" 1
# 11 "c:/users/plu/documents/petetrlu/kitchen/spices/airplay4.4/modules/third_party/zlib/upstream/inffast.h"
void inflate_fast (z_streamp strm, unsigned start);
# 10 "c:/users/plu/documents/petetrlu/kitchen/spices/airplay4.4/modules/third_party/zlib/upstream/inffast.c" 2
# 67 "c:/users/plu/documents/petetrlu/kitchen/spices/airplay4.4/modules/third_party/zlib/upstream/inffast.c"
void inflate_fast(strm, start)
z_streamp strm;
unsigned start;
{
    struct inflate_state *state;
    unsigned char *in;
    unsigned char *last;
    unsigned char *out;
    unsigned char *beg;
    unsigned char *end;



    unsigned wsize;
    unsigned whave;
    unsigned write;
    unsigned char *window;
    unsigned long hold;
    unsigned bits;
    code const *lcode;
    code const *dcode;
    unsigned lmask;
    unsigned dmask;
    code this;
    unsigned op;

    unsigned len;
    unsigned dist;
    unsigned char *from;


    state = (struct inflate_state *)strm->state;
    in = strm->next_in - 1;
    last = in + (strm->avail_in - 5);
    out = strm->next_out - 1;
    beg = out - (start - strm->avail_out);
    end = out + (strm->avail_out - 257);



    wsize = state->wsize;
    whave = state->whave;
    write = state->write;
    window = state->window;
    hold = state->hold;
    bits = state->bits;
    lcode = state->lencode;
    dcode = state->distcode;
    lmask = (1U << state->lenbits) - 1;
    dmask = (1U << state->distbits) - 1;



    do {
        if (bits < 15) {
            hold += (unsigned long)(*++(in)) << bits;
            bits += 8;
            hold += (unsigned long)(*++(in)) << bits;
            bits += 8;
        }
        this = lcode[hold & lmask];
      dolen:
        op = (unsigned)(this.bits);
        hold >>= op;
        bits -= op;
        op = (unsigned)(this.op);
        if (op == 0) {
            ;


            *++(out) = (unsigned char)(this.val);
        }
        else if (op & 16) {
            len = (unsigned)(this.val);
            op &= 15;
            if (op) {
                if (bits < op) {
                    hold += (unsigned long)(*++(in)) << bits;
                    bits += 8;
                }
                len += (unsigned)hold & ((1U << op) - 1);
                hold >>= op;
                bits -= op;
            }
            ;
            if (bits < 15) {
                hold += (unsigned long)(*++(in)) << bits;
                bits += 8;
                hold += (unsigned long)(*++(in)) << bits;
                bits += 8;
            }
            this = dcode[hold & dmask];
          dodist:
            op = (unsigned)(this.bits);
            hold >>= op;
            bits -= op;
            op = (unsigned)(this.op);
            if (op & 16) {
                dist = (unsigned)(this.val);
                op &= 15;
                if (bits < op) {
                    hold += (unsigned long)(*++(in)) << bits;
                    bits += 8;
                    if (bits < op) {
                        hold += (unsigned long)(*++(in)) << bits;
                        bits += 8;
                    }
                }
                dist += (unsigned)hold & ((1U << op) - 1);







                hold >>= op;
                bits -= op;
                ;
                op = (unsigned)(out - beg);
                if (dist > op) {
                    op = dist - op;
                    if (op > whave) {
                        strm->msg = (char *)"invalid distance too far back";
                        state->mode = BAD;
                        break;
                    }
                    from = window - 1;
                    if (write == 0) {
                        from += wsize - op;
                        if (op < len) {
                            len -= op;
                            do {
                                *++(out) = *++(from);
                            } while (--op);
                            from = out - dist;
                        }
                    }
                    else if (write < op) {
                        from += wsize + write - op;
                        op -= write;
                        if (op < len) {
                            len -= op;
                            do {
                                *++(out) = *++(from);
                            } while (--op);
                            from = window - 1;
                            if (write < len) {
                                op = write;
                                len -= op;
                                do {
                                    *++(out) = *++(from);
                                } while (--op);
                                from = out - dist;
                            }
                        }
                    }
                    else {
                        from += write - op;
                        if (op < len) {
                            len -= op;
                            do {
                                *++(out) = *++(from);
                            } while (--op);
                            from = out - dist;
                        }
                    }
                    while (len > 2) {
                        *++(out) = *++(from);
                        *++(out) = *++(from);
                        *++(out) = *++(from);
                        len -= 3;
                    }
                    if (len) {
                        *++(out) = *++(from);
                        if (len > 1)
                            *++(out) = *++(from);
                    }
                }
                else {
                    from = out - dist;
                    do {
                        *++(out) = *++(from);
                        *++(out) = *++(from);
                        *++(out) = *++(from);
                        len -= 3;
                    } while (len > 2);
                    if (len) {
                        *++(out) = *++(from);
                        if (len > 1)
                            *++(out) = *++(from);
                    }
                }
            }
            else if ((op & 64) == 0) {
                this = dcode[this.val + (hold & ((1U << op) - 1))];
                goto dodist;
            }
            else {
                strm->msg = (char *)"invalid distance code";
                state->mode = BAD;
                break;
            }
        }
        else if ((op & 64) == 0) {
            this = lcode[this.val + (hold & ((1U << op) - 1))];
            goto dolen;
        }
        else if (op & 32) {
            ;
            state->mode = TYPE;
            break;
        }
        else {
            strm->msg = (char *)"invalid literal/length code";
            state->mode = BAD;
            break;
        }
    } while (in < last && out < end);


    len = bits >> 3;
    in -= len;
    bits -= len << 3;
    hold &= (1U << bits) - 1;


    strm->next_in = in + 1;
    strm->next_out = out + 1;
    strm->avail_in = (unsigned)(in < last ? 5 + (last - in) : 5 - (in - last));
    strm->avail_out = (unsigned)(out < end ?
                                 257 + (end - out) : 257 - (out - end));
    state->hold = hold;
    state->bits = bits;
    return;
}
