# 1 "c:/users/plu/documents/petetrlu/kitchen/spices/airplay4.4/modules/third_party/zlib/upstream/inflate.c"
# 1 "<built-in>"
# 1 "<command-line>"
# 1 "C:/Users/plu/Documents/petetrlu/kitchen/faucet/self_help/test1/build_test1_vc10/temp_defines_release.h" 1
# 1 "<command-line>" 2
# 1 "c:/users/plu/documents/petetrlu/kitchen/spices/airplay4.4/modules/third_party/zlib/upstream/inflate.c"
# 83 "c:/users/plu/documents/petetrlu/kitchen/spices/airplay4.4/modules/third_party/zlib/upstream/inflate.c"
# 1 "c:/users/plu/documents/petetrlu/kitchen/spices/airplay4.4/modules/third_party/zlib/upstream/zutil.h" 1
# 17 "c:/users/plu/documents/petetrlu/kitchen/spices/airplay4.4/modules/third_party/zlib/upstream/zutil.h"
# 1 "c:/users/plu/documents/petetrlu/kitchen/spices/airplay4.4/modules/third_party/zlib/upstream/zlib.h" 1
# 34 "c:/users/plu/documents/petetrlu/kitchen/spices/airplay4.4/modules/third_party/zlib/upstream/zlib.h"
# 1 "c:/users/plu/documents/petetrlu/kitchen/spices/airplay4.4/modules/third_party/zlib/upstream/zconf.h" 1
# 261 "c:/users/plu/documents/petetrlu/kitchen/spices/airplay4.4/modules/third_party/zlib/upstream/zconf.h"
typedef unsigned char Byte;

typedef unsigned int uInt;
typedef unsigned long uLong;





   typedef Byte Bytef;

typedef char charf;
typedef int intf;
typedef uInt uIntf;
typedef uLong uLongf;


   typedef void const *voidpc;
   typedef void *voidpf;
   typedef void *voidp;
# 35 "c:/users/plu/documents/petetrlu/kitchen/spices/airplay4.4/modules/third_party/zlib/upstream/zlib.h" 2
# 77 "c:/users/plu/documents/petetrlu/kitchen/spices/airplay4.4/modules/third_party/zlib/upstream/zlib.h"
typedef voidpf (*alloc_func) (voidpf opaque, uInt items, uInt size);
typedef void (*free_func) (voidpf opaque, voidpf address);

struct internal_state;

typedef struct z_stream_s {
    Bytef *next_in;
    uInt avail_in;
    uLong total_in;

    Bytef *next_out;
    uInt avail_out;
    uLong total_out;

    char *msg;
    struct internal_state *state;

    alloc_func zalloc;
    free_func zfree;
    voidpf opaque;

    int data_type;
    uLong adler;
    uLong reserved;
} z_stream;

typedef z_stream *z_streamp;





typedef struct gz_header_s {
    int text;
    uLong time;
    int xflags;
    int os;
    Bytef *extra;
    uInt extra_len;
    uInt extra_max;
    Bytef *name;
    uInt name_max;
    Bytef *comment;
    uInt comm_max;
    int hcrc;
    int done;

} gz_header;

typedef gz_header *gz_headerp;
# 212 "c:/users/plu/documents/petetrlu/kitchen/spices/airplay4.4/modules/third_party/zlib/upstream/zlib.h"
extern const char * zlibVersion (void);
# 242 "c:/users/plu/documents/petetrlu/kitchen/spices/airplay4.4/modules/third_party/zlib/upstream/zlib.h"
extern int deflate (z_streamp strm, int flush);
# 328 "c:/users/plu/documents/petetrlu/kitchen/spices/airplay4.4/modules/third_party/zlib/upstream/zlib.h"
extern int deflateEnd (z_streamp strm);
# 363 "c:/users/plu/documents/petetrlu/kitchen/spices/airplay4.4/modules/third_party/zlib/upstream/zlib.h"
extern int inflate (z_streamp strm, int flush);
# 462 "c:/users/plu/documents/petetrlu/kitchen/spices/airplay4.4/modules/third_party/zlib/upstream/zlib.h"
extern int inflateEnd (z_streamp strm);
# 538 "c:/users/plu/documents/petetrlu/kitchen/spices/airplay4.4/modules/third_party/zlib/upstream/zlib.h"
extern int deflateSetDictionary (z_streamp strm, const Bytef *dictionary, uInt dictLength);
# 577 "c:/users/plu/documents/petetrlu/kitchen/spices/airplay4.4/modules/third_party/zlib/upstream/zlib.h"
extern int deflateCopy (z_streamp dest, z_streamp source);
# 595 "c:/users/plu/documents/petetrlu/kitchen/spices/airplay4.4/modules/third_party/zlib/upstream/zlib.h"
extern int deflateReset (z_streamp strm);
# 606 "c:/users/plu/documents/petetrlu/kitchen/spices/airplay4.4/modules/third_party/zlib/upstream/zlib.h"
extern int deflateParams (z_streamp strm, int level, int strategy);
# 627 "c:/users/plu/documents/petetrlu/kitchen/spices/airplay4.4/modules/third_party/zlib/upstream/zlib.h"
extern int deflateTune (z_streamp strm, int good_length, int max_lazy, int nice_length, int max_chain);
# 644 "c:/users/plu/documents/petetrlu/kitchen/spices/airplay4.4/modules/third_party/zlib/upstream/zlib.h"
extern uLong deflateBound (z_streamp strm, uLong sourceLen);
# 653 "c:/users/plu/documents/petetrlu/kitchen/spices/airplay4.4/modules/third_party/zlib/upstream/zlib.h"
extern int deflatePrime (z_streamp strm, int bits, int value);
# 669 "c:/users/plu/documents/petetrlu/kitchen/spices/airplay4.4/modules/third_party/zlib/upstream/zlib.h"
extern int deflateSetHeader (z_streamp strm, gz_headerp head);
# 736 "c:/users/plu/documents/petetrlu/kitchen/spices/airplay4.4/modules/third_party/zlib/upstream/zlib.h"
extern int inflateSetDictionary (z_streamp strm, const Bytef *dictionary, uInt dictLength);
# 758 "c:/users/plu/documents/petetrlu/kitchen/spices/airplay4.4/modules/third_party/zlib/upstream/zlib.h"
extern int inflateSync (z_streamp strm);
# 773 "c:/users/plu/documents/petetrlu/kitchen/spices/airplay4.4/modules/third_party/zlib/upstream/zlib.h"
extern int inflateCopy (z_streamp dest, z_streamp source);
# 789 "c:/users/plu/documents/petetrlu/kitchen/spices/airplay4.4/modules/third_party/zlib/upstream/zlib.h"
extern int inflateReset (z_streamp strm);
# 799 "c:/users/plu/documents/petetrlu/kitchen/spices/airplay4.4/modules/third_party/zlib/upstream/zlib.h"
extern int inflatePrime (z_streamp strm, int bits, int value);
# 815 "c:/users/plu/documents/petetrlu/kitchen/spices/airplay4.4/modules/third_party/zlib/upstream/zlib.h"
extern int inflateGetHeader (z_streamp strm, gz_headerp head);
# 877 "c:/users/plu/documents/petetrlu/kitchen/spices/airplay4.4/modules/third_party/zlib/upstream/zlib.h"
typedef unsigned (*in_func) (void *, unsigned char * *);
typedef int (*out_func) (void *, unsigned char *, unsigned);

extern int inflateBack (z_streamp strm, in_func in, void *in_desc, out_func out, void *out_desc);
# 949 "c:/users/plu/documents/petetrlu/kitchen/spices/airplay4.4/modules/third_party/zlib/upstream/zlib.h"
extern int inflateBackEnd (z_streamp strm);







extern uLong zlibCompileFlags (void);
# 1009 "c:/users/plu/documents/petetrlu/kitchen/spices/airplay4.4/modules/third_party/zlib/upstream/zlib.h"
extern int compress (Bytef *dest, uLongf *destLen, const Bytef *source, uLong sourceLen);
# 1024 "c:/users/plu/documents/petetrlu/kitchen/spices/airplay4.4/modules/third_party/zlib/upstream/zlib.h"
extern int compress2 (Bytef *dest, uLongf *destLen, const Bytef *source, uLong sourceLen, int level);
# 1040 "c:/users/plu/documents/petetrlu/kitchen/spices/airplay4.4/modules/third_party/zlib/upstream/zlib.h"
extern uLong compressBound (uLong sourceLen);






extern int uncompress (Bytef *dest, uLongf *destLen, const Bytef *source, uLong sourceLen);
# 1066 "c:/users/plu/documents/petetrlu/kitchen/spices/airplay4.4/modules/third_party/zlib/upstream/zlib.h"
typedef voidp gzFile;

extern gzFile gzopen (const char *path, const char *mode);
# 1085 "c:/users/plu/documents/petetrlu/kitchen/spices/airplay4.4/modules/third_party/zlib/upstream/zlib.h"
extern gzFile gzdopen (int fd, const char *mode);
# 1098 "c:/users/plu/documents/petetrlu/kitchen/spices/airplay4.4/modules/third_party/zlib/upstream/zlib.h"
extern int gzsetparams (gzFile file, int level, int strategy);







extern int gzread (gzFile file, voidp buf, unsigned len);







extern int gzwrite (gzFile file, voidpc buf, unsigned len);







extern int gzprintf (gzFile file, const char *format, ...);
# 1135 "c:/users/plu/documents/petetrlu/kitchen/spices/airplay4.4/modules/third_party/zlib/upstream/zlib.h"
extern int gzputs (gzFile file, const char *s);






extern char * gzgets (gzFile file, char *buf, int len);
# 1151 "c:/users/plu/documents/petetrlu/kitchen/spices/airplay4.4/modules/third_party/zlib/upstream/zlib.h"
extern int gzputc (gzFile file, int c);





extern int gzgetc (gzFile file);





extern int gzungetc (int c, gzFile file);
# 1173 "c:/users/plu/documents/petetrlu/kitchen/spices/airplay4.4/modules/third_party/zlib/upstream/zlib.h"
extern int gzflush (gzFile file, int flush);
# 1183 "c:/users/plu/documents/petetrlu/kitchen/spices/airplay4.4/modules/third_party/zlib/upstream/zlib.h"
extern long gzseek (gzFile file, long offset, int whence);
# 1201 "c:/users/plu/documents/petetrlu/kitchen/spices/airplay4.4/modules/third_party/zlib/upstream/zlib.h"
extern int gzrewind (gzFile file);






extern long gztell (gzFile file);
# 1217 "c:/users/plu/documents/petetrlu/kitchen/spices/airplay4.4/modules/third_party/zlib/upstream/zlib.h"
extern int gzeof (gzFile file);





extern int gzdirect (gzFile file);





extern int gzclose (gzFile file);






extern const char * gzerror (gzFile file, int *errnum);
# 1245 "c:/users/plu/documents/petetrlu/kitchen/spices/airplay4.4/modules/third_party/zlib/upstream/zlib.h"
extern void gzclearerr (gzFile file);
# 1260 "c:/users/plu/documents/petetrlu/kitchen/spices/airplay4.4/modules/third_party/zlib/upstream/zlib.h"
extern uLong adler32 (uLong adler, const Bytef *buf, uInt len);
# 1276 "c:/users/plu/documents/petetrlu/kitchen/spices/airplay4.4/modules/third_party/zlib/upstream/zlib.h"
extern uLong adler32_combine (uLong adler1, uLong adler2, long len2);
# 1285 "c:/users/plu/documents/petetrlu/kitchen/spices/airplay4.4/modules/third_party/zlib/upstream/zlib.h"
extern uLong crc32 (uLong crc, const Bytef *buf, uInt len);
# 1301 "c:/users/plu/documents/petetrlu/kitchen/spices/airplay4.4/modules/third_party/zlib/upstream/zlib.h"
extern uLong crc32_combine (uLong crc1, uLong crc2, long len2);
# 1317 "c:/users/plu/documents/petetrlu/kitchen/spices/airplay4.4/modules/third_party/zlib/upstream/zlib.h"
extern int deflateInit_ (z_streamp strm, int level, const char *version, int stream_size);

extern int inflateInit_ (z_streamp strm, const char *version, int stream_size);

extern int deflateInit2_ (z_streamp strm, int level, int method, int windowBits, int memLevel, int strategy, const char *version, int stream_size);



extern int inflateInit2_ (z_streamp strm, int windowBits, const char *version, int stream_size);

extern int inflateBackInit_ (z_streamp strm, int windowBits, unsigned char *window, const char *version, int stream_size);
# 1349 "c:/users/plu/documents/petetrlu/kitchen/spices/airplay4.4/modules/third_party/zlib/upstream/zlib.h"
extern const char * zError (int);
extern int inflateSyncPoint (z_streamp z);
extern const uLongf * get_crc_table (void);
# 18 "c:/users/plu/documents/petetrlu/kitchen/spices/airplay4.4/modules/third_party/zlib/upstream/zutil.h" 2



# 1 "c:/users/plu/documents/petetrlu/kitchen/spices/airplay4.4/s3e/h/std/stddef.h" 1
# 15 "c:/users/plu/documents/petetrlu/kitchen/spices/airplay4.4/s3e/h/std/stddef.h"
typedef signed int ptrdiff_t;


    typedef unsigned int wint_t;
    typedef unsigned long int wctype_t;



    typedef unsigned short wchar_t;



typedef unsigned int size_t;
# 22 "c:/users/plu/documents/petetrlu/kitchen/spices/airplay4.4/modules/third_party/zlib/upstream/zutil.h" 2

# 1 "c:/users/plu/documents/petetrlu/kitchen/spices/airplay4.4/s3e/h/std/string.h" 1
# 15 "c:/users/plu/documents/petetrlu/kitchen/spices/airplay4.4/s3e/h/std/string.h"
# 1 "c:/users/plu/documents/petetrlu/kitchen/spices/airplay4.4/s3e/h/std/sys/types.h" 1
# 15 "c:/users/plu/documents/petetrlu/kitchen/spices/airplay4.4/s3e/h/std/sys/types.h"
# 1 "c:/users/plu/documents/petetrlu/kitchen/spices/airplay4.4/s3e/h/s3eTypes.h" 1
# 37 "c:/users/plu/documents/petetrlu/kitchen/spices/airplay4.4/s3e/h/s3eTypes.h"
typedef unsigned char s3e_uint8_t;
typedef signed char s3e_int8_t;
typedef unsigned short int s3e_uint16_t;
typedef signed short int s3e_int16_t;
typedef unsigned int s3e_uint32_t;
typedef signed int s3e_int32_t;
# 51 "c:/users/plu/documents/petetrlu/kitchen/spices/airplay4.4/s3e/h/s3eTypes.h"
  typedef signed long long s3e_int64_t;
  typedef unsigned long long s3e_uint64_t;
# 72 "c:/users/plu/documents/petetrlu/kitchen/spices/airplay4.4/s3e/h/s3eTypes.h"
typedef s3e_uint64_t uint64_t;
typedef s3e_int64_t int64_t;
typedef s3e_uint32_t uint32_t;
typedef s3e_int32_t int32_t;
typedef s3e_uint16_t uint16_t;
typedef s3e_int16_t int16_t;
typedef s3e_uint8_t uint8_t;
typedef s3e_int8_t int8_t;
# 93 "c:/users/plu/documents/petetrlu/kitchen/spices/airplay4.4/s3e/h/s3eTypes.h"
 typedef int intptr_t;
 typedef unsigned int uintptr_t;
# 104 "c:/users/plu/documents/petetrlu/kitchen/spices/airplay4.4/s3e/h/s3eTypes.h"
typedef unsigned int uint;
typedef unsigned short int ushort;
typedef unsigned long int ulong;
typedef unsigned char uint8;
typedef signed char int8;







typedef int64_t int64;
typedef uint64_t uint64;
# 126 "c:/users/plu/documents/petetrlu/kitchen/spices/airplay4.4/s3e/h/s3eTypes.h"
typedef unsigned int uint32;
# 135 "c:/users/plu/documents/petetrlu/kitchen/spices/airplay4.4/s3e/h/s3eTypes.h"
typedef signed int int32;





typedef uint16_t uint16;




typedef int16_t int16;
# 217 "c:/users/plu/documents/petetrlu/kitchen/spices/airplay4.4/s3e/h/s3eTypes.h"
typedef enum s3eResult
{
    S3E_RESULT_SUCCESS = 0,
    S3E_RESULT_ERROR = 1
} s3eResult;




typedef uint8 s3eBool;
# 237 "c:/users/plu/documents/petetrlu/kitchen/spices/airplay4.4/s3e/h/s3eTypes.h"
typedef unsigned short s3eWChar;
# 308 "c:/users/plu/documents/petetrlu/kitchen/spices/airplay4.4/s3e/h/s3eTypes.h"
typedef int32 (*s3eCallback) (void* systemData, void* userData);
# 16 "c:/users/plu/documents/petetrlu/kitchen/spices/airplay4.4/s3e/h/std/sys/types.h" 2

# 1 "c:/users/plu/documents/petetrlu/kitchen/spices/airplay4.4/s3e/h/std/stdint.h" 1
# 19 "c:/users/plu/documents/petetrlu/kitchen/spices/airplay4.4/s3e/h/std/stdint.h"
typedef signed char int_least8_t;
typedef short int_least16_t;
typedef long int_least32_t;
typedef int64_t int_least64_t;

typedef unsigned char uint_least8_t;
typedef unsigned short uint_least16_t;
typedef unsigned long uint_least32_t;
typedef uint64_t uint_least64_t;

typedef signed char int_fast8_t;
typedef short int_fast16_t;
typedef long int_fast32_t;
typedef int64_t int_fast64_t;

typedef unsigned char uint_fast8_t;
typedef unsigned short uint_fast16_t;
typedef unsigned long uint_fast32_t;
typedef uint64_t uint_fast64_t;

typedef int64_t intmax_t;
typedef uint64_t uintmax_t;
# 18 "c:/users/plu/documents/petetrlu/kitchen/spices/airplay4.4/s3e/h/std/sys/types.h" 2
# 1 "c:/users/plu/documents/petetrlu/kitchen/spices/airplay4.4/s3e/h/std/sys/select.h" 1
# 24 "c:/users/plu/documents/petetrlu/kitchen/spices/airplay4.4/s3e/h/std/sys/select.h"
struct timeval;

typedef struct fd_set
{
    char fds_bits[256/8];
} fd_set;
# 39 "c:/users/plu/documents/petetrlu/kitchen/spices/airplay4.4/s3e/h/std/sys/select.h"


int select(int nfds, fd_set *readfds, fd_set *writefds, fd_set *exceptfds, struct timeval *timeout);


# 19 "c:/users/plu/documents/petetrlu/kitchen/spices/airplay4.4/s3e/h/std/sys/types.h" 2



typedef long off_t;

typedef int64_t off64_t;
# 33 "c:/users/plu/documents/petetrlu/kitchen/spices/airplay4.4/s3e/h/std/sys/types.h"
typedef uint u_int;
typedef uint8_t u_int8_t;
typedef uint16_t u_int16_t;
typedef uint32_t u_int32_t;
typedef uint64_t u_int64_t;

typedef unsigned short u_short;
typedef unsigned long u_long;
typedef unsigned char u_char;

typedef int ssize_t;
typedef int pid_t;
typedef short uid_t;
typedef short gid_t;
typedef int idtype_t;
typedef int id_t;
typedef uint32 mode_t;
typedef short dev_t;
typedef short ino_t;
typedef int key_t;
typedef void* caddr_t;
# 16 "c:/users/plu/documents/petetrlu/kitchen/spices/airplay4.4/s3e/h/std/string.h" 2



void *memcpy(void *dest, const void *src, size_t n);
void *memset(void *s, int c, size_t n);
int memcmp(const void *s1, const void *s2, size_t n);
void *memmove(void *dest, const void *src, size_t n);
void *memchr(const void *s, int c, size_t n);
void *memrchr(const void *s, int c, size_t n);







int strcmp(const char *s1, const char *s2);
int strncmp(const char *s1, const char *s2, size_t n);
char *strsep(char **stringp, const char *delim);
char *strcpy(char *dest, const char *src);
char *strncpy(char *dest, const char *src, size_t n);
char *strchr(const char *s, int c);
char *strstr(const char *haystack, const char *needle);
char *strrchr(const char *s, int c);
char *strdup(const char *s);
char *strtok(char *str, const char *delim);
char *strtok_r(char *str, const char *delim, char **saveptr);
char *strcat(char *dest, const char *src);
char *strncat(char *dest, const char *src, size_t n);
size_t strlen(const char *s);
size_t strnlen(const char *s, size_t n);
int strcasecmp(const char *s1, const char *s2);
int strncasecmp(const char *s1, const char *s2, size_t n);
size_t strspn(const char *s, const char *accept);
size_t strcspn(const char *s, const char *reject);
char *strpbrk(const char *s, const char *accept);
int strcoll(const char *s1, const char *s2);
char *strerror(int errnum);
size_t strxfrm(char *dest, const char *src, size_t n);

int strerror_r(int errnum, char *buf, size_t buflen);





size_t strlcpy(char* dest, const char* src, size_t len);
size_t strlcat(char* dest, const char* src, size_t len);


# 24 "c:/users/plu/documents/petetrlu/kitchen/spices/airplay4.4/modules/third_party/zlib/upstream/zutil.h" 2
# 1 "c:/users/plu/documents/petetrlu/kitchen/spices/airplay4.4/s3e/h/std/stdlib.h" 1
# 16 "c:/users/plu/documents/petetrlu/kitchen/spices/airplay4.4/s3e/h/std/stdlib.h"
# 1 "c:/users/plu/documents/petetrlu/kitchen/spices/airplay4.4/s3e/h/std/malloc.h" 1
# 16 "c:/users/plu/documents/petetrlu/kitchen/spices/airplay4.4/s3e/h/std/malloc.h"
# 1 "c:/users/plu/documents/petetrlu/kitchen/spices/airplay4.4/s3e/h/std/alloca.h" 1
# 17 "c:/users/plu/documents/petetrlu/kitchen/spices/airplay4.4/s3e/h/std/alloca.h"



    extern void *alloca(size_t __size);
# 35 "c:/users/plu/documents/petetrlu/kitchen/spices/airplay4.4/s3e/h/std/alloca.h"

# 17 "c:/users/plu/documents/petetrlu/kitchen/spices/airplay4.4/s3e/h/std/malloc.h" 2



void *calloc(size_t nmemb, size_t size);
void *malloc(size_t size);
void free(void *ptr);
void *realloc(void *ptr, size_t size);


# 17 "c:/users/plu/documents/petetrlu/kitchen/spices/airplay4.4/s3e/h/std/stdlib.h" 2
# 28 "c:/users/plu/documents/petetrlu/kitchen/spices/airplay4.4/s3e/h/std/stdlib.h"


double atof(const char* string);
int atoi(const char *nptr);
long atol(const char *nptr);
int64_t atoll(const char *nptr);
int64_t atoq(const char *nptr);
int abs(int j);
long int labs(long int j);
int64_t llabs(int64_t j);
void qsort(void *base, size_t nmemb, size_t size, int(*compar)(const void *, const void *));
void *bsearch(const void *key, const void *base, size_t nmemb, size_t size, int (*compar)(const void *, const void *));
void abort(void);
int putenv(char *string);
char *getenv(const char *name);
int setenv(const char *name, const char *value, int overwrite);
int unsetenv(const char *name);
void exit(int status) __attribute__ ((noreturn));
void _exit(int status) __attribute__ ((noreturn));
void _Exit(int status) __attribute__ ((noreturn));
unsigned long int strtoul(const char *nptr, char **endptr, int base);
uint64_t strtoull(const char *nptr, char **endptr, int base);
long int strtol(const char *nptr, char **endptr, int base);
int64_t strtoll(const char *nptr, char **endptr, int base);
double strtod(const char *nptr, char **endptr);
float strtof(const char *nptr, char **endptr);
long double strtold(const char *nptr, char **endptr);
int atexit(void (*function)(void));
int system(const char *command);
int posix_memalign(void **memptr, size_t alignment, size_t size);
char *mktemp(char *templ);
int mkstemp(char *templ);



int rand(void);
void srand(unsigned int seed);

long int random(void);
void srandom(unsigned int seed);

size_t __ctype_get_mb_cur_max();


int mblen(const char *s, size_t n);
int mbtowc(wchar_t *pwc, const char *s, size_t n);
int wctomb(char *s, wchar_t wc);
size_t mbstowcs(wchar_t *dest, const char *src, size_t n);
size_t wcstombs(char *dest, const wchar_t *src, size_t n);

typedef struct
{
    int quot;
    int rem;
} div_t;

typedef struct
{
    int quot;
    int rem;
} ldiv_t;

typedef struct
{
    int64_t quot;
    int64_t rem;
} lldiv_t;

div_t div(int numerator, int denominator);
ldiv_t ldiv(long numerator, long denominator);
lldiv_t lldiv(int64_t numerator, int64_t denominator);
# 117 "c:/users/plu/documents/petetrlu/kitchen/spices/airplay4.4/s3e/h/std/stdlib.h"

# 25 "c:/users/plu/documents/petetrlu/kitchen/spices/airplay4.4/modules/third_party/zlib/upstream/zutil.h" 2
# 38 "c:/users/plu/documents/petetrlu/kitchen/spices/airplay4.4/modules/third_party/zlib/upstream/zutil.h"
# 1 "c:/users/plu/documents/petetrlu/kitchen/spices/airplay4.4/s3e/h/std/errno.h" 1
# 17 "c:/users/plu/documents/petetrlu/kitchen/spices/airplay4.4/s3e/h/std/errno.h"

# 31 "c:/users/plu/documents/petetrlu/kitchen/spices/airplay4.4/s3e/h/std/errno.h"
        extern int *__errno(void);
# 41 "c:/users/plu/documents/petetrlu/kitchen/spices/airplay4.4/s3e/h/std/errno.h"
char *strerror(int errnum);


# 39 "c:/users/plu/documents/petetrlu/kitchen/spices/airplay4.4/modules/third_party/zlib/upstream/zutil.h" 2
# 47 "c:/users/plu/documents/petetrlu/kitchen/spices/airplay4.4/modules/third_party/zlib/upstream/zutil.h"
typedef unsigned char uch;
typedef uch uchf;
typedef unsigned short ush;
typedef ush ushf;
typedef unsigned long ulg;

extern const char * const z_errmsg[10];
# 261 "c:/users/plu/documents/petetrlu/kitchen/spices/airplay4.4/modules/third_party/zlib/upstream/zutil.h"
voidpf zcalloc (voidpf opaque, unsigned items, unsigned size);
void zcfree (voidpf opaque, voidpf ptr);
# 84 "c:/users/plu/documents/petetrlu/kitchen/spices/airplay4.4/modules/third_party/zlib/upstream/inflate.c" 2
# 1 "c:/users/plu/documents/petetrlu/kitchen/spices/airplay4.4/modules/third_party/zlib/upstream/inftrees.h" 1
# 24 "c:/users/plu/documents/petetrlu/kitchen/spices/airplay4.4/modules/third_party/zlib/upstream/inftrees.h"
typedef struct {
    unsigned char op;
    unsigned char bits;
    unsigned short val;
} code;
# 47 "c:/users/plu/documents/petetrlu/kitchen/spices/airplay4.4/modules/third_party/zlib/upstream/inftrees.h"
typedef enum {
    CODES,
    LENS,
    DISTS
} codetype;

extern int inflate_table (codetype type, unsigned short *lens, unsigned codes, code * *table, unsigned *bits, unsigned short *work);
# 85 "c:/users/plu/documents/petetrlu/kitchen/spices/airplay4.4/modules/third_party/zlib/upstream/inflate.c" 2
# 1 "c:/users/plu/documents/petetrlu/kitchen/spices/airplay4.4/modules/third_party/zlib/upstream/inflate.h" 1
# 20 "c:/users/plu/documents/petetrlu/kitchen/spices/airplay4.4/modules/third_party/zlib/upstream/inflate.h"
typedef enum {
    HEAD,
    FLAGS,
    TIME,
    OS,
    EXLEN,
    EXTRA,
    NAME,
    COMMENT,
    HCRC,
    DICTID,
    DICT,
        TYPE,
        TYPEDO,
        STORED,
        COPY,
        TABLE,
        LENLENS,
        CODELENS,
            LEN,
            LENEXT,
            DIST,
            DISTEXT,
            MATCH,
            LIT,
    CHECK,
    LENGTH,
    DONE,
    BAD,
    MEM,
    SYNC
} inflate_mode;
# 77 "c:/users/plu/documents/petetrlu/kitchen/spices/airplay4.4/modules/third_party/zlib/upstream/inflate.h"
struct inflate_state {
    inflate_mode mode;
    int last;
    int wrap;
    int havedict;
    int flags;
    unsigned dmax;
    unsigned long check;
    unsigned long total;
    gz_headerp head;

    unsigned wbits;
    unsigned wsize;
    unsigned whave;
    unsigned write;
    unsigned char *window;

    unsigned long hold;
    unsigned bits;

    unsigned length;
    unsigned offset;

    unsigned extra;

    code const *lencode;
    code const *distcode;
    unsigned lenbits;
    unsigned distbits;

    unsigned ncode;
    unsigned nlen;
    unsigned ndist;
    unsigned have;
    code *next;
    unsigned short lens[320];
    unsigned short work[288];
    code codes[2048];
};
# 86 "c:/users/plu/documents/petetrlu/kitchen/spices/airplay4.4/modules/third_party/zlib/upstream/inflate.c" 2
# 1 "c:/users/plu/documents/petetrlu/kitchen/spices/airplay4.4/modules/third_party/zlib/upstream/inffast.h" 1
# 11 "c:/users/plu/documents/petetrlu/kitchen/spices/airplay4.4/modules/third_party/zlib/upstream/inffast.h"
void inflate_fast (z_streamp strm, unsigned start);
# 87 "c:/users/plu/documents/petetrlu/kitchen/spices/airplay4.4/modules/third_party/zlib/upstream/inflate.c" 2
# 95 "c:/users/plu/documents/petetrlu/kitchen/spices/airplay4.4/modules/third_party/zlib/upstream/inflate.c"
static void fixedtables (struct inflate_state *state);
static int updatewindow (z_streamp strm, unsigned out);



static unsigned syncsearch (unsigned *have, unsigned char *buf, unsigned len);


int inflateReset(strm)
z_streamp strm;
{
    struct inflate_state *state;

    if (strm == 0 || strm->state == 0) return (-2);
    state = (struct inflate_state *)strm->state;
    strm->total_in = strm->total_out = state->total = 0;
    strm->msg = 0;
    strm->adler = 1;
    state->mode = HEAD;
    state->last = 0;
    state->havedict = 0;
    state->dmax = 32768U;
    state->head = 0;
    state->wsize = 0;
    state->whave = 0;
    state->write = 0;
    state->hold = 0;
    state->bits = 0;
    state->lencode = state->distcode = state->next = state->codes;
    ;
    return 0;
}

int inflatePrime(strm, bits, value)
z_streamp strm;
int bits;
int value;
{
    struct inflate_state *state;

    if (strm == 0 || strm->state == 0) return (-2);
    state = (struct inflate_state *)strm->state;
    if (bits > 16 || state->bits + bits > 32) return (-2);
    value &= (1L << bits) - 1;
    state->hold += value << state->bits;
    state->bits += bits;
    return 0;
}

int inflateInit2_(strm, windowBits, version, stream_size)
z_streamp strm;
int windowBits;
const char *version;
int stream_size;
{
    struct inflate_state *state;

    if (version == 0 || version[0] != "1.2.3"[0] ||
        stream_size != (int)(sizeof(z_stream)))
        return (-6);
    if (strm == 0) return (-2);
    strm->msg = 0;
    if (strm->zalloc == (alloc_func)0) {
        strm->zalloc = zcalloc;
        strm->opaque = (voidpf)0;
    }
    if (strm->zfree == (free_func)0) strm->zfree = zcfree;
    state = (struct inflate_state *)
            (*((strm)->zalloc))((strm)->opaque, (1), (sizeof(struct inflate_state)));
    if (state == 0) return (-4);
    ;
    strm->state = (struct internal_state *)state;
    if (windowBits < 0) {
        state->wrap = 0;
        windowBits = -windowBits;
    }
    else {
        state->wrap = (windowBits >> 4) + 1;

        if (windowBits < 48) windowBits &= 15;

    }
    if (windowBits < 8 || windowBits > 15) {
        (*((strm)->zfree))((strm)->opaque, (voidpf)(state));
        strm->state = 0;
        return (-2);
    }
    state->wbits = (unsigned)windowBits;
    state->window = 0;
    return inflateReset(strm);
}

int inflateInit_(strm, version, stream_size)
z_streamp strm;
const char *version;
int stream_size;
{
    return inflateInit2_(strm, 15, version, stream_size);
}
# 205 "c:/users/plu/documents/petetrlu/kitchen/spices/airplay4.4/modules/third_party/zlib/upstream/inflate.c"
static void fixedtables(state)
struct inflate_state *state;
{
# 240 "c:/users/plu/documents/petetrlu/kitchen/spices/airplay4.4/modules/third_party/zlib/upstream/inflate.c"
# 1 "c:/users/plu/documents/petetrlu/kitchen/spices/airplay4.4/modules/third_party/zlib/upstream/inffixed.h" 1
# 10 "c:/users/plu/documents/petetrlu/kitchen/spices/airplay4.4/modules/third_party/zlib/upstream/inffixed.h"
    static const code lenfix[512] = {
        {96,7,0},{0,8,80},{0,8,16},{20,8,115},{18,7,31},{0,8,112},{0,8,48},
        {0,9,192},{16,7,10},{0,8,96},{0,8,32},{0,9,160},{0,8,0},{0,8,128},
        {0,8,64},{0,9,224},{16,7,6},{0,8,88},{0,8,24},{0,9,144},{19,7,59},
        {0,8,120},{0,8,56},{0,9,208},{17,7,17},{0,8,104},{0,8,40},{0,9,176},
        {0,8,8},{0,8,136},{0,8,72},{0,9,240},{16,7,4},{0,8,84},{0,8,20},
        {21,8,227},{19,7,43},{0,8,116},{0,8,52},{0,9,200},{17,7,13},{0,8,100},
        {0,8,36},{0,9,168},{0,8,4},{0,8,132},{0,8,68},{0,9,232},{16,7,8},
        {0,8,92},{0,8,28},{0,9,152},{20,7,83},{0,8,124},{0,8,60},{0,9,216},
        {18,7,23},{0,8,108},{0,8,44},{0,9,184},{0,8,12},{0,8,140},{0,8,76},
        {0,9,248},{16,7,3},{0,8,82},{0,8,18},{21,8,163},{19,7,35},{0,8,114},
        {0,8,50},{0,9,196},{17,7,11},{0,8,98},{0,8,34},{0,9,164},{0,8,2},
        {0,8,130},{0,8,66},{0,9,228},{16,7,7},{0,8,90},{0,8,26},{0,9,148},
        {20,7,67},{0,8,122},{0,8,58},{0,9,212},{18,7,19},{0,8,106},{0,8,42},
        {0,9,180},{0,8,10},{0,8,138},{0,8,74},{0,9,244},{16,7,5},{0,8,86},
        {0,8,22},{64,8,0},{19,7,51},{0,8,118},{0,8,54},{0,9,204},{17,7,15},
        {0,8,102},{0,8,38},{0,9,172},{0,8,6},{0,8,134},{0,8,70},{0,9,236},
        {16,7,9},{0,8,94},{0,8,30},{0,9,156},{20,7,99},{0,8,126},{0,8,62},
        {0,9,220},{18,7,27},{0,8,110},{0,8,46},{0,9,188},{0,8,14},{0,8,142},
        {0,8,78},{0,9,252},{96,7,0},{0,8,81},{0,8,17},{21,8,131},{18,7,31},
        {0,8,113},{0,8,49},{0,9,194},{16,7,10},{0,8,97},{0,8,33},{0,9,162},
        {0,8,1},{0,8,129},{0,8,65},{0,9,226},{16,7,6},{0,8,89},{0,8,25},
        {0,9,146},{19,7,59},{0,8,121},{0,8,57},{0,9,210},{17,7,17},{0,8,105},
        {0,8,41},{0,9,178},{0,8,9},{0,8,137},{0,8,73},{0,9,242},{16,7,4},
        {0,8,85},{0,8,21},{16,8,258},{19,7,43},{0,8,117},{0,8,53},{0,9,202},
        {17,7,13},{0,8,101},{0,8,37},{0,9,170},{0,8,5},{0,8,133},{0,8,69},
        {0,9,234},{16,7,8},{0,8,93},{0,8,29},{0,9,154},{20,7,83},{0,8,125},
        {0,8,61},{0,9,218},{18,7,23},{0,8,109},{0,8,45},{0,9,186},{0,8,13},
        {0,8,141},{0,8,77},{0,9,250},{16,7,3},{0,8,83},{0,8,19},{21,8,195},
        {19,7,35},{0,8,115},{0,8,51},{0,9,198},{17,7,11},{0,8,99},{0,8,35},
        {0,9,166},{0,8,3},{0,8,131},{0,8,67},{0,9,230},{16,7,7},{0,8,91},
        {0,8,27},{0,9,150},{20,7,67},{0,8,123},{0,8,59},{0,9,214},{18,7,19},
        {0,8,107},{0,8,43},{0,9,182},{0,8,11},{0,8,139},{0,8,75},{0,9,246},
        {16,7,5},{0,8,87},{0,8,23},{64,8,0},{19,7,51},{0,8,119},{0,8,55},
        {0,9,206},{17,7,15},{0,8,103},{0,8,39},{0,9,174},{0,8,7},{0,8,135},
        {0,8,71},{0,9,238},{16,7,9},{0,8,95},{0,8,31},{0,9,158},{20,7,99},
        {0,8,127},{0,8,63},{0,9,222},{18,7,27},{0,8,111},{0,8,47},{0,9,190},
        {0,8,15},{0,8,143},{0,8,79},{0,9,254},{96,7,0},{0,8,80},{0,8,16},
        {20,8,115},{18,7,31},{0,8,112},{0,8,48},{0,9,193},{16,7,10},{0,8,96},
        {0,8,32},{0,9,161},{0,8,0},{0,8,128},{0,8,64},{0,9,225},{16,7,6},
        {0,8,88},{0,8,24},{0,9,145},{19,7,59},{0,8,120},{0,8,56},{0,9,209},
        {17,7,17},{0,8,104},{0,8,40},{0,9,177},{0,8,8},{0,8,136},{0,8,72},
        {0,9,241},{16,7,4},{0,8,84},{0,8,20},{21,8,227},{19,7,43},{0,8,116},
        {0,8,52},{0,9,201},{17,7,13},{0,8,100},{0,8,36},{0,9,169},{0,8,4},
        {0,8,132},{0,8,68},{0,9,233},{16,7,8},{0,8,92},{0,8,28},{0,9,153},
        {20,7,83},{0,8,124},{0,8,60},{0,9,217},{18,7,23},{0,8,108},{0,8,44},
        {0,9,185},{0,8,12},{0,8,140},{0,8,76},{0,9,249},{16,7,3},{0,8,82},
        {0,8,18},{21,8,163},{19,7,35},{0,8,114},{0,8,50},{0,9,197},{17,7,11},
        {0,8,98},{0,8,34},{0,9,165},{0,8,2},{0,8,130},{0,8,66},{0,9,229},
        {16,7,7},{0,8,90},{0,8,26},{0,9,149},{20,7,67},{0,8,122},{0,8,58},
        {0,9,213},{18,7,19},{0,8,106},{0,8,42},{0,9,181},{0,8,10},{0,8,138},
        {0,8,74},{0,9,245},{16,7,5},{0,8,86},{0,8,22},{64,8,0},{19,7,51},
        {0,8,118},{0,8,54},{0,9,205},{17,7,15},{0,8,102},{0,8,38},{0,9,173},
        {0,8,6},{0,8,134},{0,8,70},{0,9,237},{16,7,9},{0,8,94},{0,8,30},
        {0,9,157},{20,7,99},{0,8,126},{0,8,62},{0,9,221},{18,7,27},{0,8,110},
        {0,8,46},{0,9,189},{0,8,14},{0,8,142},{0,8,78},{0,9,253},{96,7,0},
        {0,8,81},{0,8,17},{21,8,131},{18,7,31},{0,8,113},{0,8,49},{0,9,195},
        {16,7,10},{0,8,97},{0,8,33},{0,9,163},{0,8,1},{0,8,129},{0,8,65},
        {0,9,227},{16,7,6},{0,8,89},{0,8,25},{0,9,147},{19,7,59},{0,8,121},
        {0,8,57},{0,9,211},{17,7,17},{0,8,105},{0,8,41},{0,9,179},{0,8,9},
        {0,8,137},{0,8,73},{0,9,243},{16,7,4},{0,8,85},{0,8,21},{16,8,258},
        {19,7,43},{0,8,117},{0,8,53},{0,9,203},{17,7,13},{0,8,101},{0,8,37},
        {0,9,171},{0,8,5},{0,8,133},{0,8,69},{0,9,235},{16,7,8},{0,8,93},
        {0,8,29},{0,9,155},{20,7,83},{0,8,125},{0,8,61},{0,9,219},{18,7,23},
        {0,8,109},{0,8,45},{0,9,187},{0,8,13},{0,8,141},{0,8,77},{0,9,251},
        {16,7,3},{0,8,83},{0,8,19},{21,8,195},{19,7,35},{0,8,115},{0,8,51},
        {0,9,199},{17,7,11},{0,8,99},{0,8,35},{0,9,167},{0,8,3},{0,8,131},
        {0,8,67},{0,9,231},{16,7,7},{0,8,91},{0,8,27},{0,9,151},{20,7,67},
        {0,8,123},{0,8,59},{0,9,215},{18,7,19},{0,8,107},{0,8,43},{0,9,183},
        {0,8,11},{0,8,139},{0,8,75},{0,9,247},{16,7,5},{0,8,87},{0,8,23},
        {64,8,0},{19,7,51},{0,8,119},{0,8,55},{0,9,207},{17,7,15},{0,8,103},
        {0,8,39},{0,9,175},{0,8,7},{0,8,135},{0,8,71},{0,9,239},{16,7,9},
        {0,8,95},{0,8,31},{0,9,159},{20,7,99},{0,8,127},{0,8,63},{0,9,223},
        {18,7,27},{0,8,111},{0,8,47},{0,9,191},{0,8,15},{0,8,143},{0,8,79},
        {0,9,255}
    };

    static const code distfix[32] = {
        {16,5,1},{23,5,257},{19,5,17},{27,5,4097},{17,5,5},{25,5,1025},
        {21,5,65},{29,5,16385},{16,5,3},{24,5,513},{20,5,33},{28,5,8193},
        {18,5,9},{26,5,2049},{22,5,129},{64,5,0},{16,5,2},{23,5,385},
        {19,5,25},{27,5,6145},{17,5,7},{25,5,1537},{21,5,97},{29,5,24577},
        {16,5,4},{24,5,769},{20,5,49},{28,5,12289},{18,5,13},{26,5,3073},
        {22,5,193},{64,5,0}
    };
# 241 "c:/users/plu/documents/petetrlu/kitchen/spices/airplay4.4/modules/third_party/zlib/upstream/inflate.c" 2

    state->lencode = lenfix;
    state->lenbits = 9;
    state->distcode = distfix;
    state->distbits = 5;
}
# 323 "c:/users/plu/documents/petetrlu/kitchen/spices/airplay4.4/modules/third_party/zlib/upstream/inflate.c"
static int updatewindow(strm, out)
z_streamp strm;
unsigned out;
{
    struct inflate_state *state;
    unsigned copy, dist;

    state = (struct inflate_state *)strm->state;


    if (state->window == 0) {
        state->window = (unsigned char *)
                        (*((strm)->zalloc))((strm)->opaque, (1U << state->wbits), (sizeof(unsigned char)));

        if (state->window == 0) return 1;
    }


    if (state->wsize == 0) {
        state->wsize = 1U << state->wbits;
        state->write = 0;
        state->whave = 0;
    }


    copy = out - strm->avail_out;
    if (copy >= state->wsize) {
        memcpy(state->window, strm->next_out - state->wsize, state->wsize);
        state->write = 0;
        state->whave = state->wsize;
    }
    else {
        dist = state->wsize - state->write;
        if (dist > copy) dist = copy;
        memcpy(state->window + state->write, strm->next_out - copy, dist);
        copy -= dist;
        if (copy) {
            memcpy(state->window, strm->next_out - copy, copy);
            state->write = copy;
            state->whave = state->wsize;
        }
        else {
            state->write += dist;
            if (state->write == state->wsize) state->write = 0;
            if (state->whave < state->wsize) state->whave += dist;
        }
    }
    return 0;
}
# 554 "c:/users/plu/documents/petetrlu/kitchen/spices/airplay4.4/modules/third_party/zlib/upstream/inflate.c"
int inflate(strm, flush)
z_streamp strm;
int flush;
{
    struct inflate_state *state;
    unsigned char *next;
    unsigned char *put;
    unsigned have, left;
    unsigned long hold;
    unsigned bits;
    unsigned in, out;
    unsigned copy;
    unsigned char *from;
    code this;
    code last;
    unsigned len;
    int ret;

    unsigned char hbuf[4];

    static const unsigned short order[19] =
        {16, 17, 18, 0, 8, 7, 9, 6, 10, 5, 11, 4, 12, 3, 13, 2, 14, 1, 15};

    if (strm == 0 || strm->state == 0 || strm->next_out == 0 ||
        (strm->next_in == 0 && strm->avail_in != 0))
        return (-2);

    state = (struct inflate_state *)strm->state;
    if (state->mode == TYPE) state->mode = TYPEDO;
    do { put = strm->next_out; left = strm->avail_out; next = strm->next_in; have = strm->avail_in; hold = state->hold; bits = state->bits; } while (0);
    in = have;
    out = left;
    ret = 0;
    for (;;)
        switch (state->mode) {
        case HEAD:
            if (state->wrap == 0) {
                state->mode = TYPEDO;
                break;
            }
            do { while (bits < (unsigned)(16)) do { if (have == 0) goto inf_leave; have--; hold += (unsigned long)(*next++) << bits; bits += 8; } while (0); } while (0);

            if ((state->wrap & 2) && hold == 0x8b1f) {
                state->check = crc32(0L, 0, 0);
                do { hbuf[0] = (unsigned char)(hold); hbuf[1] = (unsigned char)((hold) >> 8); state->check = crc32(state->check, hbuf, 2); } while (0);
                do { hold = 0; bits = 0; } while (0);
                state->mode = FLAGS;
                break;
            }
            state->flags = 0;
            if (state->head != 0)
                state->head->done = -1;
            if (!(state->wrap & 1) ||



                ((((unsigned)hold & ((1U << (8)) - 1)) << 8) + (hold >> 8)) % 31) {
                strm->msg = (char *)"incorrect header check";
                state->mode = BAD;
                break;
            }
            if (((unsigned)hold & ((1U << (4)) - 1)) != 8) {
                strm->msg = (char *)"unknown compression method";
                state->mode = BAD;
                break;
            }
            do { hold >>= (4); bits -= (unsigned)(4); } while (0);
            len = ((unsigned)hold & ((1U << (4)) - 1)) + 8;
            if (len > state->wbits) {
                strm->msg = (char *)"invalid window size";
                state->mode = BAD;
                break;
            }
            state->dmax = 1U << len;
            ;
            strm->adler = state->check = adler32(0L, 0, 0);
            state->mode = hold & 0x200 ? DICTID : TYPE;
            do { hold = 0; bits = 0; } while (0);
            break;

        case FLAGS:
            do { while (bits < (unsigned)(16)) do { if (have == 0) goto inf_leave; have--; hold += (unsigned long)(*next++) << bits; bits += 8; } while (0); } while (0);
            state->flags = (int)(hold);
            if ((state->flags & 0xff) != 8) {
                strm->msg = (char *)"unknown compression method";
                state->mode = BAD;
                break;
            }
            if (state->flags & 0xe000) {
                strm->msg = (char *)"unknown header flags set";
                state->mode = BAD;
                break;
            }
            if (state->head != 0)
                state->head->text = (int)((hold >> 8) & 1);
            if (state->flags & 0x0200) do { hbuf[0] = (unsigned char)(hold); hbuf[1] = (unsigned char)((hold) >> 8); state->check = crc32(state->check, hbuf, 2); } while (0);
            do { hold = 0; bits = 0; } while (0);
            state->mode = TIME;
        case TIME:
            do { while (bits < (unsigned)(32)) do { if (have == 0) goto inf_leave; have--; hold += (unsigned long)(*next++) << bits; bits += 8; } while (0); } while (0);
            if (state->head != 0)
                state->head->time = hold;
            if (state->flags & 0x0200) do { hbuf[0] = (unsigned char)(hold); hbuf[1] = (unsigned char)((hold) >> 8); hbuf[2] = (unsigned char)((hold) >> 16); hbuf[3] = (unsigned char)((hold) >> 24); state->check = crc32(state->check, hbuf, 4); } while (0);
            do { hold = 0; bits = 0; } while (0);
            state->mode = OS;
        case OS:
            do { while (bits < (unsigned)(16)) do { if (have == 0) goto inf_leave; have--; hold += (unsigned long)(*next++) << bits; bits += 8; } while (0); } while (0);
            if (state->head != 0) {
                state->head->xflags = (int)(hold & 0xff);
                state->head->os = (int)(hold >> 8);
            }
            if (state->flags & 0x0200) do { hbuf[0] = (unsigned char)(hold); hbuf[1] = (unsigned char)((hold) >> 8); state->check = crc32(state->check, hbuf, 2); } while (0);
            do { hold = 0; bits = 0; } while (0);
            state->mode = EXLEN;
        case EXLEN:
            if (state->flags & 0x0400) {
                do { while (bits < (unsigned)(16)) do { if (have == 0) goto inf_leave; have--; hold += (unsigned long)(*next++) << bits; bits += 8; } while (0); } while (0);
                state->length = (unsigned)(hold);
                if (state->head != 0)
                    state->head->extra_len = (unsigned)hold;
                if (state->flags & 0x0200) do { hbuf[0] = (unsigned char)(hold); hbuf[1] = (unsigned char)((hold) >> 8); state->check = crc32(state->check, hbuf, 2); } while (0);
                do { hold = 0; bits = 0; } while (0);
            }
            else if (state->head != 0)
                state->head->extra = 0;
            state->mode = EXTRA;
        case EXTRA:
            if (state->flags & 0x0400) {
                copy = state->length;
                if (copy > have) copy = have;
                if (copy) {
                    if (state->head != 0 &&
                        state->head->extra != 0) {
                        len = state->head->extra_len - state->length;
                        memcpy(state->head->extra + len, next,
                                len + copy > state->head->extra_max ?
                                state->head->extra_max - len : copy);
                    }
                    if (state->flags & 0x0200)
                        state->check = crc32(state->check, next, copy);
                    have -= copy;
                    next += copy;
                    state->length -= copy;
                }
                if (state->length) goto inf_leave;
            }
            state->length = 0;
            state->mode = NAME;
        case NAME:
            if (state->flags & 0x0800) {
                if (have == 0) goto inf_leave;
                copy = 0;
                do {
                    len = (unsigned)(next[copy++]);
                    if (state->head != 0 &&
                            state->head->name != 0 &&
                            state->length < state->head->name_max)
                        state->head->name[state->length++] = len;
                } while (len && copy < have);
                if (state->flags & 0x0200)
                    state->check = crc32(state->check, next, copy);
                have -= copy;
                next += copy;
                if (len) goto inf_leave;
            }
            else if (state->head != 0)
                state->head->name = 0;
            state->length = 0;
            state->mode = COMMENT;
        case COMMENT:
            if (state->flags & 0x1000) {
                if (have == 0) goto inf_leave;
                copy = 0;
                do {
                    len = (unsigned)(next[copy++]);
                    if (state->head != 0 &&
                            state->head->comment != 0 &&
                            state->length < state->head->comm_max)
                        state->head->comment[state->length++] = len;
                } while (len && copy < have);
                if (state->flags & 0x0200)
                    state->check = crc32(state->check, next, copy);
                have -= copy;
                next += copy;
                if (len) goto inf_leave;
            }
            else if (state->head != 0)
                state->head->comment = 0;
            state->mode = HCRC;
        case HCRC:
            if (state->flags & 0x0200) {
                do { while (bits < (unsigned)(16)) do { if (have == 0) goto inf_leave; have--; hold += (unsigned long)(*next++) << bits; bits += 8; } while (0); } while (0);
                if (hold != (state->check & 0xffff)) {
                    strm->msg = (char *)"header crc mismatch";
                    state->mode = BAD;
                    break;
                }
                do { hold = 0; bits = 0; } while (0);
            }
            if (state->head != 0) {
                state->head->hcrc = (int)((state->flags >> 9) & 1);
                state->head->done = 1;
            }
            strm->adler = state->check = crc32(0L, 0, 0);
            state->mode = TYPE;
            break;

        case DICTID:
            do { while (bits < (unsigned)(32)) do { if (have == 0) goto inf_leave; have--; hold += (unsigned long)(*next++) << bits; bits += 8; } while (0); } while (0);
            strm->adler = state->check = ((((hold) >> 24) & 0xff) + (((hold) >> 8) & 0xff00) + (((hold) & 0xff00) << 8) + (((hold) & 0xff) << 24));
            do { hold = 0; bits = 0; } while (0);
            state->mode = DICT;
        case DICT:
            if (state->havedict == 0) {
                do { strm->next_out = put; strm->avail_out = left; strm->next_in = next; strm->avail_in = have; state->hold = hold; state->bits = bits; } while (0);
                return 2;
            }
            strm->adler = state->check = adler32(0L, 0, 0);
            state->mode = TYPE;
        case TYPE:
            if (flush == 5) goto inf_leave;
        case TYPEDO:
            if (state->last) {
                do { hold >>= bits & 7; bits -= bits & 7; } while (0);
                state->mode = CHECK;
                break;
            }
            do { while (bits < (unsigned)(3)) do { if (have == 0) goto inf_leave; have--; hold += (unsigned long)(*next++) << bits; bits += 8; } while (0); } while (0);
            state->last = ((unsigned)hold & ((1U << (1)) - 1));
            do { hold >>= (1); bits -= (unsigned)(1); } while (0);
            switch (((unsigned)hold & ((1U << (2)) - 1))) {
            case 0:
                ;

                state->mode = STORED;
                break;
            case 1:
                fixedtables(state);
                ;

                state->mode = LEN;
                break;
            case 2:
                ;

                state->mode = TABLE;
                break;
            case 3:
                strm->msg = (char *)"invalid block type";
                state->mode = BAD;
            }
            do { hold >>= (2); bits -= (unsigned)(2); } while (0);
            break;
        case STORED:
            do { hold >>= bits & 7; bits -= bits & 7; } while (0);
            do { while (bits < (unsigned)(32)) do { if (have == 0) goto inf_leave; have--; hold += (unsigned long)(*next++) << bits; bits += 8; } while (0); } while (0);
            if ((hold & 0xffff) != ((hold >> 16) ^ 0xffff)) {
                strm->msg = (char *)"invalid stored block lengths";
                state->mode = BAD;
                break;
            }
            state->length = (unsigned)hold & 0xffff;
            ;

            do { hold = 0; bits = 0; } while (0);
            state->mode = COPY;
        case COPY:
            copy = state->length;
            if (copy) {
                if (copy > have) copy = have;
                if (copy > left) copy = left;
                if (copy == 0) goto inf_leave;
                memcpy(put, next, copy);
                have -= copy;
                next += copy;
                left -= copy;
                put += copy;
                state->length -= copy;
                break;
            }
            ;
            state->mode = TYPE;
            break;
        case TABLE:
            do { while (bits < (unsigned)(14)) do { if (have == 0) goto inf_leave; have--; hold += (unsigned long)(*next++) << bits; bits += 8; } while (0); } while (0);
            state->nlen = ((unsigned)hold & ((1U << (5)) - 1)) + 257;
            do { hold >>= (5); bits -= (unsigned)(5); } while (0);
            state->ndist = ((unsigned)hold & ((1U << (5)) - 1)) + 1;
            do { hold >>= (5); bits -= (unsigned)(5); } while (0);
            state->ncode = ((unsigned)hold & ((1U << (4)) - 1)) + 4;
            do { hold >>= (4); bits -= (unsigned)(4); } while (0);

            if (state->nlen > 286 || state->ndist > 30) {
                strm->msg = (char *)"too many length or distance symbols";
                state->mode = BAD;
                break;
            }

            ;
            state->have = 0;
            state->mode = LENLENS;
        case LENLENS:
            while (state->have < state->ncode) {
                do { while (bits < (unsigned)(3)) do { if (have == 0) goto inf_leave; have--; hold += (unsigned long)(*next++) << bits; bits += 8; } while (0); } while (0);
                state->lens[order[state->have++]] = (unsigned short)((unsigned)hold & ((1U << (3)) - 1));
                do { hold >>= (3); bits -= (unsigned)(3); } while (0);
            }
            while (state->have < 19)
                state->lens[order[state->have++]] = 0;
            state->next = state->codes;
            state->lencode = (code const *)(state->next);
            state->lenbits = 7;
            ret = inflate_table(CODES, state->lens, 19, &(state->next),
                                &(state->lenbits), state->work);
            if (ret) {
                strm->msg = (char *)"invalid code lengths set";
                state->mode = BAD;
                break;
            }
            ;
            state->have = 0;
            state->mode = CODELENS;
        case CODELENS:
            while (state->have < state->nlen + state->ndist) {
                for (;;) {
                    this = state->lencode[((unsigned)hold & ((1U << (state->lenbits)) - 1))];
                    if ((unsigned)(this.bits) <= bits) break;
                    do { if (have == 0) goto inf_leave; have--; hold += (unsigned long)(*next++) << bits; bits += 8; } while (0);
                }
                if (this.val < 16) {
                    do { while (bits < (unsigned)(this.bits)) do { if (have == 0) goto inf_leave; have--; hold += (unsigned long)(*next++) << bits; bits += 8; } while (0); } while (0);
                    do { hold >>= (this.bits); bits -= (unsigned)(this.bits); } while (0);
                    state->lens[state->have++] = this.val;
                }
                else {
                    if (this.val == 16) {
                        do { while (bits < (unsigned)(this.bits + 2)) do { if (have == 0) goto inf_leave; have--; hold += (unsigned long)(*next++) << bits; bits += 8; } while (0); } while (0);
                        do { hold >>= (this.bits); bits -= (unsigned)(this.bits); } while (0);
                        if (state->have == 0) {
                            strm->msg = (char *)"invalid bit length repeat";
                            state->mode = BAD;
                            break;
                        }
                        len = state->lens[state->have - 1];
                        copy = 3 + ((unsigned)hold & ((1U << (2)) - 1));
                        do { hold >>= (2); bits -= (unsigned)(2); } while (0);
                    }
                    else if (this.val == 17) {
                        do { while (bits < (unsigned)(this.bits + 3)) do { if (have == 0) goto inf_leave; have--; hold += (unsigned long)(*next++) << bits; bits += 8; } while (0); } while (0);
                        do { hold >>= (this.bits); bits -= (unsigned)(this.bits); } while (0);
                        len = 0;
                        copy = 3 + ((unsigned)hold & ((1U << (3)) - 1));
                        do { hold >>= (3); bits -= (unsigned)(3); } while (0);
                    }
                    else {
                        do { while (bits < (unsigned)(this.bits + 7)) do { if (have == 0) goto inf_leave; have--; hold += (unsigned long)(*next++) << bits; bits += 8; } while (0); } while (0);
                        do { hold >>= (this.bits); bits -= (unsigned)(this.bits); } while (0);
                        len = 0;
                        copy = 11 + ((unsigned)hold & ((1U << (7)) - 1));
                        do { hold >>= (7); bits -= (unsigned)(7); } while (0);
                    }
                    if (state->have + copy > state->nlen + state->ndist) {
                        strm->msg = (char *)"invalid bit length repeat";
                        state->mode = BAD;
                        break;
                    }
                    while (copy--)
                        state->lens[state->have++] = (unsigned short)len;
                }
            }


            if (state->mode == BAD) break;


            state->next = state->codes;
            state->lencode = (code const *)(state->next);
            state->lenbits = 9;
            ret = inflate_table(LENS, state->lens, state->nlen, &(state->next),
                                &(state->lenbits), state->work);
            if (ret) {
                strm->msg = (char *)"invalid literal/lengths set";
                state->mode = BAD;
                break;
            }
            state->distcode = (code const *)(state->next);
            state->distbits = 6;
            ret = inflate_table(DISTS, state->lens + state->nlen, state->ndist,
                            &(state->next), &(state->distbits), state->work);
            if (ret) {
                strm->msg = (char *)"invalid distances set";
                state->mode = BAD;
                break;
            }
            ;
            state->mode = LEN;
        case LEN:
            if (have >= 6 && left >= 258) {
                do { strm->next_out = put; strm->avail_out = left; strm->next_in = next; strm->avail_in = have; state->hold = hold; state->bits = bits; } while (0);
                inflate_fast(strm, out);
                do { put = strm->next_out; left = strm->avail_out; next = strm->next_in; have = strm->avail_in; hold = state->hold; bits = state->bits; } while (0);
                break;
            }
            for (;;) {
                this = state->lencode[((unsigned)hold & ((1U << (state->lenbits)) - 1))];
                if ((unsigned)(this.bits) <= bits) break;
                do { if (have == 0) goto inf_leave; have--; hold += (unsigned long)(*next++) << bits; bits += 8; } while (0);
            }
            if (this.op && (this.op & 0xf0) == 0) {
                last = this;
                for (;;) {
                    this = state->lencode[last.val +
                            (((unsigned)hold & ((1U << (last.bits + last.op)) - 1)) >> last.bits)];
                    if ((unsigned)(last.bits + this.bits) <= bits) break;
                    do { if (have == 0) goto inf_leave; have--; hold += (unsigned long)(*next++) << bits; bits += 8; } while (0);
                }
                do { hold >>= (last.bits); bits -= (unsigned)(last.bits); } while (0);
            }
            do { hold >>= (this.bits); bits -= (unsigned)(this.bits); } while (0);
            state->length = (unsigned)this.val;
            if ((int)(this.op) == 0) {
                ;


                state->mode = LIT;
                break;
            }
            if (this.op & 32) {
                ;
                state->mode = TYPE;
                break;
            }
            if (this.op & 64) {
                strm->msg = (char *)"invalid literal/length code";
                state->mode = BAD;
                break;
            }
            state->extra = (unsigned)(this.op) & 15;
            state->mode = LENEXT;
        case LENEXT:
            if (state->extra) {
                do { while (bits < (unsigned)(state->extra)) do { if (have == 0) goto inf_leave; have--; hold += (unsigned long)(*next++) << bits; bits += 8; } while (0); } while (0);
                state->length += ((unsigned)hold & ((1U << (state->extra)) - 1));
                do { hold >>= (state->extra); bits -= (unsigned)(state->extra); } while (0);
            }
            ;
            state->mode = DIST;
        case DIST:
            for (;;) {
                this = state->distcode[((unsigned)hold & ((1U << (state->distbits)) - 1))];
                if ((unsigned)(this.bits) <= bits) break;
                do { if (have == 0) goto inf_leave; have--; hold += (unsigned long)(*next++) << bits; bits += 8; } while (0);
            }
            if ((this.op & 0xf0) == 0) {
                last = this;
                for (;;) {
                    this = state->distcode[last.val +
                            (((unsigned)hold & ((1U << (last.bits + last.op)) - 1)) >> last.bits)];
                    if ((unsigned)(last.bits + this.bits) <= bits) break;
                    do { if (have == 0) goto inf_leave; have--; hold += (unsigned long)(*next++) << bits; bits += 8; } while (0);
                }
                do { hold >>= (last.bits); bits -= (unsigned)(last.bits); } while (0);
            }
            do { hold >>= (this.bits); bits -= (unsigned)(this.bits); } while (0);
            if (this.op & 64) {
                strm->msg = (char *)"invalid distance code";
                state->mode = BAD;
                break;
            }
            state->offset = (unsigned)this.val;
            state->extra = (unsigned)(this.op) & 15;
            state->mode = DISTEXT;
        case DISTEXT:
            if (state->extra) {
                do { while (bits < (unsigned)(state->extra)) do { if (have == 0) goto inf_leave; have--; hold += (unsigned long)(*next++) << bits; bits += 8; } while (0); } while (0);
                state->offset += ((unsigned)hold & ((1U << (state->extra)) - 1));
                do { hold >>= (state->extra); bits -= (unsigned)(state->extra); } while (0);
            }







            if (state->offset > state->whave + out - left) {
                strm->msg = (char *)"invalid distance too far back";
                state->mode = BAD;
                break;
            }
            ;
            state->mode = MATCH;
        case MATCH:
            if (left == 0) goto inf_leave;
            copy = out - left;
            if (state->offset > copy) {
                copy = state->offset - copy;
                if (copy > state->write) {
                    copy -= state->write;
                    from = state->window + (state->wsize - copy);
                }
                else
                    from = state->window + (state->write - copy);
                if (copy > state->length) copy = state->length;
            }
            else {
                from = put - state->offset;
                copy = state->length;
            }
            if (copy > left) copy = left;
            left -= copy;
            state->length -= copy;
            do {
                *put++ = *from++;
            } while (--copy);
            if (state->length == 0) state->mode = LEN;
            break;
        case LIT:
            if (left == 0) goto inf_leave;
            *put++ = (unsigned char)(state->length);
            left--;
            state->mode = LEN;
            break;
        case CHECK:
            if (state->wrap) {
                do { while (bits < (unsigned)(32)) do { if (have == 0) goto inf_leave; have--; hold += (unsigned long)(*next++) << bits; bits += 8; } while (0); } while (0);
                out -= left;
                strm->total_out += out;
                state->total += out;
                if (out)
                    strm->adler = state->check =
                        (state->flags ? crc32(state->check, put - out, out) : adler32(state->check, put - out, out));
                out = left;
                if ((

                     state->flags ? hold :

                     ((((hold) >> 24) & 0xff) + (((hold) >> 8) & 0xff00) + (((hold) & 0xff00) << 8) + (((hold) & 0xff) << 24))) != state->check) {
                    strm->msg = (char *)"incorrect data check";
                    state->mode = BAD;
                    break;
                }
                do { hold = 0; bits = 0; } while (0);
                ;
            }

            state->mode = LENGTH;
        case LENGTH:
            if (state->wrap && state->flags) {
                do { while (bits < (unsigned)(32)) do { if (have == 0) goto inf_leave; have--; hold += (unsigned long)(*next++) << bits; bits += 8; } while (0); } while (0);
                if (hold != (state->total & 0xffffffffUL)) {
                    strm->msg = (char *)"incorrect length check";
                    state->mode = BAD;
                    break;
                }
                do { hold = 0; bits = 0; } while (0);
                ;
            }

            state->mode = DONE;
        case DONE:
            ret = 1;
            goto inf_leave;
        case BAD:
            ret = (-3);
            goto inf_leave;
        case MEM:
            return (-4);
        case SYNC:
        default:
            return (-2);
        }







  inf_leave:
    do { strm->next_out = put; strm->avail_out = left; strm->next_in = next; strm->avail_in = have; state->hold = hold; state->bits = bits; } while (0);
    if (state->wsize || (state->mode < CHECK && out != strm->avail_out))
        if (updatewindow(strm, out)) {
            state->mode = MEM;
            return (-4);
        }
    in -= strm->avail_in;
    out -= strm->avail_out;
    strm->total_in += in;
    strm->total_out += out;
    state->total += out;
    if (state->wrap && out)
        strm->adler = state->check =
            (state->flags ? crc32(state->check, strm->next_out - out, out) : adler32(state->check, strm->next_out - out, out));
    strm->data_type = state->bits + (state->last ? 64 : 0) +
                      (state->mode == TYPE ? 128 : 0);
    if (((in == 0 && out == 0) || flush == 4) && ret == 0)
        ret = (-5);
    return ret;
}

int inflateEnd(strm)
z_streamp strm;
{
    struct inflate_state *state;
    if (strm == 0 || strm->state == 0 || strm->zfree == (free_func)0)
        return (-2);
    state = (struct inflate_state *)strm->state;
    if (state->window != 0) (*((strm)->zfree))((strm)->opaque, (voidpf)(state->window));
    (*((strm)->zfree))((strm)->opaque, (voidpf)(strm->state));
    strm->state = 0;
    ;
    return 0;
}

int inflateSetDictionary(strm, dictionary, dictLength)
z_streamp strm;
const Bytef *dictionary;
uInt dictLength;
{
    struct inflate_state *state;
    unsigned long id;


    if (strm == 0 || strm->state == 0) return (-2);
    state = (struct inflate_state *)strm->state;
    if (state->wrap != 0 && state->mode != DICT)
        return (-2);


    if (state->mode == DICT) {
        id = adler32(0L, 0, 0);
        id = adler32(id, dictionary, dictLength);
        if (id != state->check)
            return (-3);
    }


    if (updatewindow(strm, strm->avail_out)) {
        state->mode = MEM;
        return (-4);
    }
    if (dictLength > state->wsize) {
        memcpy(state->window, dictionary + dictLength - state->wsize,
                state->wsize);
        state->whave = state->wsize;
    }
    else {
        memcpy(state->window + state->wsize - dictLength, dictionary,
                dictLength);
        state->whave = dictLength;
    }
    state->havedict = 1;
    ;
    return 0;
}

int inflateGetHeader(strm, head)
z_streamp strm;
gz_headerp head;
{
    struct inflate_state *state;


    if (strm == 0 || strm->state == 0) return (-2);
    state = (struct inflate_state *)strm->state;
    if ((state->wrap & 2) == 0) return (-2);


    state->head = head;
    head->done = 0;
    return 0;
}
# 1239 "c:/users/plu/documents/petetrlu/kitchen/spices/airplay4.4/modules/third_party/zlib/upstream/inflate.c"
static unsigned syncsearch(have, buf, len)
unsigned *have;
unsigned char *buf;
unsigned len;
{
    unsigned got;
    unsigned next;

    got = *have;
    next = 0;
    while (next < len && got < 4) {
        if ((int)(buf[next]) == (got < 2 ? 0 : 0xff))
            got++;
        else if (buf[next])
            got = 0;
        else
            got = 4 - got;
        next++;
    }
    *have = got;
    return next;
}

int inflateSync(strm)
z_streamp strm;
{
    unsigned len;
    unsigned long in, out;
    unsigned char buf[4];
    struct inflate_state *state;


    if (strm == 0 || strm->state == 0) return (-2);
    state = (struct inflate_state *)strm->state;
    if (strm->avail_in == 0 && state->bits < 8) return (-5);


    if (state->mode != SYNC) {
        state->mode = SYNC;
        state->hold <<= state->bits & 7;
        state->bits -= state->bits & 7;
        len = 0;
        while (state->bits >= 8) {
            buf[len++] = (unsigned char)(state->hold);
            state->hold >>= 8;
            state->bits -= 8;
        }
        state->have = 0;
        syncsearch(&(state->have), buf, len);
    }


    len = syncsearch(&(state->have), strm->next_in, strm->avail_in);
    strm->avail_in -= len;
    strm->next_in += len;
    strm->total_in += len;


    if (state->have != 4) return (-3);
    in = strm->total_in; out = strm->total_out;
    inflateReset(strm);
    strm->total_in = in; strm->total_out = out;
    state->mode = TYPE;
    return 0;
}
# 1313 "c:/users/plu/documents/petetrlu/kitchen/spices/airplay4.4/modules/third_party/zlib/upstream/inflate.c"
int inflateSyncPoint(strm)
z_streamp strm;
{
    struct inflate_state *state;

    if (strm == 0 || strm->state == 0) return (-2);
    state = (struct inflate_state *)strm->state;
    return state->mode == STORED && state->bits == 0;
}

int inflateCopy(dest, source)
z_streamp dest;
z_streamp source;
{
    struct inflate_state *state;
    struct inflate_state *copy;
    unsigned char *window;
    unsigned wsize;


    if (dest == 0 || source == 0 || source->state == 0 ||
        source->zalloc == (alloc_func)0 || source->zfree == (free_func)0)
        return (-2);
    state = (struct inflate_state *)source->state;


    copy = (struct inflate_state *)
           (*((source)->zalloc))((source)->opaque, (1), (sizeof(struct inflate_state)));
    if (copy == 0) return (-4);
    window = 0;
    if (state->window != 0) {
        window = (unsigned char *)
                 (*((source)->zalloc))((source)->opaque, (1U << state->wbits), (sizeof(unsigned char)));
        if (window == 0) {
            (*((source)->zfree))((source)->opaque, (voidpf)(copy));
            return (-4);
        }
    }


    memcpy(dest, source, sizeof(z_stream));
    memcpy(copy, state, sizeof(struct inflate_state));
    if (state->lencode >= state->codes &&
        state->lencode <= state->codes + 2048 - 1) {
        copy->lencode = copy->codes + (state->lencode - state->codes);
        copy->distcode = copy->codes + (state->distcode - state->codes);
    }
    copy->next = copy->codes + (state->next - state->codes);
    if (window != 0) {
        wsize = 1U << state->wbits;
        memcpy(window, state->window, wsize);
    }
    copy->window = window;
    dest->state = (struct internal_state *)copy;
    return 0;
}
