# 1 "c:/users/plu/documents/petetrlu/kitchen/spices/airplay4.4/modules/third_party/libpng/upstream/pngwtran.c"
# 1 "<built-in>"
# 1 "<command-line>"
# 1 "C:/Users/plu/Documents/petetrlu/kitchen/faucet/self_help/test1/build_test1_vc10/temp_defines_release.h" 1
# 1 "<command-line>" 2
# 1 "c:/users/plu/documents/petetrlu/kitchen/spices/airplay4.4/modules/third_party/libpng/upstream/pngwtran.c"
# 12 "c:/users/plu/documents/petetrlu/kitchen/spices/airplay4.4/modules/third_party/libpng/upstream/pngwtran.c"
# 1 "c:/users/plu/documents/petetrlu/kitchen/spices/airplay4.4/modules/third_party/libpng/upstream/png.h" 1
# 465 "c:/users/plu/documents/petetrlu/kitchen/spices/airplay4.4/modules/third_party/libpng/upstream/png.h"
# 1 "c:/users/plu/documents/petetrlu/kitchen/spices/airplay4.4/modules/third_party/zlib/upstream/zlib.h" 1
# 34 "c:/users/plu/documents/petetrlu/kitchen/spices/airplay4.4/modules/third_party/zlib/upstream/zlib.h"
# 1 "c:/users/plu/documents/petetrlu/kitchen/spices/airplay4.4/modules/third_party/zlib/upstream/zconf.h" 1
# 261 "c:/users/plu/documents/petetrlu/kitchen/spices/airplay4.4/modules/third_party/zlib/upstream/zconf.h"
typedef unsigned char Byte;

typedef unsigned int uInt;
typedef unsigned long uLong;





   typedef Byte Bytef;

typedef char charf;
typedef int intf;
typedef uInt uIntf;
typedef uLong uLongf;


   typedef void const *voidpc;
   typedef void *voidpf;
   typedef void *voidp;
# 35 "c:/users/plu/documents/petetrlu/kitchen/spices/airplay4.4/modules/third_party/zlib/upstream/zlib.h" 2
# 77 "c:/users/plu/documents/petetrlu/kitchen/spices/airplay4.4/modules/third_party/zlib/upstream/zlib.h"
typedef voidpf (*alloc_func) (voidpf opaque, uInt items, uInt size);
typedef void (*free_func) (voidpf opaque, voidpf address);

struct internal_state;

typedef struct z_stream_s {
    Bytef *next_in;
    uInt avail_in;
    uLong total_in;

    Bytef *next_out;
    uInt avail_out;
    uLong total_out;

    char *msg;
    struct internal_state *state;

    alloc_func zalloc;
    free_func zfree;
    voidpf opaque;

    int data_type;
    uLong adler;
    uLong reserved;
} z_stream;

typedef z_stream *z_streamp;





typedef struct gz_header_s {
    int text;
    uLong time;
    int xflags;
    int os;
    Bytef *extra;
    uInt extra_len;
    uInt extra_max;
    Bytef *name;
    uInt name_max;
    Bytef *comment;
    uInt comm_max;
    int hcrc;
    int done;

} gz_header;

typedef gz_header *gz_headerp;
# 212 "c:/users/plu/documents/petetrlu/kitchen/spices/airplay4.4/modules/third_party/zlib/upstream/zlib.h"
extern const char * zlibVersion (void);
# 242 "c:/users/plu/documents/petetrlu/kitchen/spices/airplay4.4/modules/third_party/zlib/upstream/zlib.h"
extern int deflate (z_streamp strm, int flush);
# 328 "c:/users/plu/documents/petetrlu/kitchen/spices/airplay4.4/modules/third_party/zlib/upstream/zlib.h"
extern int deflateEnd (z_streamp strm);
# 363 "c:/users/plu/documents/petetrlu/kitchen/spices/airplay4.4/modules/third_party/zlib/upstream/zlib.h"
extern int inflate (z_streamp strm, int flush);
# 462 "c:/users/plu/documents/petetrlu/kitchen/spices/airplay4.4/modules/third_party/zlib/upstream/zlib.h"
extern int inflateEnd (z_streamp strm);
# 538 "c:/users/plu/documents/petetrlu/kitchen/spices/airplay4.4/modules/third_party/zlib/upstream/zlib.h"
extern int deflateSetDictionary (z_streamp strm, const Bytef *dictionary, uInt dictLength);
# 577 "c:/users/plu/documents/petetrlu/kitchen/spices/airplay4.4/modules/third_party/zlib/upstream/zlib.h"
extern int deflateCopy (z_streamp dest, z_streamp source);
# 595 "c:/users/plu/documents/petetrlu/kitchen/spices/airplay4.4/modules/third_party/zlib/upstream/zlib.h"
extern int deflateReset (z_streamp strm);
# 606 "c:/users/plu/documents/petetrlu/kitchen/spices/airplay4.4/modules/third_party/zlib/upstream/zlib.h"
extern int deflateParams (z_streamp strm, int level, int strategy);
# 627 "c:/users/plu/documents/petetrlu/kitchen/spices/airplay4.4/modules/third_party/zlib/upstream/zlib.h"
extern int deflateTune (z_streamp strm, int good_length, int max_lazy, int nice_length, int max_chain);
# 644 "c:/users/plu/documents/petetrlu/kitchen/spices/airplay4.4/modules/third_party/zlib/upstream/zlib.h"
extern uLong deflateBound (z_streamp strm, uLong sourceLen);
# 653 "c:/users/plu/documents/petetrlu/kitchen/spices/airplay4.4/modules/third_party/zlib/upstream/zlib.h"
extern int deflatePrime (z_streamp strm, int bits, int value);
# 669 "c:/users/plu/documents/petetrlu/kitchen/spices/airplay4.4/modules/third_party/zlib/upstream/zlib.h"
extern int deflateSetHeader (z_streamp strm, gz_headerp head);
# 736 "c:/users/plu/documents/petetrlu/kitchen/spices/airplay4.4/modules/third_party/zlib/upstream/zlib.h"
extern int inflateSetDictionary (z_streamp strm, const Bytef *dictionary, uInt dictLength);
# 758 "c:/users/plu/documents/petetrlu/kitchen/spices/airplay4.4/modules/third_party/zlib/upstream/zlib.h"
extern int inflateSync (z_streamp strm);
# 773 "c:/users/plu/documents/petetrlu/kitchen/spices/airplay4.4/modules/third_party/zlib/upstream/zlib.h"
extern int inflateCopy (z_streamp dest, z_streamp source);
# 789 "c:/users/plu/documents/petetrlu/kitchen/spices/airplay4.4/modules/third_party/zlib/upstream/zlib.h"
extern int inflateReset (z_streamp strm);
# 799 "c:/users/plu/documents/petetrlu/kitchen/spices/airplay4.4/modules/third_party/zlib/upstream/zlib.h"
extern int inflatePrime (z_streamp strm, int bits, int value);
# 815 "c:/users/plu/documents/petetrlu/kitchen/spices/airplay4.4/modules/third_party/zlib/upstream/zlib.h"
extern int inflateGetHeader (z_streamp strm, gz_headerp head);
# 877 "c:/users/plu/documents/petetrlu/kitchen/spices/airplay4.4/modules/third_party/zlib/upstream/zlib.h"
typedef unsigned (*in_func) (void *, unsigned char * *);
typedef int (*out_func) (void *, unsigned char *, unsigned);

extern int inflateBack (z_streamp strm, in_func in, void *in_desc, out_func out, void *out_desc);
# 949 "c:/users/plu/documents/petetrlu/kitchen/spices/airplay4.4/modules/third_party/zlib/upstream/zlib.h"
extern int inflateBackEnd (z_streamp strm);







extern uLong zlibCompileFlags (void);
# 1009 "c:/users/plu/documents/petetrlu/kitchen/spices/airplay4.4/modules/third_party/zlib/upstream/zlib.h"
extern int compress (Bytef *dest, uLongf *destLen, const Bytef *source, uLong sourceLen);
# 1024 "c:/users/plu/documents/petetrlu/kitchen/spices/airplay4.4/modules/third_party/zlib/upstream/zlib.h"
extern int compress2 (Bytef *dest, uLongf *destLen, const Bytef *source, uLong sourceLen, int level);
# 1040 "c:/users/plu/documents/petetrlu/kitchen/spices/airplay4.4/modules/third_party/zlib/upstream/zlib.h"
extern uLong compressBound (uLong sourceLen);






extern int uncompress (Bytef *dest, uLongf *destLen, const Bytef *source, uLong sourceLen);
# 1066 "c:/users/plu/documents/petetrlu/kitchen/spices/airplay4.4/modules/third_party/zlib/upstream/zlib.h"
typedef voidp gzFile;

extern gzFile gzopen (const char *path, const char *mode);
# 1085 "c:/users/plu/documents/petetrlu/kitchen/spices/airplay4.4/modules/third_party/zlib/upstream/zlib.h"
extern gzFile gzdopen (int fd, const char *mode);
# 1098 "c:/users/plu/documents/petetrlu/kitchen/spices/airplay4.4/modules/third_party/zlib/upstream/zlib.h"
extern int gzsetparams (gzFile file, int level, int strategy);







extern int gzread (gzFile file, voidp buf, unsigned len);







extern int gzwrite (gzFile file, voidpc buf, unsigned len);







extern int gzprintf (gzFile file, const char *format, ...);
# 1135 "c:/users/plu/documents/petetrlu/kitchen/spices/airplay4.4/modules/third_party/zlib/upstream/zlib.h"
extern int gzputs (gzFile file, const char *s);






extern char * gzgets (gzFile file, char *buf, int len);
# 1151 "c:/users/plu/documents/petetrlu/kitchen/spices/airplay4.4/modules/third_party/zlib/upstream/zlib.h"
extern int gzputc (gzFile file, int c);





extern int gzgetc (gzFile file);





extern int gzungetc (int c, gzFile file);
# 1173 "c:/users/plu/documents/petetrlu/kitchen/spices/airplay4.4/modules/third_party/zlib/upstream/zlib.h"
extern int gzflush (gzFile file, int flush);
# 1183 "c:/users/plu/documents/petetrlu/kitchen/spices/airplay4.4/modules/third_party/zlib/upstream/zlib.h"
extern long gzseek (gzFile file, long offset, int whence);
# 1201 "c:/users/plu/documents/petetrlu/kitchen/spices/airplay4.4/modules/third_party/zlib/upstream/zlib.h"
extern int gzrewind (gzFile file);






extern long gztell (gzFile file);
# 1217 "c:/users/plu/documents/petetrlu/kitchen/spices/airplay4.4/modules/third_party/zlib/upstream/zlib.h"
extern int gzeof (gzFile file);





extern int gzdirect (gzFile file);





extern int gzclose (gzFile file);






extern const char * gzerror (gzFile file, int *errnum);
# 1245 "c:/users/plu/documents/petetrlu/kitchen/spices/airplay4.4/modules/third_party/zlib/upstream/zlib.h"
extern void gzclearerr (gzFile file);
# 1260 "c:/users/plu/documents/petetrlu/kitchen/spices/airplay4.4/modules/third_party/zlib/upstream/zlib.h"
extern uLong adler32 (uLong adler, const Bytef *buf, uInt len);
# 1276 "c:/users/plu/documents/petetrlu/kitchen/spices/airplay4.4/modules/third_party/zlib/upstream/zlib.h"
extern uLong adler32_combine (uLong adler1, uLong adler2, long len2);
# 1285 "c:/users/plu/documents/petetrlu/kitchen/spices/airplay4.4/modules/third_party/zlib/upstream/zlib.h"
extern uLong crc32 (uLong crc, const Bytef *buf, uInt len);
# 1301 "c:/users/plu/documents/petetrlu/kitchen/spices/airplay4.4/modules/third_party/zlib/upstream/zlib.h"
extern uLong crc32_combine (uLong crc1, uLong crc2, long len2);
# 1317 "c:/users/plu/documents/petetrlu/kitchen/spices/airplay4.4/modules/third_party/zlib/upstream/zlib.h"
extern int deflateInit_ (z_streamp strm, int level, const char *version, int stream_size);

extern int inflateInit_ (z_streamp strm, const char *version, int stream_size);

extern int deflateInit2_ (z_streamp strm, int level, int method, int windowBits, int memLevel, int strategy, const char *version, int stream_size);



extern int inflateInit2_ (z_streamp strm, int windowBits, const char *version, int stream_size);

extern int inflateBackInit_ (z_streamp strm, int windowBits, unsigned char *window, const char *version, int stream_size);
# 1346 "c:/users/plu/documents/petetrlu/kitchen/spices/airplay4.4/modules/third_party/zlib/upstream/zlib.h"
    struct internal_state {int dummy;};


extern const char * zError (int);
extern int inflateSyncPoint (z_streamp z);
extern const uLongf * get_crc_table (void);
# 466 "c:/users/plu/documents/petetrlu/kitchen/spices/airplay4.4/modules/third_party/libpng/upstream/png.h" 2



# 1 "c:/users/plu/documents/petetrlu/kitchen/spices/airplay4.4/modules/third_party/libpng/upstream/pngconf.h" 1
# 261 "c:/users/plu/documents/petetrlu/kitchen/spices/airplay4.4/modules/third_party/libpng/upstream/pngconf.h"
# 1 "c:/users/plu/documents/petetrlu/kitchen/spices/airplay4.4/s3e/h/std/stdio.h" 1
# 15 "c:/users/plu/documents/petetrlu/kitchen/spices/airplay4.4/s3e/h/std/stdio.h"
# 1 "c:/users/plu/documents/petetrlu/kitchen/spices/airplay4.4/s3e/h/std/sys/types.h" 1
# 15 "c:/users/plu/documents/petetrlu/kitchen/spices/airplay4.4/s3e/h/std/sys/types.h"
# 1 "c:/users/plu/documents/petetrlu/kitchen/spices/airplay4.4/s3e/h/s3eTypes.h" 1
# 37 "c:/users/plu/documents/petetrlu/kitchen/spices/airplay4.4/s3e/h/s3eTypes.h"
typedef unsigned char s3e_uint8_t;
typedef signed char s3e_int8_t;
typedef unsigned short int s3e_uint16_t;
typedef signed short int s3e_int16_t;
typedef unsigned int s3e_uint32_t;
typedef signed int s3e_int32_t;
# 51 "c:/users/plu/documents/petetrlu/kitchen/spices/airplay4.4/s3e/h/s3eTypes.h"
  typedef signed long long s3e_int64_t;
  typedef unsigned long long s3e_uint64_t;
# 72 "c:/users/plu/documents/petetrlu/kitchen/spices/airplay4.4/s3e/h/s3eTypes.h"
typedef s3e_uint64_t uint64_t;
typedef s3e_int64_t int64_t;
typedef s3e_uint32_t uint32_t;
typedef s3e_int32_t int32_t;
typedef s3e_uint16_t uint16_t;
typedef s3e_int16_t int16_t;
typedef s3e_uint8_t uint8_t;
typedef s3e_int8_t int8_t;
# 93 "c:/users/plu/documents/petetrlu/kitchen/spices/airplay4.4/s3e/h/s3eTypes.h"
 typedef int intptr_t;
 typedef unsigned int uintptr_t;
# 104 "c:/users/plu/documents/petetrlu/kitchen/spices/airplay4.4/s3e/h/s3eTypes.h"
typedef unsigned int uint;
typedef unsigned short int ushort;
typedef unsigned long int ulong;
typedef unsigned char uint8;
typedef signed char int8;







typedef int64_t int64;
typedef uint64_t uint64;
# 126 "c:/users/plu/documents/petetrlu/kitchen/spices/airplay4.4/s3e/h/s3eTypes.h"
typedef unsigned int uint32;
# 135 "c:/users/plu/documents/petetrlu/kitchen/spices/airplay4.4/s3e/h/s3eTypes.h"
typedef signed int int32;





typedef uint16_t uint16;




typedef int16_t int16;
# 217 "c:/users/plu/documents/petetrlu/kitchen/spices/airplay4.4/s3e/h/s3eTypes.h"
typedef enum s3eResult
{
    S3E_RESULT_SUCCESS = 0,
    S3E_RESULT_ERROR = 1
} s3eResult;




typedef uint8 s3eBool;
# 237 "c:/users/plu/documents/petetrlu/kitchen/spices/airplay4.4/s3e/h/s3eTypes.h"
typedef unsigned short s3eWChar;
# 308 "c:/users/plu/documents/petetrlu/kitchen/spices/airplay4.4/s3e/h/s3eTypes.h"
typedef int32 (*s3eCallback) (void* systemData, void* userData);
# 16 "c:/users/plu/documents/petetrlu/kitchen/spices/airplay4.4/s3e/h/std/sys/types.h" 2
# 1 "c:/users/plu/documents/petetrlu/kitchen/spices/airplay4.4/s3e/h/std/stddef.h" 1
# 15 "c:/users/plu/documents/petetrlu/kitchen/spices/airplay4.4/s3e/h/std/stddef.h"
typedef signed int ptrdiff_t;


    typedef unsigned int wint_t;
    typedef unsigned long int wctype_t;



    typedef unsigned short wchar_t;



typedef unsigned int size_t;
# 17 "c:/users/plu/documents/petetrlu/kitchen/spices/airplay4.4/s3e/h/std/sys/types.h" 2
# 1 "c:/users/plu/documents/petetrlu/kitchen/spices/airplay4.4/s3e/h/std/stdint.h" 1
# 19 "c:/users/plu/documents/petetrlu/kitchen/spices/airplay4.4/s3e/h/std/stdint.h"
typedef signed char int_least8_t;
typedef short int_least16_t;
typedef long int_least32_t;
typedef int64_t int_least64_t;

typedef unsigned char uint_least8_t;
typedef unsigned short uint_least16_t;
typedef unsigned long uint_least32_t;
typedef uint64_t uint_least64_t;

typedef signed char int_fast8_t;
typedef short int_fast16_t;
typedef long int_fast32_t;
typedef int64_t int_fast64_t;

typedef unsigned char uint_fast8_t;
typedef unsigned short uint_fast16_t;
typedef unsigned long uint_fast32_t;
typedef uint64_t uint_fast64_t;

typedef int64_t intmax_t;
typedef uint64_t uintmax_t;
# 18 "c:/users/plu/documents/petetrlu/kitchen/spices/airplay4.4/s3e/h/std/sys/types.h" 2
# 1 "c:/users/plu/documents/petetrlu/kitchen/spices/airplay4.4/s3e/h/std/sys/select.h" 1
# 24 "c:/users/plu/documents/petetrlu/kitchen/spices/airplay4.4/s3e/h/std/sys/select.h"
struct timeval;

typedef struct fd_set
{
    char fds_bits[256/8];
} fd_set;
# 39 "c:/users/plu/documents/petetrlu/kitchen/spices/airplay4.4/s3e/h/std/sys/select.h"


int select(int nfds, fd_set *readfds, fd_set *writefds, fd_set *exceptfds, struct timeval *timeout);


# 19 "c:/users/plu/documents/petetrlu/kitchen/spices/airplay4.4/s3e/h/std/sys/types.h" 2



typedef long off_t;

typedef int64_t off64_t;
# 33 "c:/users/plu/documents/petetrlu/kitchen/spices/airplay4.4/s3e/h/std/sys/types.h"
typedef uint u_int;
typedef uint8_t u_int8_t;
typedef uint16_t u_int16_t;
typedef uint32_t u_int32_t;
typedef uint64_t u_int64_t;

typedef unsigned short u_short;
typedef unsigned long u_long;
typedef unsigned char u_char;

typedef int ssize_t;
typedef int pid_t;
typedef short uid_t;
typedef short gid_t;
typedef int idtype_t;
typedef int id_t;
typedef uint32 mode_t;
typedef short dev_t;
typedef short ino_t;
typedef int key_t;
typedef void* caddr_t;
# 16 "c:/users/plu/documents/petetrlu/kitchen/spices/airplay4.4/s3e/h/std/stdio.h" 2



struct __XXFILE;
typedef struct __XXFILE FILE;

typedef uint32 fpos_t;
# 38 "c:/users/plu/documents/petetrlu/kitchen/spices/airplay4.4/s3e/h/std/stdio.h"

# 54 "c:/users/plu/documents/petetrlu/kitchen/spices/airplay4.4/s3e/h/std/stdio.h"
extern FILE *__aeabi_stdin;
extern FILE *__aeabi_stdout;
extern FILE *__aeabi_stderr;
# 66 "c:/users/plu/documents/petetrlu/kitchen/spices/airplay4.4/s3e/h/std/stdio.h"
FILE *fopen(const char *path, const char *mode);
int fclose(FILE *fp);
int fcloseall();
int fflush(FILE *stream);

FILE *fopen(const char *path, const char *mode);
FILE *fdopen(int fildes, const char *mode);
FILE *freopen(const char *path, const char *mode, FILE *stream);

size_t fread(void *ptr, size_t size, size_t nmemb, FILE *stream);
size_t fwrite(const void *ptr, size_t size, size_t nmemb, FILE *stream);

int fputc(int c, FILE *stream);
int fputs(const char *s, FILE *stream);
int putc(int c, FILE *stream);
int putchar(int c);
int puts(const char *s);

int fgetc(FILE *stream);
char *fgets(char *s, int size, FILE *stream);
int getc(FILE *stream);
int getchar(void);
char *gets(char *s);
int ungetc(int c, FILE *stream);

int fseek(FILE *stream, long offset, int whence);
long ftell(FILE *stream);
void rewind(FILE *stream);
int fgetpos(FILE *stream, fpos_t *pos);
int fsetpos(FILE *stream, fpos_t *pos);

void flockfile(FILE *filehandle);
int ftrylockfile(FILE *filehandle);
void funlockfile(FILE *filehandle);

int getc_unlocked(FILE *stream);
int getchar_unlocked(void);
int putc_unlocked(int c, FILE *stream);
int putchar_unlocked(int c);

FILE *popen(const char *command, const char *type);
int pclose(FILE *stream);

char *tempnam(const char *dir, const char *pfx);




int printf(const char *format, ...) __attribute__((format(printf, 1, 2)));



int fprintf(FILE *stream, const char* format, ...) __attribute__((format(printf, 2, 3)));



int sprintf(char *str, const char* format, ...) __attribute__((format(printf, 2, 3)));



int snprintf(char *str, size_t size, const char *format, ...) __attribute__((format(printf, 3, 4)));




int scanf(const char *format, ...);



int fscanf(FILE *stream, const char *format, ...);



int sscanf(const char *str, const char *format, ...);

void clearerr(FILE *stream);
int feof(FILE *stream);
int ferror(FILE *stream);
int fileno(FILE *stream);

int remove(const char *pathname);
int rename(const char *oldpath, const char *newpath);

void perror(const char *s);

FILE *tmpfile(void);
char *tmpnam(char *s);

void setbuf(FILE *stream, char *buf);
void setbuffer(FILE *stream, char *buf, size_t size);
void setlinebuf(FILE *stream);
int setvbuf(FILE *stream, char *buf, int mode , size_t size);

# 1 "c:/users/plu/documents/petetrlu/kitchen/spices/airplay4.4/s3e/h/std/stdarg.h" 1
# 54 "c:/users/plu/documents/petetrlu/kitchen/spices/airplay4.4/s3e/h/std/stdarg.h"
typedef __builtin_va_list va_list;
# 160 "c:/users/plu/documents/petetrlu/kitchen/spices/airplay4.4/s3e/h/std/stdio.h" 2

int vfprintf(FILE *stream, const char *format, va_list ap);
int vsprintf(char *str, const char *format, va_list ap);
int vsnprintf(char *str, size_t size, const char *format, va_list ap);
int vprintf(const char *format, va_list ap);
int asprintf(char **strp, const char *fmt, ...);
int vasprintf(char **strp, const char *fmt, va_list ap);

int vscanf(const char *format, va_list ap);
int vsscanf(const char *str, const char *format, va_list ap);
int vfscanf(FILE *stream, const char *format, va_list ap);


# 262 "c:/users/plu/documents/petetrlu/kitchen/spices/airplay4.4/modules/third_party/libpng/upstream/pngconf.h" 2
# 332 "c:/users/plu/documents/petetrlu/kitchen/spices/airplay4.4/modules/third_party/libpng/upstream/pngconf.h"
# 1 "c:/users/plu/documents/petetrlu/kitchen/spices/airplay4.4/s3e/h/std/setjmp.h" 1
# 44 "c:/users/plu/documents/petetrlu/kitchen/spices/airplay4.4/s3e/h/std/setjmp.h"
typedef int jmp_buf[23];




void longjmp(jmp_buf jmpb, int retval);
int setjmp(jmp_buf jmpb);


# 333 "c:/users/plu/documents/petetrlu/kitchen/spices/airplay4.4/modules/third_party/libpng/upstream/pngconf.h" 2
# 347 "c:/users/plu/documents/petetrlu/kitchen/spices/airplay4.4/modules/third_party/libpng/upstream/pngconf.h"
# 1 "c:/users/plu/documents/petetrlu/kitchen/spices/airplay4.4/s3e/h/std/string.h" 1
# 17 "c:/users/plu/documents/petetrlu/kitchen/spices/airplay4.4/s3e/h/std/string.h"


void *memcpy(void *dest, const void *src, size_t n);
void *memset(void *s, int c, size_t n);
int memcmp(const void *s1, const void *s2, size_t n);
void *memmove(void *dest, const void *src, size_t n);
void *memchr(const void *s, int c, size_t n);
void *memrchr(const void *s, int c, size_t n);







int strcmp(const char *s1, const char *s2);
int strncmp(const char *s1, const char *s2, size_t n);
char *strsep(char **stringp, const char *delim);
char *strcpy(char *dest, const char *src);
char *strncpy(char *dest, const char *src, size_t n);
char *strchr(const char *s, int c);
char *strstr(const char *haystack, const char *needle);
char *strrchr(const char *s, int c);
char *strdup(const char *s);
char *strtok(char *str, const char *delim);
char *strtok_r(char *str, const char *delim, char **saveptr);
char *strcat(char *dest, const char *src);
char *strncat(char *dest, const char *src, size_t n);
size_t strlen(const char *s);
size_t strnlen(const char *s, size_t n);
int strcasecmp(const char *s1, const char *s2);
int strncasecmp(const char *s1, const char *s2, size_t n);
size_t strspn(const char *s, const char *accept);
size_t strcspn(const char *s, const char *reject);
char *strpbrk(const char *s, const char *accept);
int strcoll(const char *s1, const char *s2);
char *strerror(int errnum);
size_t strxfrm(char *dest, const char *src, size_t n);

int strerror_r(int errnum, char *buf, size_t buflen);





size_t strlcpy(char* dest, const char* src, size_t len);
size_t strlcat(char* dest, const char* src, size_t len);


# 348 "c:/users/plu/documents/petetrlu/kitchen/spices/airplay4.4/modules/third_party/libpng/upstream/pngconf.h" 2





# 1 "c:/users/plu/documents/petetrlu/kitchen/spices/airplay4.4/s3e/h/std/stdlib.h" 1
# 16 "c:/users/plu/documents/petetrlu/kitchen/spices/airplay4.4/s3e/h/std/stdlib.h"
# 1 "c:/users/plu/documents/petetrlu/kitchen/spices/airplay4.4/s3e/h/std/malloc.h" 1
# 16 "c:/users/plu/documents/petetrlu/kitchen/spices/airplay4.4/s3e/h/std/malloc.h"
# 1 "c:/users/plu/documents/petetrlu/kitchen/spices/airplay4.4/s3e/h/std/alloca.h" 1
# 17 "c:/users/plu/documents/petetrlu/kitchen/spices/airplay4.4/s3e/h/std/alloca.h"



    extern void *alloca(size_t __size);
# 35 "c:/users/plu/documents/petetrlu/kitchen/spices/airplay4.4/s3e/h/std/alloca.h"

# 17 "c:/users/plu/documents/petetrlu/kitchen/spices/airplay4.4/s3e/h/std/malloc.h" 2



void *calloc(size_t nmemb, size_t size);
void *malloc(size_t size);
void free(void *ptr);
void *realloc(void *ptr, size_t size);


# 17 "c:/users/plu/documents/petetrlu/kitchen/spices/airplay4.4/s3e/h/std/stdlib.h" 2
# 28 "c:/users/plu/documents/petetrlu/kitchen/spices/airplay4.4/s3e/h/std/stdlib.h"


double atof(const char* string);
int atoi(const char *nptr);
long atol(const char *nptr);
int64_t atoll(const char *nptr);
int64_t atoq(const char *nptr);
int abs(int j);
long int labs(long int j);
int64_t llabs(int64_t j);
void qsort(void *base, size_t nmemb, size_t size, int(*compar)(const void *, const void *));
void *bsearch(const void *key, const void *base, size_t nmemb, size_t size, int (*compar)(const void *, const void *));
void abort(void);
int putenv(char *string);
char *getenv(const char *name);
int setenv(const char *name, const char *value, int overwrite);
int unsetenv(const char *name);
void exit(int status) __attribute__ ((noreturn));
void _exit(int status) __attribute__ ((noreturn));
void _Exit(int status) __attribute__ ((noreturn));
unsigned long int strtoul(const char *nptr, char **endptr, int base);
uint64_t strtoull(const char *nptr, char **endptr, int base);
long int strtol(const char *nptr, char **endptr, int base);
int64_t strtoll(const char *nptr, char **endptr, int base);
double strtod(const char *nptr, char **endptr);
float strtof(const char *nptr, char **endptr);
long double strtold(const char *nptr, char **endptr);
int atexit(void (*function)(void));
int system(const char *command);
int posix_memalign(void **memptr, size_t alignment, size_t size);
char *mktemp(char *templ);
int mkstemp(char *templ);



int rand(void);
void srand(unsigned int seed);

long int random(void);
void srandom(unsigned int seed);

size_t __ctype_get_mb_cur_max();


int mblen(const char *s, size_t n);
int mbtowc(wchar_t *pwc, const char *s, size_t n);
int wctomb(char *s, wchar_t wc);
size_t mbstowcs(wchar_t *dest, const char *src, size_t n);
size_t wcstombs(char *dest, const wchar_t *src, size_t n);

typedef struct
{
    int quot;
    int rem;
} div_t;

typedef struct
{
    int quot;
    int rem;
} ldiv_t;

typedef struct
{
    int64_t quot;
    int64_t rem;
} lldiv_t;

div_t div(int numerator, int denominator);
ldiv_t ldiv(long numerator, long denominator);
lldiv_t lldiv(int64_t numerator, int64_t denominator);
# 117 "c:/users/plu/documents/petetrlu/kitchen/spices/airplay4.4/s3e/h/std/stdlib.h"

# 354 "c:/users/plu/documents/petetrlu/kitchen/spices/airplay4.4/modules/third_party/libpng/upstream/pngconf.h" 2
# 378 "c:/users/plu/documents/petetrlu/kitchen/spices/airplay4.4/modules/third_party/libpng/upstream/pngconf.h"
# 1 "c:/users/plu/documents/petetrlu/kitchen/spices/airplay4.4/s3e/h/std/math.h" 1
# 17 "c:/users/plu/documents/petetrlu/kitchen/spices/airplay4.4/s3e/h/std/math.h"

# 48 "c:/users/plu/documents/petetrlu/kitchen/spices/airplay4.4/s3e/h/std/math.h"
double pow(double x, double y);
float powf(float x, float y);
long double powl(long double x, long double y);

double sin(double x);
float sinf(float x);
long double sinl(long double x);

double asin(double x);
float asinf(float x);
long double asinl(long double x);

double sinh(double x);
float sinhf(float x);
long double sinhl(long double x);

double cos(double x);
float cosf(float x);
long double cosl(long double x);

double cosh(double x);
float coshf(float x);
long double coshl(long double x);

double acos(double x);
float acosf(float x);
long double acosl(long double x);

double tan(double x);
float tanf(float x);
long double tanl(long double x);

double atan(double x);
float atanf(float x);
long double atanl( long double x);

double atan2(double y, double x);
float atan2f(float y, float x);
long double atan2l(long double y, long double x);

double tanh(double x);
float tanhf(float x);
long double tanhl(long double x);

double fabs(double x);
float fabsf(float x);
long double fabsl(long double x);

double ceil(double x);
float ceilf(float x);
long double ceill(long double x);

double floor(double x);
float floorf(float x);
long double floorl(long double x);

double sqrt(double x);
float sqrtf(float x);
long double sqrtl(long double x);

double cbrt(double x);
float cbrtf(float x);
long double cbrtl(long double x);

double fmod(double x, double y);
float fmodf(float x, float y);
long double fmodl(long double x, long double y);

double modf(double x, double *iptr);
float modff(float x, float *iptr);
long double modfl(long double x, long double *iptr);

double ldexp(double x, int exp);
float ldexpf(float x, int exp);
long double ldexpl(long double x, int exp);

double exp(double x);
float expf(float x);
long double expl(long double x);

double log(double x);
float logf(float x);
long double logl(long double x);

double log10(double x);
float log10f(float x);
long double log10l(long double x);

double rint(double x);
float rintf(float x);
long double rintl(long double x);

double round(double x);
float roundf(float x);
long double roundl(long double x);

double frexp(double x, int *exp);
float frexpf(float x, int *exp);
long double frexpl(long double x, int *exp);

long int lround(double x);
long int lroundf(float x);
long int lroundl(long double x);

int64 llround(double x);
int64 llroundf(float x);
int64 llroundl(long double x);

double nextafter(double x, double y);
float nextafterf(float x, float y);
long double nextafterl(long double x, long double y);

double nexttoward(double x, long double y);
float nexttowardf(float x, long double y);
long double nexttowardl(long double x, long double y);

double trunc(double x);
float truncf(float x);
long double truncl(long double x);

double hypot(double x, double y);

double copysign(double x, double y);
float copysignf(float x, float y);
long double copysignl(long double x, long double y);

int finite(double x);




# 1 "c:/users/plu/documents/petetrlu/kitchen/spices/airplay4.4/s3e/h/std/math_gcc.h" 1
# 26 "c:/users/plu/documents/petetrlu/kitchen/spices/airplay4.4/s3e/h/std/math_gcc.h"
int __isnanf(float);
int __isnand(double);
int __isinff(float);
int __isinfd(double);
int __signbitf(float);
int __signbitd(double);
int __fpclassify(double);
int __fpclassifyf(float);
int __fpclassifyl(double);
# 180 "c:/users/plu/documents/petetrlu/kitchen/spices/airplay4.4/s3e/h/std/math.h" 2
# 205 "c:/users/plu/documents/petetrlu/kitchen/spices/airplay4.4/s3e/h/std/math.h"

# 379 "c:/users/plu/documents/petetrlu/kitchen/spices/airplay4.4/modules/third_party/libpng/upstream/pngconf.h" 2
# 1109 "c:/users/plu/documents/petetrlu/kitchen/spices/airplay4.4/modules/third_party/libpng/upstream/pngconf.h"
# 1 "c:/users/plu/documents/petetrlu/kitchen/spices/airplay4.4/s3e/h/std/time.h" 1
# 19 "c:/users/plu/documents/petetrlu/kitchen/spices/airplay4.4/s3e/h/std/time.h"
typedef unsigned int time_t;





typedef long clock_t;




struct tm
{
    int tm_sec;
    int tm_min;
    int tm_hour;
    int tm_mday;
    int tm_mon;
    int tm_year;
    int tm_wday;
    int tm_yday;
    int tm_isdst;
};



struct timespec
{
    time_t tv_sec;
    long int tv_nsec;
};








time_t time(time_t *t);

void tzset(void);

char *asctime(const struct tm *tm);
char *asctime_r(const struct tm *tm, char *buf);

char *ctime(const time_t *timep);
char *ctime_r(const time_t *timep, char *buf);

struct tm *gmtime(const time_t *timep);
struct tm *gmtime_r(const time_t *timep, struct tm *result);

struct tm *localtime(const time_t *timep);
struct tm *localtime_r(const time_t *timep, struct tm *result);

time_t mktime(struct tm *tm);

size_t strftime(char *s, size_t max, const char *format, const struct tm *tm);

clock_t clock(void);

double difftime(time_t time1, time_t time0);

int nanosleep(const struct timespec *req, struct timespec *rem);

extern int daylight;
extern long int timezone;


    extern char *_tzname[2];
# 97 "c:/users/plu/documents/petetrlu/kitchen/spices/airplay4.4/s3e/h/std/time.h"
typedef int clockid_t;

int clock_getres(clockid_t clk_id, struct timespec *res);

int clock_gettime(clockid_t clk_id, struct timespec *tp);

int clock_settime(clockid_t clk_id, const struct timespec *tp);



# 1 "c:/users/plu/documents/petetrlu/kitchen/spices/airplay4.4/s3e/h/std/sys/time.h" 1
# 16 "c:/users/plu/documents/petetrlu/kitchen/spices/airplay4.4/s3e/h/std/sys/time.h"
# 1 "c:/users/plu/documents/petetrlu/kitchen/spices/airplay4.4/s3e/h/std/time.h" 1
# 17 "c:/users/plu/documents/petetrlu/kitchen/spices/airplay4.4/s3e/h/std/sys/time.h" 2





typedef long suseconds_t;
struct timeval
{
    time_t tv_sec;
    suseconds_t tv_usec;
};

struct timezone
{
    int tz_minuteswest;
    int tz_dsttime;
};

int gettimeofday(struct timeval *tv, struct timezone *tz);
int settimeofday(const struct timeval *tv , const struct timezone *tz);

int utimes(const char *filename, const struct timeval times[2]);


# 108 "c:/users/plu/documents/petetrlu/kitchen/spices/airplay4.4/s3e/h/std/time.h" 2
# 1110 "c:/users/plu/documents/petetrlu/kitchen/spices/airplay4.4/modules/third_party/libpng/upstream/pngconf.h" 2
# 1122 "c:/users/plu/documents/petetrlu/kitchen/spices/airplay4.4/modules/third_party/libpng/upstream/pngconf.h"
typedef unsigned long png_uint_32;
typedef long png_int_32;
typedef unsigned short png_uint_16;
typedef short png_int_16;
typedef unsigned char png_byte;







   typedef size_t png_size_t;
# 1199 "c:/users/plu/documents/petetrlu/kitchen/spices/airplay4.4/modules/third_party/libpng/upstream/pngconf.h"
typedef png_int_32 png_fixed_point;


typedef void * png_voidp;
typedef png_byte * png_bytep;
typedef png_uint_32 * png_uint_32p;
typedef png_int_32 * png_int_32p;
typedef png_uint_16 * png_uint_16p;
typedef png_int_16 * png_int_16p;
typedef const char * png_const_charp;
typedef char * png_charp;
typedef png_fixed_point * png_fixed_point_p;





typedef FILE * png_FILE_p;




typedef double * png_doublep;



typedef png_byte * * png_bytepp;
typedef png_uint_32 * * png_uint_32pp;
typedef png_int_32 * * png_int_32pp;
typedef png_uint_16 * * png_uint_16pp;
typedef png_int_16 * * png_int_16pp;
typedef const char * * png_const_charpp;
typedef char * * png_charpp;
typedef png_fixed_point * * png_fixed_point_pp;

typedef double * * png_doublepp;



typedef char * * * png_charppp;
# 1247 "c:/users/plu/documents/petetrlu/kitchen/spices/airplay4.4/modules/third_party/libpng/upstream/pngconf.h"
typedef charf * png_zcharp;
typedef charf * * png_zcharpp;
typedef z_stream * png_zstreamp;
# 470 "c:/users/plu/documents/petetrlu/kitchen/spices/airplay4.4/modules/third_party/libpng/upstream/png.h" 2
# 549 "c:/users/plu/documents/petetrlu/kitchen/spices/airplay4.4/modules/third_party/libpng/upstream/png.h"
extern const char png_libpng_ver[18];
# 558 "c:/users/plu/documents/petetrlu/kitchen/spices/airplay4.4/modules/third_party/libpng/upstream/png.h"
extern const int png_pass_start[7];
extern const int png_pass_inc[7];
extern const int png_pass_ystart[7];
extern const int png_pass_yinc[7];
extern const int png_pass_mask[7];
extern const int png_pass_dsp_mask[7];
# 575 "c:/users/plu/documents/petetrlu/kitchen/spices/airplay4.4/modules/third_party/libpng/upstream/png.h"
typedef struct png_color_struct
{
   png_byte red;
   png_byte green;
   png_byte blue;
} png_color;
typedef png_color * png_colorp;
typedef png_color * * png_colorpp;

typedef struct png_color_16_struct
{
   png_byte index;
   png_uint_16 red;
   png_uint_16 green;
   png_uint_16 blue;
   png_uint_16 gray;
} png_color_16;
typedef png_color_16 * png_color_16p;
typedef png_color_16 * * png_color_16pp;

typedef struct png_color_8_struct
{
   png_byte red;
   png_byte green;
   png_byte blue;
   png_byte gray;
   png_byte alpha;
} png_color_8;
typedef png_color_8 * png_color_8p;
typedef png_color_8 * * png_color_8pp;





typedef struct png_sPLT_entry_struct
{
   png_uint_16 red;
   png_uint_16 green;
   png_uint_16 blue;
   png_uint_16 alpha;
   png_uint_16 frequency;
} png_sPLT_entry;
typedef png_sPLT_entry * png_sPLT_entryp;
typedef png_sPLT_entry * * png_sPLT_entrypp;






typedef struct png_sPLT_struct
{
   png_charp name;
   png_byte depth;
   png_sPLT_entryp entries;
   png_int_32 nentries;
} png_sPLT_t;
typedef png_sPLT_t * png_sPLT_tp;
typedef png_sPLT_t * * png_sPLT_tpp;
# 645 "c:/users/plu/documents/petetrlu/kitchen/spices/airplay4.4/modules/third_party/libpng/upstream/png.h"
typedef struct png_text_struct
{
   int compression;




   png_charp key;
   png_charp text;

   png_size_t text_length;







} png_text;
typedef png_text * png_textp;
typedef png_text * * png_textpp;
# 684 "c:/users/plu/documents/petetrlu/kitchen/spices/airplay4.4/modules/third_party/libpng/upstream/png.h"
typedef struct png_time_struct
{
   png_uint_16 year;
   png_byte month;
   png_byte day;
   png_byte hour;
   png_byte minute;
   png_byte second;
} png_time;
typedef png_time * png_timep;
typedef png_time * * png_timepp;
# 703 "c:/users/plu/documents/petetrlu/kitchen/spices/airplay4.4/modules/third_party/libpng/upstream/png.h"
typedef struct png_unknown_chunk_t
{
    png_byte name[5];
    png_byte *data;
    png_size_t size;


    png_byte location;
}
png_unknown_chunk;
typedef png_unknown_chunk * png_unknown_chunkp;
typedef png_unknown_chunk * * png_unknown_chunkpp;
# 756 "c:/users/plu/documents/petetrlu/kitchen/spices/airplay4.4/modules/third_party/libpng/upstream/png.h"
typedef struct png_info_struct
{

   png_uint_32 width;
   png_uint_32 height;
   png_uint_32 valid;
   png_uint_32 rowbytes;
   png_colorp palette;
   png_uint_16 num_palette;
   png_uint_16 num_trans;
   png_byte bit_depth;
   png_byte color_type;

   png_byte compression_type;
   png_byte filter_type;
   png_byte interlace_type;


   png_byte channels;
   png_byte pixel_depth;
   png_byte spare_byte;
   png_byte signature[8];
# 790 "c:/users/plu/documents/petetrlu/kitchen/spices/airplay4.4/modules/third_party/libpng/upstream/png.h"
   float gamma;





   png_byte srgb_intent;
# 808 "c:/users/plu/documents/petetrlu/kitchen/spices/airplay4.4/modules/third_party/libpng/upstream/png.h"
   int num_text;
   int max_text;
   png_textp text;






   png_time mod_time;
# 827 "c:/users/plu/documents/petetrlu/kitchen/spices/airplay4.4/modules/third_party/libpng/upstream/png.h"
   png_color_8 sig_bit;
# 841 "c:/users/plu/documents/petetrlu/kitchen/spices/airplay4.4/modules/third_party/libpng/upstream/png.h"
   png_bytep trans;
   png_color_16 trans_values;
# 852 "c:/users/plu/documents/petetrlu/kitchen/spices/airplay4.4/modules/third_party/libpng/upstream/png.h"
   png_color_16 background;
# 861 "c:/users/plu/documents/petetrlu/kitchen/spices/airplay4.4/modules/third_party/libpng/upstream/png.h"
   png_int_32 x_offset;
   png_int_32 y_offset;
   png_byte offset_unit_type;







   png_uint_32 x_pixels_per_unit;
   png_uint_32 y_pixels_per_unit;
   png_byte phys_unit_type;
# 883 "c:/users/plu/documents/petetrlu/kitchen/spices/airplay4.4/modules/third_party/libpng/upstream/png.h"
   png_uint_16p hist;
# 894 "c:/users/plu/documents/petetrlu/kitchen/spices/airplay4.4/modules/third_party/libpng/upstream/png.h"
   float x_white;
   float y_white;
   float x_red;
   float y_red;
   float x_green;
   float y_green;
   float x_blue;
   float y_blue;
# 917 "c:/users/plu/documents/petetrlu/kitchen/spices/airplay4.4/modules/third_party/libpng/upstream/png.h"
   png_charp pcal_purpose;
   png_int_32 pcal_X0;
   png_int_32 pcal_X1;
   png_charp pcal_units;
   png_charpp pcal_params;
   png_byte pcal_type;
   png_byte pcal_nparams;




   png_uint_32 free_me;




   png_unknown_chunkp unknown_chunks;
   png_size_t unknown_chunks_num;




   png_charp iccp_name;
   png_charp iccp_profile;

   png_uint_32 iccp_proflen;
   png_byte iccp_compression;




   png_sPLT_tp splt_palettes;
   png_uint_32 splt_palettes_num;
# 960 "c:/users/plu/documents/petetrlu/kitchen/spices/airplay4.4/modules/third_party/libpng/upstream/png.h"
   png_byte scal_unit;

   double scal_pixel_width;
   double scal_pixel_height;


   png_charp scal_s_width;
   png_charp scal_s_height;






   png_bytepp row_pointers;



   png_fixed_point int_gamma;



   png_fixed_point int_x_white;
   png_fixed_point int_y_white;
   png_fixed_point int_x_red;
   png_fixed_point int_y_red;
   png_fixed_point int_x_green;
   png_fixed_point int_y_green;
   png_fixed_point int_x_blue;
   png_fixed_point int_y_blue;


} png_info;

typedef png_info * png_infop;
typedef png_info * * png_infopp;
# 1098 "c:/users/plu/documents/petetrlu/kitchen/spices/airplay4.4/modules/third_party/libpng/upstream/png.h"
typedef struct png_row_info_struct
{
   png_uint_32 width;
   png_uint_32 rowbytes;
   png_byte color_type;
   png_byte bit_depth;
   png_byte channels;
   png_byte pixel_depth;
} png_row_info;

typedef png_row_info * png_row_infop;
typedef png_row_info * * png_row_infopp;







typedef struct png_struct_def png_struct;
typedef png_struct * png_structp;

typedef void ( *png_error_ptr) (png_structp, png_const_charp);
typedef void ( *png_rw_ptr) (png_structp, png_bytep, png_size_t);
typedef void ( *png_flush_ptr) (png_structp);
typedef void ( *png_read_status_ptr) (png_structp, png_uint_32, int);

typedef void ( *png_write_status_ptr) (png_structp, png_uint_32, int);



typedef void ( *png_progressive_info_ptr) (png_structp, png_infop);
typedef void ( *png_progressive_end_ptr) (png_structp, png_infop);
typedef void ( *png_progressive_row_ptr) (png_structp, png_bytep, png_uint_32, int);






typedef void ( *png_user_transform_ptr) (png_structp, png_row_infop, png_bytep);




typedef int ( *png_user_chunk_ptr) (png_structp, png_unknown_chunkp);


typedef void ( *png_unknown_chunk_ptr) (png_structp);
# 1172 "c:/users/plu/documents/petetrlu/kitchen/spices/airplay4.4/modules/third_party/libpng/upstream/png.h"
typedef png_voidp (*png_malloc_ptr) (png_structp, png_size_t);
typedef void (*png_free_ptr) (png_structp, png_voidp);
# 1182 "c:/users/plu/documents/petetrlu/kitchen/spices/airplay4.4/modules/third_party/libpng/upstream/png.h"
struct png_struct_def
{

   jmp_buf jmpbuf;

   png_error_ptr error_fn;
   png_error_ptr warning_fn;
   png_voidp error_ptr;
   png_rw_ptr write_data_fn;
   png_rw_ptr read_data_fn;
   png_voidp io_ptr;


   png_user_transform_ptr read_user_transform_fn;



   png_user_transform_ptr write_user_transform_fn;






   png_voidp user_transform_ptr;
   png_byte user_transform_depth;
   png_byte user_transform_channels;



   png_uint_32 mode;
   png_uint_32 flags;
   png_uint_32 transformations;

   z_stream zstream;
   png_bytep zbuf;
   png_size_t zbuf_size;
   int zlib_level;
   int zlib_method;
   int zlib_window_bits;
   int zlib_mem_level;
   int zlib_strategy;

   png_uint_32 width;
   png_uint_32 height;
   png_uint_32 num_rows;
   png_uint_32 usr_width;
   png_uint_32 rowbytes;
   png_uint_32 irowbytes;
   png_uint_32 iwidth;
   png_uint_32 row_number;
   png_bytep prev_row;
   png_bytep row_buf;

   png_bytep sub_row;
   png_bytep up_row;
   png_bytep avg_row;
   png_bytep paeth_row;

   png_row_info row_info;

   png_uint_32 idat_size;
   png_uint_32 crc;
   png_colorp palette;
   png_uint_16 num_palette;
   png_uint_16 num_trans;
   png_byte chunk_name[5];
   png_byte compression;
   png_byte filter;
   png_byte interlaced;
   png_byte pass;
   png_byte do_filter;
   png_byte color_type;
   png_byte bit_depth;
   png_byte usr_bit_depth;
   png_byte pixel_depth;
   png_byte channels;
   png_byte usr_channels;
   png_byte sig_bytes;





   png_uint_16 filler;




   png_byte background_gamma_type;

   float background_gamma;

   png_color_16 background;

   png_color_16 background_1;




   png_flush_ptr output_flush_fn;
   png_uint_32 flush_dist;
   png_uint_32 flush_rows;



   int gamma_shift;

   float gamma;
   float screen_gamma;




   png_bytep gamma_table;
   png_bytep gamma_from_1;
   png_bytep gamma_to_1;
   png_uint_16pp gamma_16_table;
   png_uint_16pp gamma_16_from_1;
   png_uint_16pp gamma_16_to_1;



   png_color_8 sig_bit;



   png_color_8 shift;




   png_bytep trans;
   png_color_16 trans_values;


   png_read_status_ptr read_row_fn;
   png_write_status_ptr write_row_fn;

   png_progressive_info_ptr info_fn;
   png_progressive_row_ptr row_fn;
   png_progressive_end_ptr end_fn;
   png_bytep save_buffer_ptr;
   png_bytep save_buffer;
   png_bytep current_buffer_ptr;
   png_bytep current_buffer;
   png_uint_32 push_length;
   png_uint_32 skip_length;
   png_size_t save_buffer_size;
   png_size_t save_buffer_max;
   png_size_t buffer_size;
   png_size_t current_buffer_size;
   int process_mode;
   int cur_palette;


     png_size_t current_text_size;
     png_size_t current_text_left;
     png_charp current_text;
     png_charp current_text_ptr;
# 1355 "c:/users/plu/documents/petetrlu/kitchen/spices/airplay4.4/modules/third_party/libpng/upstream/png.h"
   png_bytep palette_lookup;
   png_bytep dither_index;



   png_uint_16p hist;



   png_byte heuristic_method;
   png_byte num_prev_filters;
   png_bytep prev_filters;
   png_uint_16p filter_weights;
   png_uint_16p inv_filter_weights;
   png_uint_16p filter_costs;
   png_uint_16p inv_filter_costs;



   png_charp time_buffer;





   png_uint_32 free_me;



   png_voidp user_chunk_ptr;
   png_user_chunk_ptr read_user_chunk_fn;



   int num_chunk_list;
   png_bytep chunk_list;




   png_byte rgb_to_gray_status;

   png_uint_16 rgb_to_gray_red_coeff;
   png_uint_16 rgb_to_gray_green_coeff;
   png_uint_16 rgb_to_gray_blue_coeff;
# 1410 "c:/users/plu/documents/petetrlu/kitchen/spices/airplay4.4/modules/third_party/libpng/upstream/png.h"
   png_uint_32 mng_features_permitted;





   png_fixed_point int_gamma;




   png_byte filter_type;
# 1433 "c:/users/plu/documents/petetrlu/kitchen/spices/airplay4.4/modules/third_party/libpng/upstream/png.h"
   png_byte mmx_bitdepth_threshold;
   png_uint_32 mmx_rowbytes_threshold;

   png_uint_32 asm_flags;





   png_voidp mem_ptr;
   png_malloc_ptr malloc_fn;
   png_free_ptr free_fn;



   png_bytep big_row_buf;



   png_bytep dither_sort;
   png_bytep index_to_palette;

   png_bytep palette_to_index;




   png_byte compression_type;


   png_uint_32 user_width_max;
   png_uint_32 user_height_max;





   png_unknown_chunk unknown_chunk;



  png_uint_32 old_big_row_buf_size, old_prev_row_size;


  png_charp chunkdata;

};





typedef png_structp version_1_2_34;

typedef png_struct * * png_structpp;
# 1496 "c:/users/plu/documents/petetrlu/kitchen/spices/airplay4.4/modules/third_party/libpng/upstream/png.h"
extern png_uint_32 png_access_version_number (void);




extern void png_set_sig_bytes (png_structp png_ptr, int num_bytes);







extern int png_sig_cmp (png_bytep sig, png_size_t start, png_size_t num_to_check);





extern int png_check_sig (png_bytep sig, int num);


extern png_structp png_create_read_struct
   (png_const_charp user_png_ver, png_voidp error_ptr, png_error_ptr error_fn, png_error_ptr warn_fn);



extern png_structp png_create_write_struct
   (png_const_charp user_png_ver, png_voidp error_ptr, png_error_ptr error_fn, png_error_ptr warn_fn);



extern png_uint_32 png_get_compression_buffer_size
   (png_structp png_ptr);



extern void png_set_compression_buffer_size
   (png_structp png_ptr, png_uint_32 size);



extern int png_reset_zstream (png_structp png_ptr);



extern png_structp png_create_read_struct_2
   (png_const_charp user_png_ver, png_voidp error_ptr, png_error_ptr error_fn, png_error_ptr warn_fn, png_voidp mem_ptr, png_malloc_ptr malloc_fn, png_free_ptr free_fn);


extern png_structp png_create_write_struct_2
   (png_const_charp user_png_ver, png_voidp error_ptr, png_error_ptr error_fn, png_error_ptr warn_fn, png_voidp mem_ptr, png_malloc_ptr malloc_fn, png_free_ptr free_fn);





extern void png_write_chunk (png_structp png_ptr, png_bytep chunk_name, png_bytep data, png_size_t length);



extern void png_write_chunk_start (png_structp png_ptr, png_bytep chunk_name, png_uint_32 length);



extern void png_write_chunk_data (png_structp png_ptr, png_bytep data, png_size_t length);



extern void png_write_chunk_end (png_structp png_ptr);


extern png_infop png_create_info_struct
   (png_structp png_ptr);



extern void png_info_init (png_infop info_ptr);





extern void png_info_init_3 (png_infopp info_ptr, png_size_t png_info_struct_size);



extern void png_write_info_before_PLTE (png_structp png_ptr, png_infop info_ptr);

extern void png_write_info (png_structp png_ptr, png_infop info_ptr);




extern void png_read_info (png_structp png_ptr, png_infop info_ptr);




extern png_charp png_convert_to_rfc1123
   (png_structp png_ptr, png_timep ptime);






extern void png_convert_from_struct_tm (png_timep ptime, struct tm * ttime);



extern void png_convert_from_time_t (png_timep ptime, time_t ttime);






extern void png_set_expand (png_structp png_ptr);

extern void png_set_expand_gray_1_2_4_to_8 (png_structp png_ptr);


extern void png_set_palette_to_rgb (png_structp png_ptr);
extern void png_set_tRNS_to_alpha (png_structp png_ptr);


extern void png_set_gray_1_2_4_to_8 (png_structp png_ptr);





extern void png_set_bgr (png_structp png_ptr);




extern void png_set_gray_to_rgb (png_structp png_ptr);





extern void png_set_rgb_to_gray (png_structp png_ptr, int error_action, double red, double green );


extern void png_set_rgb_to_gray_fixed (png_structp png_ptr, int error_action, png_fixed_point red, png_fixed_point green );

extern png_byte png_get_rgb_to_gray_status (png_structp png_ptr);



extern void png_build_grayscale_palette (int bit_depth, png_colorp palette);



extern void png_set_strip_alpha (png_structp png_ptr);




extern void png_set_swap_alpha (png_structp png_ptr);




extern void png_set_invert_alpha (png_structp png_ptr);




extern void png_set_filler (png_structp png_ptr, png_uint_32 filler, int flags);






extern void png_set_add_alpha (png_structp png_ptr, png_uint_32 filler, int flags);






extern void png_set_swap (png_structp png_ptr);




extern void png_set_packing (png_structp png_ptr);




extern void png_set_packswap (png_structp png_ptr);




extern void png_set_shift (png_structp png_ptr, png_color_8p true_bits);






extern int png_set_interlace_handling (png_structp png_ptr);




extern void png_set_invert_mono (png_structp png_ptr);





extern void png_set_background (png_structp png_ptr, png_color_16p background_color, int background_gamma_code, int need_expand, double background_gamma);
# 1727 "c:/users/plu/documents/petetrlu/kitchen/spices/airplay4.4/modules/third_party/libpng/upstream/png.h"
extern void png_set_strip_16 (png_structp png_ptr);




extern void png_set_dither (png_structp png_ptr, png_colorp palette, int num_palette, int maximum_colors, png_uint_16p histogram, int full_dither);







extern void png_set_gamma (png_structp png_ptr, double screen_gamma, double default_file_gamma);
# 1750 "c:/users/plu/documents/petetrlu/kitchen/spices/airplay4.4/modules/third_party/libpng/upstream/png.h"
extern void png_permit_empty_plte (png_structp png_ptr, int empty_plte_permitted);






extern void png_set_flush (png_structp png_ptr, int nrows);

extern void png_write_flush (png_structp png_ptr);



extern void png_start_read_image (png_structp png_ptr);


extern void png_read_update_info (png_structp png_ptr, png_infop info_ptr);




extern void png_read_rows (png_structp png_ptr, png_bytepp row, png_bytepp display_row, png_uint_32 num_rows);





extern void png_read_row (png_structp png_ptr, png_bytep row, png_bytep display_row);






extern void png_read_image (png_structp png_ptr, png_bytepp image);




extern void png_write_row (png_structp png_ptr, png_bytep row);



extern void png_write_rows (png_structp png_ptr, png_bytepp row, png_uint_32 num_rows);



extern void png_write_image (png_structp png_ptr, png_bytepp image);



extern void png_write_end (png_structp png_ptr, png_infop info_ptr);




extern void png_read_end (png_structp png_ptr, png_infop info_ptr);




extern void png_destroy_info_struct (png_structp png_ptr, png_infopp info_ptr_ptr);



extern void png_destroy_read_struct (png_structpp png_ptr_ptr, png_infopp info_ptr_ptr, png_infopp end_info_ptr_ptr);



extern void png_read_destroy (png_structp png_ptr, png_infop info_ptr, png_infop end_info_ptr);



extern void png_destroy_write_struct
   (png_structpp png_ptr_ptr, png_infopp info_ptr_ptr);


extern void png_write_destroy (png_structp png_ptr);


extern void png_set_crc_action (png_structp png_ptr, int crit_action, int ancil_action);
# 1860 "c:/users/plu/documents/petetrlu/kitchen/spices/airplay4.4/modules/third_party/libpng/upstream/png.h"
extern void png_set_filter (png_structp png_ptr, int method, int filters);
# 1917 "c:/users/plu/documents/petetrlu/kitchen/spices/airplay4.4/modules/third_party/libpng/upstream/png.h"
extern void png_set_filter_heuristics (png_structp png_ptr, int heuristic_method, int num_weights, png_doublep filter_weights, png_doublep filter_costs);
# 1938 "c:/users/plu/documents/petetrlu/kitchen/spices/airplay4.4/modules/third_party/libpng/upstream/png.h"
extern void png_set_compression_level (png_structp png_ptr, int level);


extern void png_set_compression_mem_level
   (png_structp png_ptr, int mem_level);

extern void png_set_compression_strategy
   (png_structp png_ptr, int strategy);

extern void png_set_compression_window_bits
   (png_structp png_ptr, int window_bits);

extern void png_set_compression_method (png_structp png_ptr, int method);
# 1964 "c:/users/plu/documents/petetrlu/kitchen/spices/airplay4.4/modules/third_party/libpng/upstream/png.h"
extern void png_init_io (png_structp png_ptr, png_FILE_p fp);
# 1975 "c:/users/plu/documents/petetrlu/kitchen/spices/airplay4.4/modules/third_party/libpng/upstream/png.h"
extern void png_set_error_fn (png_structp png_ptr, png_voidp error_ptr, png_error_ptr error_fn, png_error_ptr warning_fn);



extern png_voidp png_get_error_ptr (png_structp png_ptr);






extern void png_set_write_fn (png_structp png_ptr, png_voidp io_ptr, png_rw_ptr write_data_fn, png_flush_ptr output_flush_fn);



extern void png_set_read_fn (png_structp png_ptr, png_voidp io_ptr, png_rw_ptr read_data_fn);



extern png_voidp png_get_io_ptr (png_structp png_ptr);

extern void png_set_read_status_fn (png_structp png_ptr, png_read_status_ptr read_row_fn);


extern void png_set_write_status_fn (png_structp png_ptr, png_write_status_ptr write_row_fn);




extern void png_set_mem_fn (png_structp png_ptr, png_voidp mem_ptr, png_malloc_ptr malloc_fn, png_free_ptr free_fn);


extern png_voidp png_get_mem_ptr (png_structp png_ptr);




extern void png_set_read_user_transform_fn (png_structp png_ptr, png_user_transform_ptr read_user_transform_fn);





extern void png_set_write_user_transform_fn (png_structp png_ptr, png_user_transform_ptr write_user_transform_fn);






extern void png_set_user_transform_info (png_structp png_ptr, png_voidp user_transform_ptr, int user_transform_depth, int user_transform_channels);



extern png_voidp png_get_user_transform_ptr
   (png_structp png_ptr);



extern void png_set_read_user_chunk_fn (png_structp png_ptr, png_voidp user_chunk_ptr, png_user_chunk_ptr read_user_chunk_fn);

extern png_voidp png_get_user_chunk_ptr (png_structp png_ptr);







extern void png_set_progressive_read_fn (png_structp png_ptr, png_voidp progressive_ptr, png_progressive_info_ptr info_fn, png_progressive_row_ptr row_fn, png_progressive_end_ptr end_fn);





extern png_voidp png_get_progressive_ptr
   (png_structp png_ptr);


extern void png_process_data (png_structp png_ptr, png_infop info_ptr, png_bytep buffer, png_size_t buffer_size);





extern void png_progressive_combine_row (png_structp png_ptr, png_bytep old_row, png_bytep new_row);



extern png_voidp png_malloc (png_structp png_ptr, png_uint_32 size);






extern png_voidp png_malloc_warn (png_structp png_ptr, png_uint_32 size);




extern void png_free (png_structp png_ptr, png_voidp ptr);
# 2088 "c:/users/plu/documents/petetrlu/kitchen/spices/airplay4.4/modules/third_party/libpng/upstream/png.h"
extern void png_free_data (png_structp png_ptr, png_infop info_ptr, png_uint_32 free_me, int num);




extern void png_data_freer (png_structp png_ptr, png_infop info_ptr, int freer, png_uint_32 mask);
# 2116 "c:/users/plu/documents/petetrlu/kitchen/spices/airplay4.4/modules/third_party/libpng/upstream/png.h"
extern png_voidp png_malloc_default (png_structp png_ptr, png_uint_32 size);

extern void png_free_default (png_structp png_ptr, png_voidp ptr);



extern png_voidp png_memcpy_check (png_structp png_ptr, png_voidp s1, png_voidp s2, png_uint_32 size);


extern png_voidp png_memset_check (png_structp png_ptr, png_voidp s1, int value, png_uint_32 size);
# 2135 "c:/users/plu/documents/petetrlu/kitchen/spices/airplay4.4/modules/third_party/libpng/upstream/png.h"
extern void png_error (png_structp png_ptr, png_const_charp error_message);



extern void png_chunk_error (png_structp png_ptr, png_const_charp error_message);
# 2148 "c:/users/plu/documents/petetrlu/kitchen/spices/airplay4.4/modules/third_party/libpng/upstream/png.h"
extern void png_warning (png_structp png_ptr, png_const_charp warning_message);




extern void png_chunk_warning (png_structp png_ptr, png_const_charp warning_message);
# 2171 "c:/users/plu/documents/petetrlu/kitchen/spices/airplay4.4/modules/third_party/libpng/upstream/png.h"
extern png_uint_32 png_get_valid (png_structp png_ptr, png_infop info_ptr, png_uint_32 flag);



extern png_uint_32 png_get_rowbytes (png_structp png_ptr, png_infop info_ptr);





extern png_bytepp png_get_rows (png_structp png_ptr, png_infop info_ptr);



extern void png_set_rows (png_structp png_ptr, png_infop info_ptr, png_bytepp row_pointers);




extern png_byte png_get_channels (png_structp png_ptr, png_infop info_ptr);




extern png_uint_32 png_get_image_width (png_structp png_ptr, png_infop info_ptr);



extern png_uint_32 png_get_image_height (png_structp png_ptr, png_infop info_ptr);



extern png_byte png_get_bit_depth (png_structp png_ptr, png_infop info_ptr);



extern png_byte png_get_color_type (png_structp png_ptr, png_infop info_ptr);



extern png_byte png_get_filter_type (png_structp png_ptr, png_infop info_ptr);



extern png_byte png_get_interlace_type (png_structp png_ptr, png_infop info_ptr);



extern png_byte png_get_compression_type (png_structp png_ptr, png_infop info_ptr);



extern png_uint_32 png_get_pixels_per_meter (png_structp png_ptr, png_infop info_ptr);

extern png_uint_32 png_get_x_pixels_per_meter (png_structp png_ptr, png_infop info_ptr);

extern png_uint_32 png_get_y_pixels_per_meter (png_structp png_ptr, png_infop info_ptr);




extern float png_get_pixel_aspect_ratio (png_structp png_ptr, png_infop info_ptr);




extern png_int_32 png_get_x_offset_pixels (png_structp png_ptr, png_infop info_ptr);

extern png_int_32 png_get_y_offset_pixels (png_structp png_ptr, png_infop info_ptr);

extern png_int_32 png_get_x_offset_microns (png_structp png_ptr, png_infop info_ptr);

extern png_int_32 png_get_y_offset_microns (png_structp png_ptr, png_infop info_ptr);





extern png_bytep png_get_signature (png_structp png_ptr, png_infop info_ptr);



extern png_uint_32 png_get_bKGD (png_structp png_ptr, png_infop info_ptr, png_color_16p *background);




extern void png_set_bKGD (png_structp png_ptr, png_infop info_ptr, png_color_16p background);





extern png_uint_32 png_get_cHRM (png_structp png_ptr, png_infop info_ptr, double *white_x, double *white_y, double *red_x, double *red_y, double *green_x, double *green_y, double *blue_x, double *blue_y);





extern png_uint_32 png_get_cHRM_fixed (png_structp png_ptr, png_infop info_ptr, png_fixed_point *int_white_x, png_fixed_point *int_white_y, png_fixed_point *int_red_x, png_fixed_point *int_red_y, png_fixed_point *int_green_x, png_fixed_point *int_green_y, png_fixed_point *int_blue_x, png_fixed_point *int_blue_y);
# 2280 "c:/users/plu/documents/petetrlu/kitchen/spices/airplay4.4/modules/third_party/libpng/upstream/png.h"
extern void png_set_cHRM (png_structp png_ptr, png_infop info_ptr, double white_x, double white_y, double red_x, double red_y, double green_x, double green_y, double blue_x, double blue_y);




extern void png_set_cHRM_fixed (png_structp png_ptr, png_infop info_ptr, png_fixed_point int_white_x, png_fixed_point int_white_y, png_fixed_point int_red_x, png_fixed_point int_red_y, png_fixed_point int_green_x, png_fixed_point int_green_y, png_fixed_point int_blue_x, png_fixed_point int_blue_y);
# 2295 "c:/users/plu/documents/petetrlu/kitchen/spices/airplay4.4/modules/third_party/libpng/upstream/png.h"
extern png_uint_32 png_get_gAMA (png_structp png_ptr, png_infop info_ptr, double *file_gamma);


extern png_uint_32 png_get_gAMA_fixed (png_structp png_ptr, png_infop info_ptr, png_fixed_point *int_file_gamma);





extern void png_set_gAMA (png_structp png_ptr, png_infop info_ptr, double file_gamma);


extern void png_set_gAMA_fixed (png_structp png_ptr, png_infop info_ptr, png_fixed_point int_file_gamma);




extern png_uint_32 png_get_hIST (png_structp png_ptr, png_infop info_ptr, png_uint_16p *hist);




extern void png_set_hIST (png_structp png_ptr, png_infop info_ptr, png_uint_16p hist);



extern png_uint_32 png_get_IHDR (png_structp png_ptr, png_infop info_ptr, png_uint_32 *width, png_uint_32 *height, int *bit_depth, int *color_type, int *interlace_method, int *compression_method, int *filter_method);




extern void png_set_IHDR (png_structp png_ptr, png_infop info_ptr, png_uint_32 width, png_uint_32 height, int bit_depth, int color_type, int interlace_method, int compression_method, int filter_method);





extern png_uint_32 png_get_oFFs (png_structp png_ptr, png_infop info_ptr, png_int_32 *offset_x, png_int_32 *offset_y, int *unit_type);





extern void png_set_oFFs (png_structp png_ptr, png_infop info_ptr, png_int_32 offset_x, png_int_32 offset_y, int unit_type);





extern png_uint_32 png_get_pCAL (png_structp png_ptr, png_infop info_ptr, png_charp *purpose, png_int_32 *X0, png_int_32 *X1, int *type, int *nparams, png_charp *units, png_charpp *params);





extern void png_set_pCAL (png_structp png_ptr, png_infop info_ptr, png_charp purpose, png_int_32 X0, png_int_32 X1, int type, int nparams, png_charp units, png_charpp params);





extern png_uint_32 png_get_pHYs (png_structp png_ptr, png_infop info_ptr, png_uint_32 *res_x, png_uint_32 *res_y, int *unit_type);




extern void png_set_pHYs (png_structp png_ptr, png_infop info_ptr, png_uint_32 res_x, png_uint_32 res_y, int unit_type);



extern png_uint_32 png_get_PLTE (png_structp png_ptr, png_infop info_ptr, png_colorp *palette, int *num_palette);


extern void png_set_PLTE (png_structp png_ptr, png_infop info_ptr, png_colorp palette, int num_palette);



extern png_uint_32 png_get_sBIT (png_structp png_ptr, png_infop info_ptr, png_color_8p *sig_bit);




extern void png_set_sBIT (png_structp png_ptr, png_infop info_ptr, png_color_8p sig_bit);




extern png_uint_32 png_get_sRGB (png_structp png_ptr, png_infop info_ptr, int *intent);




extern void png_set_sRGB (png_structp png_ptr, png_infop info_ptr, int intent);

extern void png_set_sRGB_gAMA_and_cHRM (png_structp png_ptr, png_infop info_ptr, int intent);




extern png_uint_32 png_get_iCCP (png_structp png_ptr, png_infop info_ptr, png_charpp name, int *compression_type, png_charpp profile, png_uint_32 *proflen);






extern void png_set_iCCP (png_structp png_ptr, png_infop info_ptr, png_charp name, int compression_type, png_charp profile, png_uint_32 proflen);






extern png_uint_32 png_get_sPLT (png_structp png_ptr, png_infop info_ptr, png_sPLT_tpp entries);




extern void png_set_sPLT (png_structp png_ptr, png_infop info_ptr, png_sPLT_tp entries, int nentries);





extern png_uint_32 png_get_text (png_structp png_ptr, png_infop info_ptr, png_textp *text_ptr, int *num_text);
# 2432 "c:/users/plu/documents/petetrlu/kitchen/spices/airplay4.4/modules/third_party/libpng/upstream/png.h"
extern void png_set_text (png_structp png_ptr, png_infop info_ptr, png_textp text_ptr, int num_text);




extern png_uint_32 png_get_tIME (png_structp png_ptr, png_infop info_ptr, png_timep *mod_time);




extern void png_set_tIME (png_structp png_ptr, png_infop info_ptr, png_timep mod_time);




extern png_uint_32 png_get_tRNS (png_structp png_ptr, png_infop info_ptr, png_bytep *trans, int *num_trans, png_color_16p *trans_values);





extern void png_set_tRNS (png_structp png_ptr, png_infop info_ptr, png_bytep trans, int num_trans, png_color_16p trans_values);
# 2463 "c:/users/plu/documents/petetrlu/kitchen/spices/airplay4.4/modules/third_party/libpng/upstream/png.h"
extern png_uint_32 png_get_sCAL (png_structp png_ptr, png_infop info_ptr, int *unit, double *width, double *height);
# 2475 "c:/users/plu/documents/petetrlu/kitchen/spices/airplay4.4/modules/third_party/libpng/upstream/png.h"
extern void png_set_sCAL (png_structp png_ptr, png_infop info_ptr, int unit, double width, double height);
# 2495 "c:/users/plu/documents/petetrlu/kitchen/spices/airplay4.4/modules/third_party/libpng/upstream/png.h"
extern void png_set_keep_unknown_chunks (png_structp png_ptr, int keep, png_bytep chunk_list, int num_chunks);

extern void png_set_unknown_chunks (png_structp png_ptr, png_infop info_ptr, png_unknown_chunkp unknowns, int num_unknowns);

extern void png_set_unknown_chunk_location
   (png_structp png_ptr, png_infop info_ptr, int chunk, int location);
extern png_uint_32 png_get_unknown_chunks (png_structp png_ptr, png_infop info_ptr, png_unknown_chunkpp entries);



 int png_handle_as_unknown (png_structp png_ptr, png_bytep chunk_name);






extern void png_set_invalid (png_structp png_ptr, png_infop info_ptr, int mask);




extern void png_read_png (png_structp png_ptr, png_infop info_ptr, int transforms, png_voidp params);



extern void png_write_png (png_structp png_ptr, png_infop info_ptr, int transforms, png_voidp params);
# 2625 "c:/users/plu/documents/petetrlu/kitchen/spices/airplay4.4/modules/third_party/libpng/upstream/png.h"
extern png_charp png_get_copyright (png_structp png_ptr);
extern png_charp png_get_header_ver (png_structp png_ptr);
extern png_charp png_get_header_version (png_structp png_ptr);
extern png_charp png_get_libpng_ver (png_structp png_ptr);


extern png_uint_32 png_permit_mng_features (png_structp png_ptr, png_uint_32 mng_features_permitted);
# 2673 "c:/users/plu/documents/petetrlu/kitchen/spices/airplay4.4/modules/third_party/libpng/upstream/png.h"
extern png_uint_32 png_get_mmx_flagmask
   (int flag_select, int *compilerID);


extern png_uint_32 png_get_asm_flagmask
   (int flag_select);


extern png_uint_32 png_get_asm_flags
   (png_structp png_ptr);


extern png_byte png_get_mmx_bitdepth_threshold
   (png_structp png_ptr);


extern png_uint_32 png_get_mmx_rowbytes_threshold
   (png_structp png_ptr);


extern void png_set_asm_flags
   (png_structp png_ptr, png_uint_32 asm_flags);


extern void png_set_mmx_thresholds
   (png_structp png_ptr, png_byte mmx_bitdepth_threshold, png_uint_32 mmx_rowbytes_threshold);






extern int png_mmx_support (void);





extern void png_set_strip_error_numbers (png_structp png_ptr, png_uint_32 strip_mode);







extern void png_set_user_limits (png_structp png_ptr, png_uint_32 user_width_max, png_uint_32 user_height_max);

extern png_uint_32 png_get_user_width_max (png_structp png_ptr);

extern png_uint_32 png_get_user_height_max (png_structp png_ptr);
# 2784 "c:/users/plu/documents/petetrlu/kitchen/spices/airplay4.4/modules/third_party/libpng/upstream/png.h"
extern png_uint_32 png_get_uint_32 (png_bytep buf);
extern png_uint_16 png_get_uint_16 (png_bytep buf);
extern png_int_32 png_get_int_32 (png_bytep buf);

extern png_uint_32 png_get_uint_31
  (png_structp png_ptr, png_bytep buf);




extern void png_save_uint_32
   (png_bytep buf, png_uint_32 i);
extern void png_save_int_32
   (png_bytep buf, png_int_32 i);





extern void png_save_uint_16
   (png_bytep buf, unsigned int i);
# 2949 "c:/users/plu/documents/petetrlu/kitchen/spices/airplay4.4/modules/third_party/libpng/upstream/png.h"
   extern const png_byte png_sig[8];
# 2981 "c:/users/plu/documents/petetrlu/kitchen/spices/airplay4.4/modules/third_party/libpng/upstream/png.h"
extern png_byte png_IHDR[5];
extern png_byte png_IDAT[5];
extern png_byte png_IEND[5];
extern png_byte png_PLTE[5];
extern png_byte png_bKGD[5];
extern png_byte png_cHRM[5];
extern png_byte png_gAMA[5];
extern png_byte png_hIST[5];
extern png_byte png_iCCP[5];
extern png_byte png_iTXt[5];
extern png_byte png_oFFs[5];
extern png_byte png_pCAL[5];
extern png_byte png_sCAL[5];
extern png_byte png_pHYs[5];
extern png_byte png_sBIT[5];
extern png_byte png_sPLT[5];
extern png_byte png_sRGB[5];
extern png_byte png_tEXt[5];
extern png_byte png_tIME[5];
extern png_byte png_tRNS[5];
extern png_byte png_zTXt[5];






extern void png_read_init (png_structp png_ptr);





extern void png_read_init_3 (png_structpp ptr_ptr, png_const_charp user_png_ver, png_size_t png_struct_size);


extern void png_read_init_2 (png_structp png_ptr, png_const_charp user_png_ver, png_size_t png_struct_size, png_size_t png_info_size);
# 3026 "c:/users/plu/documents/petetrlu/kitchen/spices/airplay4.4/modules/third_party/libpng/upstream/png.h"
extern void png_write_init (png_structp png_ptr);





extern void png_write_init_3 (png_structpp ptr_ptr, png_const_charp user_png_ver, png_size_t png_struct_size);

extern void png_write_init_2 (png_structp png_ptr, png_const_charp user_png_ver, png_size_t png_struct_size, png_size_t png_info_size);




 png_voidp png_create_struct (int type);


 void png_destroy_struct (png_voidp struct_ptr);

 png_voidp png_create_struct_2 (int type, png_malloc_ptr malloc_fn, png_voidp mem_ptr);

 void png_destroy_struct_2 (png_voidp struct_ptr, png_free_ptr free_fn, png_voidp mem_ptr);



 void png_info_destroy (png_structp png_ptr, png_infop info_ptr);




 voidpf png_zalloc (voidpf png_ptr, uInt items, uInt size);


 void png_zfree (voidpf png_ptr, voidpf ptr);
# 3068 "c:/users/plu/documents/petetrlu/kitchen/spices/airplay4.4/modules/third_party/libpng/upstream/png.h"
 void png_default_read_data (png_structp png_ptr, png_bytep data, png_size_t length);



 void png_push_fill_buffer (png_structp png_ptr, png_bytep buffer, png_size_t length);



 void png_default_write_data (png_structp png_ptr, png_bytep data, png_size_t length);




 void png_default_flush (png_structp png_ptr);
# 3092 "c:/users/plu/documents/petetrlu/kitchen/spices/airplay4.4/modules/third_party/libpng/upstream/png.h"
 void png_reset_crc (png_structp png_ptr);


 void png_write_data (png_structp png_ptr, png_bytep data, png_size_t length);



 void png_read_data (png_structp png_ptr, png_bytep data, png_size_t length);



 void png_crc_read (png_structp png_ptr, png_bytep buf, png_size_t length);





 void png_decompress_chunk (png_structp png_ptr, int comp_type, png_size_t chunklength, png_size_t prefix_length, png_size_t *data_length);





 int png_crc_finish (png_structp png_ptr, png_uint_32 skip);


 int png_crc_error (png_structp png_ptr);





 void png_calculate_crc (png_structp png_ptr, png_bytep ptr, png_size_t length);



 void png_flush (png_structp png_ptr);



 void png_write_sig (png_structp png_ptr);






 void png_write_IHDR (png_structp png_ptr, png_uint_32 width, png_uint_32 height, int bit_depth, int color_type, int compression_method, int filter_method, int interlace_method);




 void png_write_PLTE (png_structp png_ptr, png_colorp palette, png_uint_32 num_pal);


 void png_write_IDAT (png_structp png_ptr, png_bytep data, png_size_t length);


 void png_write_IEND (png_structp png_ptr);



 void png_write_gAMA (png_structp png_ptr, double file_gamma);


 void png_write_gAMA_fixed (png_structp png_ptr, png_fixed_point file_gamma);





 void png_write_sBIT (png_structp png_ptr, png_color_8p sbit, int color_type);





 void png_write_cHRM (png_structp png_ptr, double white_x, double white_y, double red_x, double red_y, double green_x, double green_y, double blue_x, double blue_y);





 void png_write_cHRM_fixed (png_structp png_ptr, png_fixed_point int_white_x, png_fixed_point int_white_y, png_fixed_point int_red_x, png_fixed_point int_red_y, png_fixed_point int_green_x, png_fixed_point int_green_y, png_fixed_point int_blue_x, png_fixed_point int_blue_y);
# 3184 "c:/users/plu/documents/petetrlu/kitchen/spices/airplay4.4/modules/third_party/libpng/upstream/png.h"
 void png_write_sRGB (png_structp png_ptr, int intent);




 void png_write_iCCP (png_structp png_ptr, png_charp name, int compression_type, png_charp profile, int proflen);






 void png_write_sPLT (png_structp png_ptr, png_sPLT_tp palette);




 void png_write_tRNS (png_structp png_ptr, png_bytep trans, png_color_16p values, int number, int color_type);




 void png_write_bKGD (png_structp png_ptr, png_color_16p values, int color_type);




 void png_write_hIST (png_structp png_ptr, png_uint_16p hist, int num_hist);





 png_size_t png_check_keyword (png_structp png_ptr, png_charp key, png_charpp new_key);




 void png_write_tEXt (png_structp png_ptr, png_charp key, png_charp text, png_size_t text_len);




 void png_write_zTXt (png_structp png_ptr, png_charp key, png_charp text, png_size_t text_len, int compression);
# 3238 "c:/users/plu/documents/petetrlu/kitchen/spices/airplay4.4/modules/third_party/libpng/upstream/png.h"
 int png_set_text_2 (png_structp png_ptr, png_infop info_ptr, png_textp text_ptr, int num_text);




 void png_write_oFFs (png_structp png_ptr, png_int_32 x_offset, png_int_32 y_offset, int unit_type);




 void png_write_pCAL (png_structp png_ptr, png_charp purpose, png_int_32 X0, png_int_32 X1, int type, int nparams, png_charp units, png_charpp params);





 void png_write_pHYs (png_structp png_ptr, png_uint_32 x_pixels_per_unit, png_uint_32 y_pixels_per_unit, int unit_type);





 void png_write_tIME (png_structp png_ptr, png_timep mod_time);





 void png_write_sCAL (png_structp png_ptr, int unit, double width, double height);
# 3277 "c:/users/plu/documents/petetrlu/kitchen/spices/airplay4.4/modules/third_party/libpng/upstream/png.h"
 void png_write_finish_row (png_structp png_ptr);


 void png_write_start_row (png_structp png_ptr);


 void png_build_gamma_table (png_structp png_ptr);



 void png_combine_row (png_structp png_ptr, png_bytep row, int mask);
# 3296 "c:/users/plu/documents/petetrlu/kitchen/spices/airplay4.4/modules/third_party/libpng/upstream/png.h"
 void png_do_read_interlace (png_structp png_ptr);






 void png_do_write_interlace (png_row_infop row_info, png_bytep row, int pass);




 void png_read_filter_row (png_structp png_ptr, png_row_infop row_info, png_bytep row, png_bytep prev_row, int filter);



 void png_write_find_filter (png_structp png_ptr, png_row_infop row_info);



 void png_write_filtered_row (png_structp png_ptr, png_bytep filtered_row);


 void png_read_finish_row (png_structp png_ptr);


 void png_read_start_row (png_structp png_ptr);

 void png_read_transform_info (png_structp png_ptr, png_infop info_ptr);




 void png_do_read_filler (png_row_infop row_info, png_bytep row, png_uint_32 filler, png_uint_32 flags);




 void png_do_read_swap_alpha (png_row_infop row_info, png_bytep row);




 void png_do_write_swap_alpha (png_row_infop row_info, png_bytep row);




 void png_do_read_invert_alpha (png_row_infop row_info, png_bytep row);




 void png_do_write_invert_alpha (png_row_infop row_info, png_bytep row);





 void png_do_strip_filler (png_row_infop row_info, png_bytep row, png_uint_32 flags);




 void png_do_swap (png_row_infop row_info, png_bytep row);



 void png_do_packswap (png_row_infop row_info, png_bytep row);



 int png_do_rgb_to_gray (png_structp png_ptr, png_row_infop row_info, png_bytep row);




 void png_do_gray_to_rgb (png_row_infop row_info, png_bytep row);




 void png_do_unpack (png_row_infop row_info, png_bytep row);



 void png_do_unshift (png_row_infop row_info, png_bytep row, png_color_8p sig_bits);




 void png_do_invert (png_row_infop row_info, png_bytep row);



 void png_do_chop (png_row_infop row_info, png_bytep row);



 void png_do_dither (png_row_infop row_info, png_bytep row, png_bytep palette_lookup, png_bytep dither_lookup);
# 3405 "c:/users/plu/documents/petetrlu/kitchen/spices/airplay4.4/modules/third_party/libpng/upstream/png.h"
 void png_do_bgr (png_row_infop row_info, png_bytep row);



 void png_do_pack (png_row_infop row_info, png_bytep row, png_uint_32 bit_depth);




 void png_do_shift (png_row_infop row_info, png_bytep row, png_color_8p bit_depth);





 void png_do_background (png_row_infop row_info, png_bytep row, png_color_16p trans_values, png_color_16p background, png_color_16p background_1, png_bytep gamma_table, png_bytep gamma_from_1, png_bytep gamma_to_1, png_uint_16pp gamma_16, png_uint_16pp gamma_16_from_1, png_uint_16pp gamma_16_to_1, int gamma_shift);
# 3433 "c:/users/plu/documents/petetrlu/kitchen/spices/airplay4.4/modules/third_party/libpng/upstream/png.h"
 void png_do_gamma (png_row_infop row_info, png_bytep row, png_bytep gamma_table, png_uint_16pp gamma_16_table, int gamma_shift);





 void png_do_expand_palette (png_row_infop row_info, png_bytep row, png_colorp palette, png_bytep trans, int num_trans);

 void png_do_expand (png_row_infop row_info, png_bytep row, png_color_16p trans_value);
# 3450 "c:/users/plu/documents/petetrlu/kitchen/spices/airplay4.4/modules/third_party/libpng/upstream/png.h"
 void png_handle_IHDR (png_structp png_ptr, png_infop info_ptr, png_uint_32 length);

 void png_handle_PLTE (png_structp png_ptr, png_infop info_ptr, png_uint_32 length);

 void png_handle_IEND (png_structp png_ptr, png_infop info_ptr, png_uint_32 length);



 void png_handle_bKGD (png_structp png_ptr, png_infop info_ptr, png_uint_32 length);




 void png_handle_cHRM (png_structp png_ptr, png_infop info_ptr, png_uint_32 length);




 void png_handle_gAMA (png_structp png_ptr, png_infop info_ptr, png_uint_32 length);




 void png_handle_hIST (png_structp png_ptr, png_infop info_ptr, png_uint_32 length);




extern void png_handle_iCCP (png_structp png_ptr, png_infop info_ptr, png_uint_32 length);
# 3488 "c:/users/plu/documents/petetrlu/kitchen/spices/airplay4.4/modules/third_party/libpng/upstream/png.h"
 void png_handle_oFFs (png_structp png_ptr, png_infop info_ptr, png_uint_32 length);




 void png_handle_pCAL (png_structp png_ptr, png_infop info_ptr, png_uint_32 length);




 void png_handle_pHYs (png_structp png_ptr, png_infop info_ptr, png_uint_32 length);




 void png_handle_sBIT (png_structp png_ptr, png_infop info_ptr, png_uint_32 length);




 void png_handle_sCAL (png_structp png_ptr, png_infop info_ptr, png_uint_32 length);




extern void png_handle_sPLT (png_structp png_ptr, png_infop info_ptr, png_uint_32 length);




 void png_handle_sRGB (png_structp png_ptr, png_infop info_ptr, png_uint_32 length);




 void png_handle_tEXt (png_structp png_ptr, png_infop info_ptr, png_uint_32 length);




 void png_handle_tIME (png_structp png_ptr, png_infop info_ptr, png_uint_32 length);




 void png_handle_tRNS (png_structp png_ptr, png_infop info_ptr, png_uint_32 length);




 void png_handle_zTXt (png_structp png_ptr, png_infop info_ptr, png_uint_32 length);



 void png_handle_unknown (png_structp png_ptr, png_infop info_ptr, png_uint_32 length);


 void png_check_chunk_name (png_structp png_ptr, png_bytep chunk_name);



 void png_do_read_transformations (png_structp png_ptr);
 void png_do_write_transformations (png_structp png_ptr);

 void png_init_read_transformations (png_structp png_ptr);


 void png_push_read_chunk (png_structp png_ptr, png_infop info_ptr);

 void png_push_read_sig (png_structp png_ptr, png_infop info_ptr);

 void png_push_check_crc (png_structp png_ptr);
 void png_push_crc_skip (png_structp png_ptr, png_uint_32 length);

 void png_push_crc_finish (png_structp png_ptr);
 void png_push_save_buffer (png_structp png_ptr);
 void png_push_restore_buffer (png_structp png_ptr, png_bytep buffer, png_size_t buffer_length);

 void png_push_read_IDAT (png_structp png_ptr);
 void png_process_IDAT_data (png_structp png_ptr, png_bytep buffer, png_size_t buffer_length);

 void png_push_process_row (png_structp png_ptr);
 void png_push_handle_unknown (png_structp png_ptr, png_infop info_ptr, png_uint_32 length);

 void png_push_have_info (png_structp png_ptr, png_infop info_ptr);

 void png_push_have_end (png_structp png_ptr, png_infop info_ptr);

 void png_push_have_row (png_structp png_ptr, png_bytep row);
 void png_push_read_end (png_structp png_ptr, png_infop info_ptr);

 void png_process_some_data (png_structp png_ptr, png_infop info_ptr);

 void png_read_push_finish_row (png_structp png_ptr);

 void png_push_handle_tEXt (png_structp png_ptr, png_infop info_ptr, png_uint_32 length);

 void png_push_read_tEXt (png_structp png_ptr, png_infop info_ptr);



 void png_push_handle_zTXt (png_structp png_ptr, png_infop info_ptr, png_uint_32 length);

 void png_push_read_zTXt (png_structp png_ptr, png_infop info_ptr);
# 3604 "c:/users/plu/documents/petetrlu/kitchen/spices/airplay4.4/modules/third_party/libpng/upstream/png.h"
 void png_do_read_intrapixel (png_row_infop row_info, png_bytep row);

 void png_do_write_intrapixel (png_row_infop row_info, png_bytep row);






 void png_init_mmx_flags (png_structp png_ptr);
# 3640 "c:/users/plu/documents/petetrlu/kitchen/spices/airplay4.4/modules/third_party/libpng/upstream/png.h"
 png_uint_32 png_read_chunk_header (png_structp png_ptr);



 int png_check_cHRM_fixed (png_structp png_ptr, png_fixed_point int_white_x, png_fixed_point int_white_y, png_fixed_point int_red_x, png_fixed_point int_red_y, png_fixed_point int_green_x, png_fixed_point int_green_y, png_fixed_point int_blue_x, png_fixed_point int_blue_y);
# 13 "c:/users/plu/documents/petetrlu/kitchen/spices/airplay4.4/modules/third_party/libpng/upstream/pngwtran.c" 2





void
png_do_write_transformations(png_structp png_ptr)
{
   ;

   if (png_ptr == 0)
      return;


   if (png_ptr->transformations & 0x100000L)
      if (png_ptr->write_user_transform_fn != 0)
        (*(png_ptr->write_user_transform_fn))
          (png_ptr,
           &(png_ptr->row_info),






           png_ptr->row_buf + 1);


   if (png_ptr->transformations & 0x8000L)
      png_do_strip_filler(&(png_ptr->row_info), png_ptr->row_buf + 1,
         png_ptr->flags);


   if (png_ptr->transformations & 0x10000L)
      png_do_packswap(&(png_ptr->row_info), png_ptr->row_buf + 1);


   if (png_ptr->transformations & 0x0004)
      png_do_pack(&(png_ptr->row_info), png_ptr->row_buf + 1,
         (png_uint_32)png_ptr->bit_depth);


   if (png_ptr->transformations & 0x0010)
      png_do_swap(&(png_ptr->row_info), png_ptr->row_buf + 1);


   if (png_ptr->transformations & 0x0008)
      png_do_shift(&(png_ptr->row_info), png_ptr->row_buf + 1,
         &(png_ptr->shift));


   if (png_ptr->transformations & 0x20000L)
      png_do_write_swap_alpha(&(png_ptr->row_info), png_ptr->row_buf + 1);


   if (png_ptr->transformations & 0x80000L)
      png_do_write_invert_alpha(&(png_ptr->row_info), png_ptr->row_buf + 1);


   if (png_ptr->transformations & 0x0001)
      png_do_bgr(&(png_ptr->row_info), png_ptr->row_buf + 1);


   if (png_ptr->transformations & 0x0020)
      png_do_invert(&(png_ptr->row_info), png_ptr->row_buf + 1);

}






void
png_do_pack(png_row_infop row_info, png_bytep row, png_uint_32 bit_depth)
{
   ;
   if (row_info->bit_depth == 8 &&



      row_info->channels == 1)
   {
      switch ((int)bit_depth)
      {
         case 1:
         {
            png_bytep sp, dp;
            int mask, v;
            png_uint_32 i;
            png_uint_32 row_width = row_info->width;

            sp = row;
            dp = row;
            mask = 0x80;
            v = 0;

            for (i = 0; i < row_width; i++)
            {
               if (*sp != 0)
                  v |= mask;
               sp++;
               if (mask > 1)
                  mask >>= 1;
               else
               {
                  mask = 0x80;
                  *dp = (png_byte)v;
                  dp++;
                  v = 0;
               }
            }
            if (mask != 0x80)
               *dp = (png_byte)v;
            break;
         }
         case 2:
         {
            png_bytep sp, dp;
            int shift, v;
            png_uint_32 i;
            png_uint_32 row_width = row_info->width;

            sp = row;
            dp = row;
            shift = 6;
            v = 0;
            for (i = 0; i < row_width; i++)
            {
               png_byte value;

               value = (png_byte)(*sp & 0x03);
               v |= (value << shift);
               if (shift == 0)
               {
                  shift = 6;
                  *dp = (png_byte)v;
                  dp++;
                  v = 0;
               }
               else
                  shift -= 2;
               sp++;
            }
            if (shift != 6)
               *dp = (png_byte)v;
            break;
         }
         case 4:
         {
            png_bytep sp, dp;
            int shift, v;
            png_uint_32 i;
            png_uint_32 row_width = row_info->width;

            sp = row;
            dp = row;
            shift = 4;
            v = 0;
            for (i = 0; i < row_width; i++)
            {
               png_byte value;

               value = (png_byte)(*sp & 0x0f);
               v |= (value << shift);

               if (shift == 0)
               {
                  shift = 4;
                  *dp = (png_byte)v;
                  dp++;
                  v = 0;
               }
               else
                  shift -= 4;

               sp++;
            }
            if (shift != 4)
               *dp = (png_byte)v;
            break;
         }
      }
      row_info->bit_depth = (png_byte)bit_depth;
      row_info->pixel_depth = (png_byte)(bit_depth * row_info->channels);
      row_info->rowbytes = ((row_info->pixel_depth) >= 8 ? ((row_info->width) * (((png_uint_32)(row_info->pixel_depth)) >> 3)) : (( ((row_info->width) * ((png_uint_32)(row_info->pixel_depth))) + 7) >> 3) );

   }
}
# 212 "c:/users/plu/documents/petetrlu/kitchen/spices/airplay4.4/modules/third_party/libpng/upstream/pngwtran.c"
void
png_do_shift(png_row_infop row_info, png_bytep row, png_color_8p bit_depth)
{
   ;



   if (

      row_info->color_type != (2 | 1))
   {
      int shift_start[4], shift_dec[4];
      int channels = 0;

      if (row_info->color_type & 2)
      {
         shift_start[channels] = row_info->bit_depth - bit_depth->red;
         shift_dec[channels] = bit_depth->red;
         channels++;
         shift_start[channels] = row_info->bit_depth - bit_depth->green;
         shift_dec[channels] = bit_depth->green;
         channels++;
         shift_start[channels] = row_info->bit_depth - bit_depth->blue;
         shift_dec[channels] = bit_depth->blue;
         channels++;
      }
      else
      {
         shift_start[channels] = row_info->bit_depth - bit_depth->gray;
         shift_dec[channels] = bit_depth->gray;
         channels++;
      }
      if (row_info->color_type & 4)
      {
         shift_start[channels] = row_info->bit_depth - bit_depth->alpha;
         shift_dec[channels] = bit_depth->alpha;
         channels++;
      }


      if (row_info->bit_depth < 8)
      {
         png_bytep bp = row;
         png_uint_32 i;
         png_byte mask;
         png_uint_32 row_bytes = row_info->rowbytes;

         if (bit_depth->gray == 1 && row_info->bit_depth == 2)
            mask = 0x55;
         else if (row_info->bit_depth == 4 && bit_depth->gray == 3)
            mask = 0x11;
         else
            mask = 0xff;

         for (i = 0; i < row_bytes; i++, bp++)
         {
            png_uint_16 v;
            int j;

            v = *bp;
            *bp = 0;
            for (j = shift_start[0]; j > -shift_dec[0]; j -= shift_dec[0])
            {
               if (j > 0)
                  *bp |= (png_byte)((v << j) & 0xff);
               else
                  *bp |= (png_byte)((v >> (-j)) & mask);
            }
         }
      }
      else if (row_info->bit_depth == 8)
      {
         png_bytep bp = row;
         png_uint_32 i;
         png_uint_32 istop = channels * row_info->width;

         for (i = 0; i < istop; i++, bp++)
         {

            png_uint_16 v;
            int j;
            int c = (int)(i%channels);

            v = *bp;
            *bp = 0;
            for (j = shift_start[c]; j > -shift_dec[c]; j -= shift_dec[c])
            {
               if (j > 0)
                  *bp |= (png_byte)((v << j) & 0xff);
               else
                  *bp |= (png_byte)((v >> (-j)) & 0xff);
            }
         }
      }
      else
      {
         png_bytep bp;
         png_uint_32 i;
         png_uint_32 istop = channels * row_info->width;

         for (bp = row, i = 0; i < istop; i++)
         {
            int c = (int)(i%channels);
            png_uint_16 value, v;
            int j;

            v = (png_uint_16)(((png_uint_16)(*bp) << 8) + *(bp + 1));
            value = 0;
            for (j = shift_start[c]; j > -shift_dec[c]; j -= shift_dec[c])
            {
               if (j > 0)
                  value |= (png_uint_16)((v << j) & (png_uint_16)0xffff);
               else
                  value |= (png_uint_16)((v >> (-j)) & (png_uint_16)0xffff);
            }
            *bp++ = (png_byte)(value >> 8);
            *bp++ = (png_byte)(value & 0xff);
         }
      }
   }
}



void
png_do_write_swap_alpha(png_row_infop row_info, png_bytep row)
{
   ;



   {
      if (row_info->color_type == (2 | 4))
      {

         if (row_info->bit_depth == 8)
         {
            png_bytep sp, dp;
            png_uint_32 i;
            png_uint_32 row_width = row_info->width;
            for (i = 0, sp = dp = row; i < row_width; i++)
            {
               png_byte save = *(sp++);
               *(dp++) = *(sp++);
               *(dp++) = *(sp++);
               *(dp++) = *(sp++);
               *(dp++) = save;
            }
         }

         else
         {
            png_bytep sp, dp;
            png_uint_32 i;
            png_uint_32 row_width = row_info->width;

            for (i = 0, sp = dp = row; i < row_width; i++)
            {
               png_byte save[2];
               save[0] = *(sp++);
               save[1] = *(sp++);
               *(dp++) = *(sp++);
               *(dp++) = *(sp++);
               *(dp++) = *(sp++);
               *(dp++) = *(sp++);
               *(dp++) = *(sp++);
               *(dp++) = *(sp++);
               *(dp++) = save[0];
               *(dp++) = save[1];
            }
         }
      }
      else if (row_info->color_type == (4))
      {

         if (row_info->bit_depth == 8)
         {
            png_bytep sp, dp;
            png_uint_32 i;
            png_uint_32 row_width = row_info->width;

            for (i = 0, sp = dp = row; i < row_width; i++)
            {
               png_byte save = *(sp++);
               *(dp++) = *(sp++);
               *(dp++) = save;
            }
         }

         else
         {
            png_bytep sp, dp;
            png_uint_32 i;
            png_uint_32 row_width = row_info->width;

            for (i = 0, sp = dp = row; i < row_width; i++)
            {
               png_byte save[2];
               save[0] = *(sp++);
               save[1] = *(sp++);
               *(dp++) = *(sp++);
               *(dp++) = *(sp++);
               *(dp++) = save[0];
               *(dp++) = save[1];
            }
         }
      }
   }
}



void
png_do_write_invert_alpha(png_row_infop row_info, png_bytep row)
{
   ;



   {
      if (row_info->color_type == (2 | 4))
      {

         if (row_info->bit_depth == 8)
         {
            png_bytep sp, dp;
            png_uint_32 i;
            png_uint_32 row_width = row_info->width;
            for (i = 0, sp = dp = row; i < row_width; i++)
            {





               sp+=3; dp = sp;
               *(dp++) = (png_byte)(255 - *(sp++));
            }
         }

         else
         {
            png_bytep sp, dp;
            png_uint_32 i;
            png_uint_32 row_width = row_info->width;

            for (i = 0, sp = dp = row; i < row_width; i++)
            {
# 468 "c:/users/plu/documents/petetrlu/kitchen/spices/airplay4.4/modules/third_party/libpng/upstream/pngwtran.c"
               sp+=6; dp = sp;
               *(dp++) = (png_byte)(255 - *(sp++));
               *(dp++) = (png_byte)(255 - *(sp++));
            }
         }
      }
      else if (row_info->color_type == (4))
      {

         if (row_info->bit_depth == 8)
         {
            png_bytep sp, dp;
            png_uint_32 i;
            png_uint_32 row_width = row_info->width;

            for (i = 0, sp = dp = row; i < row_width; i++)
            {
               *(dp++) = *(sp++);
               *(dp++) = (png_byte)(255 - *(sp++));
            }
         }

         else
         {
            png_bytep sp, dp;
            png_uint_32 i;
            png_uint_32 row_width = row_info->width;

            for (i = 0, sp = dp = row; i < row_width; i++)
            {




               sp+=2; dp = sp;
               *(dp++) = (png_byte)(255 - *(sp++));
               *(dp++) = (png_byte)(255 - *(sp++));
            }
         }
      }
   }
}




void
png_do_write_intrapixel(png_row_infop row_info, png_bytep row)
{
   ;
   if (



       (row_info->color_type & 2))
   {
      int bytes_per_pixel;
      png_uint_32 row_width = row_info->width;
      if (row_info->bit_depth == 8)
      {
         png_bytep rp;
         png_uint_32 i;

         if (row_info->color_type == (2))
            bytes_per_pixel = 3;
         else if (row_info->color_type == (2 | 4))
            bytes_per_pixel = 4;
         else
            return;

         for (i = 0, rp = row; i < row_width; i++, rp += bytes_per_pixel)
         {
            *(rp) = (png_byte)((*rp - *(rp+1))&0xff);
            *(rp+2) = (png_byte)((*(rp+2) - *(rp+1))&0xff);
         }
      }
      else if (row_info->bit_depth == 16)
      {
         png_bytep rp;
         png_uint_32 i;

         if (row_info->color_type == (2))
            bytes_per_pixel = 6;
         else if (row_info->color_type == (2 | 4))
            bytes_per_pixel = 8;
         else
            return;

         for (i = 0, rp = row; i < row_width; i++, rp += bytes_per_pixel)
         {
            png_uint_32 s0 = (*(rp ) << 8) | *(rp+1);
            png_uint_32 s1 = (*(rp+2) << 8) | *(rp+3);
            png_uint_32 s2 = (*(rp+4) << 8) | *(rp+5);
            png_uint_32 red = (png_uint_32)((s0 - s1) & 0xffffL);
            png_uint_32 blue = (png_uint_32)((s2 - s1) & 0xffffL);
            *(rp ) = (png_byte)((red >> 8) & 0xff);
            *(rp+1) = (png_byte)(red & 0xff);
            *(rp+4) = (png_byte)((blue >> 8) & 0xff);
            *(rp+5) = (png_byte)(blue & 0xff);
         }
      }
   }
}
