# 1 "c:/users/plu/documents/petetrlu/kitchen/spices/airplay4.4/modules/third_party/zlib/upstream/trees.c"
# 1 "<built-in>"
# 1 "<command-line>"
# 1 "C:/Users/plu/Documents/petetrlu/kitchen/faucet/self_help/test1/build_test1_vc10/temp_defines_release.h" 1
# 1 "<command-line>" 2
# 1 "c:/users/plu/documents/petetrlu/kitchen/spices/airplay4.4/modules/third_party/zlib/upstream/trees.c"
# 36 "c:/users/plu/documents/petetrlu/kitchen/spices/airplay4.4/modules/third_party/zlib/upstream/trees.c"
# 1 "c:/users/plu/documents/petetrlu/kitchen/spices/airplay4.4/modules/third_party/zlib/upstream/deflate.h" 1
# 16 "c:/users/plu/documents/petetrlu/kitchen/spices/airplay4.4/modules/third_party/zlib/upstream/deflate.h"
# 1 "c:/users/plu/documents/petetrlu/kitchen/spices/airplay4.4/modules/third_party/zlib/upstream/zutil.h" 1
# 17 "c:/users/plu/documents/petetrlu/kitchen/spices/airplay4.4/modules/third_party/zlib/upstream/zutil.h"
# 1 "c:/users/plu/documents/petetrlu/kitchen/spices/airplay4.4/modules/third_party/zlib/upstream/zlib.h" 1
# 34 "c:/users/plu/documents/petetrlu/kitchen/spices/airplay4.4/modules/third_party/zlib/upstream/zlib.h"
# 1 "c:/users/plu/documents/petetrlu/kitchen/spices/airplay4.4/modules/third_party/zlib/upstream/zconf.h" 1
# 261 "c:/users/plu/documents/petetrlu/kitchen/spices/airplay4.4/modules/third_party/zlib/upstream/zconf.h"
typedef unsigned char Byte;

typedef unsigned int uInt;
typedef unsigned long uLong;





   typedef Byte Bytef;

typedef char charf;
typedef int intf;
typedef uInt uIntf;
typedef uLong uLongf;


   typedef void const *voidpc;
   typedef void *voidpf;
   typedef void *voidp;
# 35 "c:/users/plu/documents/petetrlu/kitchen/spices/airplay4.4/modules/third_party/zlib/upstream/zlib.h" 2
# 77 "c:/users/plu/documents/petetrlu/kitchen/spices/airplay4.4/modules/third_party/zlib/upstream/zlib.h"
typedef voidpf (*alloc_func) (voidpf opaque, uInt items, uInt size);
typedef void (*free_func) (voidpf opaque, voidpf address);

struct internal_state;

typedef struct z_stream_s {
    Bytef *next_in;
    uInt avail_in;
    uLong total_in;

    Bytef *next_out;
    uInt avail_out;
    uLong total_out;

    char *msg;
    struct internal_state *state;

    alloc_func zalloc;
    free_func zfree;
    voidpf opaque;

    int data_type;
    uLong adler;
    uLong reserved;
} z_stream;

typedef z_stream *z_streamp;





typedef struct gz_header_s {
    int text;
    uLong time;
    int xflags;
    int os;
    Bytef *extra;
    uInt extra_len;
    uInt extra_max;
    Bytef *name;
    uInt name_max;
    Bytef *comment;
    uInt comm_max;
    int hcrc;
    int done;

} gz_header;

typedef gz_header *gz_headerp;
# 212 "c:/users/plu/documents/petetrlu/kitchen/spices/airplay4.4/modules/third_party/zlib/upstream/zlib.h"
extern const char * zlibVersion (void);
# 242 "c:/users/plu/documents/petetrlu/kitchen/spices/airplay4.4/modules/third_party/zlib/upstream/zlib.h"
extern int deflate (z_streamp strm, int flush);
# 328 "c:/users/plu/documents/petetrlu/kitchen/spices/airplay4.4/modules/third_party/zlib/upstream/zlib.h"
extern int deflateEnd (z_streamp strm);
# 363 "c:/users/plu/documents/petetrlu/kitchen/spices/airplay4.4/modules/third_party/zlib/upstream/zlib.h"
extern int inflate (z_streamp strm, int flush);
# 462 "c:/users/plu/documents/petetrlu/kitchen/spices/airplay4.4/modules/third_party/zlib/upstream/zlib.h"
extern int inflateEnd (z_streamp strm);
# 538 "c:/users/plu/documents/petetrlu/kitchen/spices/airplay4.4/modules/third_party/zlib/upstream/zlib.h"
extern int deflateSetDictionary (z_streamp strm, const Bytef *dictionary, uInt dictLength);
# 577 "c:/users/plu/documents/petetrlu/kitchen/spices/airplay4.4/modules/third_party/zlib/upstream/zlib.h"
extern int deflateCopy (z_streamp dest, z_streamp source);
# 595 "c:/users/plu/documents/petetrlu/kitchen/spices/airplay4.4/modules/third_party/zlib/upstream/zlib.h"
extern int deflateReset (z_streamp strm);
# 606 "c:/users/plu/documents/petetrlu/kitchen/spices/airplay4.4/modules/third_party/zlib/upstream/zlib.h"
extern int deflateParams (z_streamp strm, int level, int strategy);
# 627 "c:/users/plu/documents/petetrlu/kitchen/spices/airplay4.4/modules/third_party/zlib/upstream/zlib.h"
extern int deflateTune (z_streamp strm, int good_length, int max_lazy, int nice_length, int max_chain);
# 644 "c:/users/plu/documents/petetrlu/kitchen/spices/airplay4.4/modules/third_party/zlib/upstream/zlib.h"
extern uLong deflateBound (z_streamp strm, uLong sourceLen);
# 653 "c:/users/plu/documents/petetrlu/kitchen/spices/airplay4.4/modules/third_party/zlib/upstream/zlib.h"
extern int deflatePrime (z_streamp strm, int bits, int value);
# 669 "c:/users/plu/documents/petetrlu/kitchen/spices/airplay4.4/modules/third_party/zlib/upstream/zlib.h"
extern int deflateSetHeader (z_streamp strm, gz_headerp head);
# 736 "c:/users/plu/documents/petetrlu/kitchen/spices/airplay4.4/modules/third_party/zlib/upstream/zlib.h"
extern int inflateSetDictionary (z_streamp strm, const Bytef *dictionary, uInt dictLength);
# 758 "c:/users/plu/documents/petetrlu/kitchen/spices/airplay4.4/modules/third_party/zlib/upstream/zlib.h"
extern int inflateSync (z_streamp strm);
# 773 "c:/users/plu/documents/petetrlu/kitchen/spices/airplay4.4/modules/third_party/zlib/upstream/zlib.h"
extern int inflateCopy (z_streamp dest, z_streamp source);
# 789 "c:/users/plu/documents/petetrlu/kitchen/spices/airplay4.4/modules/third_party/zlib/upstream/zlib.h"
extern int inflateReset (z_streamp strm);
# 799 "c:/users/plu/documents/petetrlu/kitchen/spices/airplay4.4/modules/third_party/zlib/upstream/zlib.h"
extern int inflatePrime (z_streamp strm, int bits, int value);
# 815 "c:/users/plu/documents/petetrlu/kitchen/spices/airplay4.4/modules/third_party/zlib/upstream/zlib.h"
extern int inflateGetHeader (z_streamp strm, gz_headerp head);
# 877 "c:/users/plu/documents/petetrlu/kitchen/spices/airplay4.4/modules/third_party/zlib/upstream/zlib.h"
typedef unsigned (*in_func) (void *, unsigned char * *);
typedef int (*out_func) (void *, unsigned char *, unsigned);

extern int inflateBack (z_streamp strm, in_func in, void *in_desc, out_func out, void *out_desc);
# 949 "c:/users/plu/documents/petetrlu/kitchen/spices/airplay4.4/modules/third_party/zlib/upstream/zlib.h"
extern int inflateBackEnd (z_streamp strm);







extern uLong zlibCompileFlags (void);
# 1009 "c:/users/plu/documents/petetrlu/kitchen/spices/airplay4.4/modules/third_party/zlib/upstream/zlib.h"
extern int compress (Bytef *dest, uLongf *destLen, const Bytef *source, uLong sourceLen);
# 1024 "c:/users/plu/documents/petetrlu/kitchen/spices/airplay4.4/modules/third_party/zlib/upstream/zlib.h"
extern int compress2 (Bytef *dest, uLongf *destLen, const Bytef *source, uLong sourceLen, int level);
# 1040 "c:/users/plu/documents/petetrlu/kitchen/spices/airplay4.4/modules/third_party/zlib/upstream/zlib.h"
extern uLong compressBound (uLong sourceLen);






extern int uncompress (Bytef *dest, uLongf *destLen, const Bytef *source, uLong sourceLen);
# 1066 "c:/users/plu/documents/petetrlu/kitchen/spices/airplay4.4/modules/third_party/zlib/upstream/zlib.h"
typedef voidp gzFile;

extern gzFile gzopen (const char *path, const char *mode);
# 1085 "c:/users/plu/documents/petetrlu/kitchen/spices/airplay4.4/modules/third_party/zlib/upstream/zlib.h"
extern gzFile gzdopen (int fd, const char *mode);
# 1098 "c:/users/plu/documents/petetrlu/kitchen/spices/airplay4.4/modules/third_party/zlib/upstream/zlib.h"
extern int gzsetparams (gzFile file, int level, int strategy);







extern int gzread (gzFile file, voidp buf, unsigned len);







extern int gzwrite (gzFile file, voidpc buf, unsigned len);







extern int gzprintf (gzFile file, const char *format, ...);
# 1135 "c:/users/plu/documents/petetrlu/kitchen/spices/airplay4.4/modules/third_party/zlib/upstream/zlib.h"
extern int gzputs (gzFile file, const char *s);






extern char * gzgets (gzFile file, char *buf, int len);
# 1151 "c:/users/plu/documents/petetrlu/kitchen/spices/airplay4.4/modules/third_party/zlib/upstream/zlib.h"
extern int gzputc (gzFile file, int c);





extern int gzgetc (gzFile file);





extern int gzungetc (int c, gzFile file);
# 1173 "c:/users/plu/documents/petetrlu/kitchen/spices/airplay4.4/modules/third_party/zlib/upstream/zlib.h"
extern int gzflush (gzFile file, int flush);
# 1183 "c:/users/plu/documents/petetrlu/kitchen/spices/airplay4.4/modules/third_party/zlib/upstream/zlib.h"
extern long gzseek (gzFile file, long offset, int whence);
# 1201 "c:/users/plu/documents/petetrlu/kitchen/spices/airplay4.4/modules/third_party/zlib/upstream/zlib.h"
extern int gzrewind (gzFile file);






extern long gztell (gzFile file);
# 1217 "c:/users/plu/documents/petetrlu/kitchen/spices/airplay4.4/modules/third_party/zlib/upstream/zlib.h"
extern int gzeof (gzFile file);





extern int gzdirect (gzFile file);





extern int gzclose (gzFile file);






extern const char * gzerror (gzFile file, int *errnum);
# 1245 "c:/users/plu/documents/petetrlu/kitchen/spices/airplay4.4/modules/third_party/zlib/upstream/zlib.h"
extern void gzclearerr (gzFile file);
# 1260 "c:/users/plu/documents/petetrlu/kitchen/spices/airplay4.4/modules/third_party/zlib/upstream/zlib.h"
extern uLong adler32 (uLong adler, const Bytef *buf, uInt len);
# 1276 "c:/users/plu/documents/petetrlu/kitchen/spices/airplay4.4/modules/third_party/zlib/upstream/zlib.h"
extern uLong adler32_combine (uLong adler1, uLong adler2, long len2);
# 1285 "c:/users/plu/documents/petetrlu/kitchen/spices/airplay4.4/modules/third_party/zlib/upstream/zlib.h"
extern uLong crc32 (uLong crc, const Bytef *buf, uInt len);
# 1301 "c:/users/plu/documents/petetrlu/kitchen/spices/airplay4.4/modules/third_party/zlib/upstream/zlib.h"
extern uLong crc32_combine (uLong crc1, uLong crc2, long len2);
# 1317 "c:/users/plu/documents/petetrlu/kitchen/spices/airplay4.4/modules/third_party/zlib/upstream/zlib.h"
extern int deflateInit_ (z_streamp strm, int level, const char *version, int stream_size);

extern int inflateInit_ (z_streamp strm, const char *version, int stream_size);

extern int deflateInit2_ (z_streamp strm, int level, int method, int windowBits, int memLevel, int strategy, const char *version, int stream_size);



extern int inflateInit2_ (z_streamp strm, int windowBits, const char *version, int stream_size);

extern int inflateBackInit_ (z_streamp strm, int windowBits, unsigned char *window, const char *version, int stream_size);
# 1349 "c:/users/plu/documents/petetrlu/kitchen/spices/airplay4.4/modules/third_party/zlib/upstream/zlib.h"
extern const char * zError (int);
extern int inflateSyncPoint (z_streamp z);
extern const uLongf * get_crc_table (void);
# 18 "c:/users/plu/documents/petetrlu/kitchen/spices/airplay4.4/modules/third_party/zlib/upstream/zutil.h" 2



# 1 "c:/users/plu/documents/petetrlu/kitchen/spices/airplay4.4/s3e/h/std/stddef.h" 1
# 15 "c:/users/plu/documents/petetrlu/kitchen/spices/airplay4.4/s3e/h/std/stddef.h"
typedef signed int ptrdiff_t;


    typedef unsigned int wint_t;
    typedef unsigned long int wctype_t;



    typedef unsigned short wchar_t;



typedef unsigned int size_t;
# 22 "c:/users/plu/documents/petetrlu/kitchen/spices/airplay4.4/modules/third_party/zlib/upstream/zutil.h" 2

# 1 "c:/users/plu/documents/petetrlu/kitchen/spices/airplay4.4/s3e/h/std/string.h" 1
# 15 "c:/users/plu/documents/petetrlu/kitchen/spices/airplay4.4/s3e/h/std/string.h"
# 1 "c:/users/plu/documents/petetrlu/kitchen/spices/airplay4.4/s3e/h/std/sys/types.h" 1
# 15 "c:/users/plu/documents/petetrlu/kitchen/spices/airplay4.4/s3e/h/std/sys/types.h"
# 1 "c:/users/plu/documents/petetrlu/kitchen/spices/airplay4.4/s3e/h/s3eTypes.h" 1
# 37 "c:/users/plu/documents/petetrlu/kitchen/spices/airplay4.4/s3e/h/s3eTypes.h"
typedef unsigned char s3e_uint8_t;
typedef signed char s3e_int8_t;
typedef unsigned short int s3e_uint16_t;
typedef signed short int s3e_int16_t;
typedef unsigned int s3e_uint32_t;
typedef signed int s3e_int32_t;
# 51 "c:/users/plu/documents/petetrlu/kitchen/spices/airplay4.4/s3e/h/s3eTypes.h"
  typedef signed long long s3e_int64_t;
  typedef unsigned long long s3e_uint64_t;
# 72 "c:/users/plu/documents/petetrlu/kitchen/spices/airplay4.4/s3e/h/s3eTypes.h"
typedef s3e_uint64_t uint64_t;
typedef s3e_int64_t int64_t;
typedef s3e_uint32_t uint32_t;
typedef s3e_int32_t int32_t;
typedef s3e_uint16_t uint16_t;
typedef s3e_int16_t int16_t;
typedef s3e_uint8_t uint8_t;
typedef s3e_int8_t int8_t;
# 93 "c:/users/plu/documents/petetrlu/kitchen/spices/airplay4.4/s3e/h/s3eTypes.h"
 typedef int intptr_t;
 typedef unsigned int uintptr_t;
# 104 "c:/users/plu/documents/petetrlu/kitchen/spices/airplay4.4/s3e/h/s3eTypes.h"
typedef unsigned int uint;
typedef unsigned short int ushort;
typedef unsigned long int ulong;
typedef unsigned char uint8;
typedef signed char int8;







typedef int64_t int64;
typedef uint64_t uint64;
# 126 "c:/users/plu/documents/petetrlu/kitchen/spices/airplay4.4/s3e/h/s3eTypes.h"
typedef unsigned int uint32;
# 135 "c:/users/plu/documents/petetrlu/kitchen/spices/airplay4.4/s3e/h/s3eTypes.h"
typedef signed int int32;





typedef uint16_t uint16;




typedef int16_t int16;
# 217 "c:/users/plu/documents/petetrlu/kitchen/spices/airplay4.4/s3e/h/s3eTypes.h"
typedef enum s3eResult
{
    S3E_RESULT_SUCCESS = 0,
    S3E_RESULT_ERROR = 1
} s3eResult;




typedef uint8 s3eBool;
# 237 "c:/users/plu/documents/petetrlu/kitchen/spices/airplay4.4/s3e/h/s3eTypes.h"
typedef unsigned short s3eWChar;
# 308 "c:/users/plu/documents/petetrlu/kitchen/spices/airplay4.4/s3e/h/s3eTypes.h"
typedef int32 (*s3eCallback) (void* systemData, void* userData);
# 16 "c:/users/plu/documents/petetrlu/kitchen/spices/airplay4.4/s3e/h/std/sys/types.h" 2

# 1 "c:/users/plu/documents/petetrlu/kitchen/spices/airplay4.4/s3e/h/std/stdint.h" 1
# 19 "c:/users/plu/documents/petetrlu/kitchen/spices/airplay4.4/s3e/h/std/stdint.h"
typedef signed char int_least8_t;
typedef short int_least16_t;
typedef long int_least32_t;
typedef int64_t int_least64_t;

typedef unsigned char uint_least8_t;
typedef unsigned short uint_least16_t;
typedef unsigned long uint_least32_t;
typedef uint64_t uint_least64_t;

typedef signed char int_fast8_t;
typedef short int_fast16_t;
typedef long int_fast32_t;
typedef int64_t int_fast64_t;

typedef unsigned char uint_fast8_t;
typedef unsigned short uint_fast16_t;
typedef unsigned long uint_fast32_t;
typedef uint64_t uint_fast64_t;

typedef int64_t intmax_t;
typedef uint64_t uintmax_t;
# 18 "c:/users/plu/documents/petetrlu/kitchen/spices/airplay4.4/s3e/h/std/sys/types.h" 2
# 1 "c:/users/plu/documents/petetrlu/kitchen/spices/airplay4.4/s3e/h/std/sys/select.h" 1
# 24 "c:/users/plu/documents/petetrlu/kitchen/spices/airplay4.4/s3e/h/std/sys/select.h"
struct timeval;

typedef struct fd_set
{
    char fds_bits[256/8];
} fd_set;
# 39 "c:/users/plu/documents/petetrlu/kitchen/spices/airplay4.4/s3e/h/std/sys/select.h"


int select(int nfds, fd_set *readfds, fd_set *writefds, fd_set *exceptfds, struct timeval *timeout);


# 19 "c:/users/plu/documents/petetrlu/kitchen/spices/airplay4.4/s3e/h/std/sys/types.h" 2



typedef long off_t;

typedef int64_t off64_t;
# 33 "c:/users/plu/documents/petetrlu/kitchen/spices/airplay4.4/s3e/h/std/sys/types.h"
typedef uint u_int;
typedef uint8_t u_int8_t;
typedef uint16_t u_int16_t;
typedef uint32_t u_int32_t;
typedef uint64_t u_int64_t;

typedef unsigned short u_short;
typedef unsigned long u_long;
typedef unsigned char u_char;

typedef int ssize_t;
typedef int pid_t;
typedef short uid_t;
typedef short gid_t;
typedef int idtype_t;
typedef int id_t;
typedef uint32 mode_t;
typedef short dev_t;
typedef short ino_t;
typedef int key_t;
typedef void* caddr_t;
# 16 "c:/users/plu/documents/petetrlu/kitchen/spices/airplay4.4/s3e/h/std/string.h" 2



void *memcpy(void *dest, const void *src, size_t n);
void *memset(void *s, int c, size_t n);
int memcmp(const void *s1, const void *s2, size_t n);
void *memmove(void *dest, const void *src, size_t n);
void *memchr(const void *s, int c, size_t n);
void *memrchr(const void *s, int c, size_t n);







int strcmp(const char *s1, const char *s2);
int strncmp(const char *s1, const char *s2, size_t n);
char *strsep(char **stringp, const char *delim);
char *strcpy(char *dest, const char *src);
char *strncpy(char *dest, const char *src, size_t n);
char *strchr(const char *s, int c);
char *strstr(const char *haystack, const char *needle);
char *strrchr(const char *s, int c);
char *strdup(const char *s);
char *strtok(char *str, const char *delim);
char *strtok_r(char *str, const char *delim, char **saveptr);
char *strcat(char *dest, const char *src);
char *strncat(char *dest, const char *src, size_t n);
size_t strlen(const char *s);
size_t strnlen(const char *s, size_t n);
int strcasecmp(const char *s1, const char *s2);
int strncasecmp(const char *s1, const char *s2, size_t n);
size_t strspn(const char *s, const char *accept);
size_t strcspn(const char *s, const char *reject);
char *strpbrk(const char *s, const char *accept);
int strcoll(const char *s1, const char *s2);
char *strerror(int errnum);
size_t strxfrm(char *dest, const char *src, size_t n);

int strerror_r(int errnum, char *buf, size_t buflen);





size_t strlcpy(char* dest, const char* src, size_t len);
size_t strlcat(char* dest, const char* src, size_t len);


# 24 "c:/users/plu/documents/petetrlu/kitchen/spices/airplay4.4/modules/third_party/zlib/upstream/zutil.h" 2
# 1 "c:/users/plu/documents/petetrlu/kitchen/spices/airplay4.4/s3e/h/std/stdlib.h" 1
# 16 "c:/users/plu/documents/petetrlu/kitchen/spices/airplay4.4/s3e/h/std/stdlib.h"
# 1 "c:/users/plu/documents/petetrlu/kitchen/spices/airplay4.4/s3e/h/std/malloc.h" 1
# 16 "c:/users/plu/documents/petetrlu/kitchen/spices/airplay4.4/s3e/h/std/malloc.h"
# 1 "c:/users/plu/documents/petetrlu/kitchen/spices/airplay4.4/s3e/h/std/alloca.h" 1
# 17 "c:/users/plu/documents/petetrlu/kitchen/spices/airplay4.4/s3e/h/std/alloca.h"



    extern void *alloca(size_t __size);
# 35 "c:/users/plu/documents/petetrlu/kitchen/spices/airplay4.4/s3e/h/std/alloca.h"

# 17 "c:/users/plu/documents/petetrlu/kitchen/spices/airplay4.4/s3e/h/std/malloc.h" 2



void *calloc(size_t nmemb, size_t size);
void *malloc(size_t size);
void free(void *ptr);
void *realloc(void *ptr, size_t size);


# 17 "c:/users/plu/documents/petetrlu/kitchen/spices/airplay4.4/s3e/h/std/stdlib.h" 2
# 28 "c:/users/plu/documents/petetrlu/kitchen/spices/airplay4.4/s3e/h/std/stdlib.h"


double atof(const char* string);
int atoi(const char *nptr);
long atol(const char *nptr);
int64_t atoll(const char *nptr);
int64_t atoq(const char *nptr);
int abs(int j);
long int labs(long int j);
int64_t llabs(int64_t j);
void qsort(void *base, size_t nmemb, size_t size, int(*compar)(const void *, const void *));
void *bsearch(const void *key, const void *base, size_t nmemb, size_t size, int (*compar)(const void *, const void *));
void abort(void);
int putenv(char *string);
char *getenv(const char *name);
int setenv(const char *name, const char *value, int overwrite);
int unsetenv(const char *name);
void exit(int status) __attribute__ ((noreturn));
void _exit(int status) __attribute__ ((noreturn));
void _Exit(int status) __attribute__ ((noreturn));
unsigned long int strtoul(const char *nptr, char **endptr, int base);
uint64_t strtoull(const char *nptr, char **endptr, int base);
long int strtol(const char *nptr, char **endptr, int base);
int64_t strtoll(const char *nptr, char **endptr, int base);
double strtod(const char *nptr, char **endptr);
float strtof(const char *nptr, char **endptr);
long double strtold(const char *nptr, char **endptr);
int atexit(void (*function)(void));
int system(const char *command);
int posix_memalign(void **memptr, size_t alignment, size_t size);
char *mktemp(char *templ);
int mkstemp(char *templ);



int rand(void);
void srand(unsigned int seed);

long int random(void);
void srandom(unsigned int seed);

size_t __ctype_get_mb_cur_max();


int mblen(const char *s, size_t n);
int mbtowc(wchar_t *pwc, const char *s, size_t n);
int wctomb(char *s, wchar_t wc);
size_t mbstowcs(wchar_t *dest, const char *src, size_t n);
size_t wcstombs(char *dest, const wchar_t *src, size_t n);

typedef struct
{
    int quot;
    int rem;
} div_t;

typedef struct
{
    int quot;
    int rem;
} ldiv_t;

typedef struct
{
    int64_t quot;
    int64_t rem;
} lldiv_t;

div_t div(int numerator, int denominator);
ldiv_t ldiv(long numerator, long denominator);
lldiv_t lldiv(int64_t numerator, int64_t denominator);
# 117 "c:/users/plu/documents/petetrlu/kitchen/spices/airplay4.4/s3e/h/std/stdlib.h"

# 25 "c:/users/plu/documents/petetrlu/kitchen/spices/airplay4.4/modules/third_party/zlib/upstream/zutil.h" 2
# 38 "c:/users/plu/documents/petetrlu/kitchen/spices/airplay4.4/modules/third_party/zlib/upstream/zutil.h"
# 1 "c:/users/plu/documents/petetrlu/kitchen/spices/airplay4.4/s3e/h/std/errno.h" 1
# 17 "c:/users/plu/documents/petetrlu/kitchen/spices/airplay4.4/s3e/h/std/errno.h"

# 31 "c:/users/plu/documents/petetrlu/kitchen/spices/airplay4.4/s3e/h/std/errno.h"
        extern int *__errno(void);
# 41 "c:/users/plu/documents/petetrlu/kitchen/spices/airplay4.4/s3e/h/std/errno.h"
char *strerror(int errnum);


# 39 "c:/users/plu/documents/petetrlu/kitchen/spices/airplay4.4/modules/third_party/zlib/upstream/zutil.h" 2
# 47 "c:/users/plu/documents/petetrlu/kitchen/spices/airplay4.4/modules/third_party/zlib/upstream/zutil.h"
typedef unsigned char uch;
typedef uch uchf;
typedef unsigned short ush;
typedef ush ushf;
typedef unsigned long ulg;

extern const char * const z_errmsg[10];
# 261 "c:/users/plu/documents/petetrlu/kitchen/spices/airplay4.4/modules/third_party/zlib/upstream/zutil.h"
voidpf zcalloc (voidpf opaque, unsigned items, unsigned size);
void zcfree (voidpf opaque, voidpf ptr);
# 17 "c:/users/plu/documents/petetrlu/kitchen/spices/airplay4.4/modules/third_party/zlib/upstream/deflate.h" 2
# 62 "c:/users/plu/documents/petetrlu/kitchen/spices/airplay4.4/modules/third_party/zlib/upstream/deflate.h"
typedef struct ct_data_s {
    union {
        ush freq;
        ush code;
    } fc;
    union {
        ush dad;
        ush len;
    } dl;
} ct_data;






typedef struct static_tree_desc_s static_tree_desc;

typedef struct tree_desc_s {
    ct_data *dyn_tree;
    int max_code;
    static_tree_desc *stat_desc;
} tree_desc;

typedef ush Pos;
typedef Pos Posf;
typedef unsigned IPos;





typedef struct internal_state {
    z_streamp strm;
    int status;
    Bytef *pending_buf;
    ulg pending_buf_size;
    Bytef *pending_out;
    uInt pending;
    int wrap;
    gz_headerp gzhead;
    uInt gzindex;
    Byte method;
    int last_flush;



    uInt w_size;
    uInt w_bits;
    uInt w_mask;

    Bytef *window;
# 123 "c:/users/plu/documents/petetrlu/kitchen/spices/airplay4.4/modules/third_party/zlib/upstream/deflate.h"
    ulg window_size;




    Posf *prev;





    Posf *head;

    uInt ins_h;
    uInt hash_size;
    uInt hash_bits;
    uInt hash_mask;

    uInt hash_shift;






    long block_start;




    uInt match_length;
    IPos prev_match;
    int match_available;
    uInt strstart;
    uInt match_start;
    uInt lookahead;

    uInt prev_length;




    uInt max_chain_length;





    uInt max_lazy_match;
# 182 "c:/users/plu/documents/petetrlu/kitchen/spices/airplay4.4/modules/third_party/zlib/upstream/deflate.h"
    int level;
    int strategy;

    uInt good_match;


    int nice_match;



    struct ct_data_s dyn_ltree[(2*(256 +1+29)+1)];
    struct ct_data_s dyn_dtree[2*30 +1];
    struct ct_data_s bl_tree[2*19 +1];

    struct tree_desc_s l_desc;
    struct tree_desc_s d_desc;
    struct tree_desc_s bl_desc;

    ush bl_count[15 +1];


    int heap[2*(256 +1+29)+1];
    int heap_len;
    int heap_max;




    uch depth[2*(256 +1+29)+1];



    uchf *l_buf;

    uInt lit_bufsize;
# 236 "c:/users/plu/documents/petetrlu/kitchen/spices/airplay4.4/modules/third_party/zlib/upstream/deflate.h"
    uInt last_lit;

    ushf *d_buf;





    ulg opt_len;
    ulg static_len;
    uInt matches;
    int last_eob_len;






    ush bi_buf;



    int bi_valid;




} deflate_state;
# 282 "c:/users/plu/documents/petetrlu/kitchen/spices/airplay4.4/modules/third_party/zlib/upstream/deflate.h"
void _tr_init (deflate_state *s);
int _tr_tally (deflate_state *s, unsigned dist, unsigned lc);
void _tr_flush_block (deflate_state *s, charf *buf, ulg stored_len, int eof);

void _tr_align (deflate_state *s);
void _tr_stored_block (deflate_state *s, charf *buf, ulg stored_len, int eof);
# 304 "c:/users/plu/documents/petetrlu/kitchen/spices/airplay4.4/modules/third_party/zlib/upstream/deflate.h"
  extern const uch _length_code[];
  extern const uch _dist_code[];
# 37 "c:/users/plu/documents/petetrlu/kitchen/spices/airplay4.4/modules/third_party/zlib/upstream/trees.c" 2
# 61 "c:/users/plu/documents/petetrlu/kitchen/spices/airplay4.4/modules/third_party/zlib/upstream/trees.c"
static const int extra_lbits[29]
   = {0,0,0,0,0,0,0,0,1,1,1,1,2,2,2,2,3,3,3,3,4,4,4,4,5,5,5,5,0};

static const int extra_dbits[30]
   = {0,0,0,0,1,1,2,2,3,3,4,4,5,5,6,6,7,7,8,8,9,9,10,10,11,11,12,12,13,13};

static const int extra_blbits[19]
   = {0,0,0,0,0,0,0,0,0,0,0,0,0,0,0,0,2,3,7};

static const uch bl_order[19]
   = {16,17,18,0,8,7,9,6,10,5,11,4,12,3,13,2,14,1,15};
# 118 "c:/users/plu/documents/petetrlu/kitchen/spices/airplay4.4/modules/third_party/zlib/upstream/trees.c"
# 1 "c:/users/plu/documents/petetrlu/kitchen/spices/airplay4.4/modules/third_party/zlib/upstream/trees.h" 1


static const ct_data static_ltree[(256 +1+29)+2] = {
{{ 12},{ 8}}, {{140},{ 8}}, {{ 76},{ 8}}, {{204},{ 8}}, {{ 44},{ 8}},
{{172},{ 8}}, {{108},{ 8}}, {{236},{ 8}}, {{ 28},{ 8}}, {{156},{ 8}},
{{ 92},{ 8}}, {{220},{ 8}}, {{ 60},{ 8}}, {{188},{ 8}}, {{124},{ 8}},
{{252},{ 8}}, {{ 2},{ 8}}, {{130},{ 8}}, {{ 66},{ 8}}, {{194},{ 8}},
{{ 34},{ 8}}, {{162},{ 8}}, {{ 98},{ 8}}, {{226},{ 8}}, {{ 18},{ 8}},
{{146},{ 8}}, {{ 82},{ 8}}, {{210},{ 8}}, {{ 50},{ 8}}, {{178},{ 8}},
{{114},{ 8}}, {{242},{ 8}}, {{ 10},{ 8}}, {{138},{ 8}}, {{ 74},{ 8}},
{{202},{ 8}}, {{ 42},{ 8}}, {{170},{ 8}}, {{106},{ 8}}, {{234},{ 8}},
{{ 26},{ 8}}, {{154},{ 8}}, {{ 90},{ 8}}, {{218},{ 8}}, {{ 58},{ 8}},
{{186},{ 8}}, {{122},{ 8}}, {{250},{ 8}}, {{ 6},{ 8}}, {{134},{ 8}},
{{ 70},{ 8}}, {{198},{ 8}}, {{ 38},{ 8}}, {{166},{ 8}}, {{102},{ 8}},
{{230},{ 8}}, {{ 22},{ 8}}, {{150},{ 8}}, {{ 86},{ 8}}, {{214},{ 8}},
{{ 54},{ 8}}, {{182},{ 8}}, {{118},{ 8}}, {{246},{ 8}}, {{ 14},{ 8}},
{{142},{ 8}}, {{ 78},{ 8}}, {{206},{ 8}}, {{ 46},{ 8}}, {{174},{ 8}},
{{110},{ 8}}, {{238},{ 8}}, {{ 30},{ 8}}, {{158},{ 8}}, {{ 94},{ 8}},
{{222},{ 8}}, {{ 62},{ 8}}, {{190},{ 8}}, {{126},{ 8}}, {{254},{ 8}},
{{ 1},{ 8}}, {{129},{ 8}}, {{ 65},{ 8}}, {{193},{ 8}}, {{ 33},{ 8}},
{{161},{ 8}}, {{ 97},{ 8}}, {{225},{ 8}}, {{ 17},{ 8}}, {{145},{ 8}},
{{ 81},{ 8}}, {{209},{ 8}}, {{ 49},{ 8}}, {{177},{ 8}}, {{113},{ 8}},
{{241},{ 8}}, {{ 9},{ 8}}, {{137},{ 8}}, {{ 73},{ 8}}, {{201},{ 8}},
{{ 41},{ 8}}, {{169},{ 8}}, {{105},{ 8}}, {{233},{ 8}}, {{ 25},{ 8}},
{{153},{ 8}}, {{ 89},{ 8}}, {{217},{ 8}}, {{ 57},{ 8}}, {{185},{ 8}},
{{121},{ 8}}, {{249},{ 8}}, {{ 5},{ 8}}, {{133},{ 8}}, {{ 69},{ 8}},
{{197},{ 8}}, {{ 37},{ 8}}, {{165},{ 8}}, {{101},{ 8}}, {{229},{ 8}},
{{ 21},{ 8}}, {{149},{ 8}}, {{ 85},{ 8}}, {{213},{ 8}}, {{ 53},{ 8}},
{{181},{ 8}}, {{117},{ 8}}, {{245},{ 8}}, {{ 13},{ 8}}, {{141},{ 8}},
{{ 77},{ 8}}, {{205},{ 8}}, {{ 45},{ 8}}, {{173},{ 8}}, {{109},{ 8}},
{{237},{ 8}}, {{ 29},{ 8}}, {{157},{ 8}}, {{ 93},{ 8}}, {{221},{ 8}},
{{ 61},{ 8}}, {{189},{ 8}}, {{125},{ 8}}, {{253},{ 8}}, {{ 19},{ 9}},
{{275},{ 9}}, {{147},{ 9}}, {{403},{ 9}}, {{ 83},{ 9}}, {{339},{ 9}},
{{211},{ 9}}, {{467},{ 9}}, {{ 51},{ 9}}, {{307},{ 9}}, {{179},{ 9}},
{{435},{ 9}}, {{115},{ 9}}, {{371},{ 9}}, {{243},{ 9}}, {{499},{ 9}},
{{ 11},{ 9}}, {{267},{ 9}}, {{139},{ 9}}, {{395},{ 9}}, {{ 75},{ 9}},
{{331},{ 9}}, {{203},{ 9}}, {{459},{ 9}}, {{ 43},{ 9}}, {{299},{ 9}},
{{171},{ 9}}, {{427},{ 9}}, {{107},{ 9}}, {{363},{ 9}}, {{235},{ 9}},
{{491},{ 9}}, {{ 27},{ 9}}, {{283},{ 9}}, {{155},{ 9}}, {{411},{ 9}},
{{ 91},{ 9}}, {{347},{ 9}}, {{219},{ 9}}, {{475},{ 9}}, {{ 59},{ 9}},
{{315},{ 9}}, {{187},{ 9}}, {{443},{ 9}}, {{123},{ 9}}, {{379},{ 9}},
{{251},{ 9}}, {{507},{ 9}}, {{ 7},{ 9}}, {{263},{ 9}}, {{135},{ 9}},
{{391},{ 9}}, {{ 71},{ 9}}, {{327},{ 9}}, {{199},{ 9}}, {{455},{ 9}},
{{ 39},{ 9}}, {{295},{ 9}}, {{167},{ 9}}, {{423},{ 9}}, {{103},{ 9}},
{{359},{ 9}}, {{231},{ 9}}, {{487},{ 9}}, {{ 23},{ 9}}, {{279},{ 9}},
{{151},{ 9}}, {{407},{ 9}}, {{ 87},{ 9}}, {{343},{ 9}}, {{215},{ 9}},
{{471},{ 9}}, {{ 55},{ 9}}, {{311},{ 9}}, {{183},{ 9}}, {{439},{ 9}},
{{119},{ 9}}, {{375},{ 9}}, {{247},{ 9}}, {{503},{ 9}}, {{ 15},{ 9}},
{{271},{ 9}}, {{143},{ 9}}, {{399},{ 9}}, {{ 79},{ 9}}, {{335},{ 9}},
{{207},{ 9}}, {{463},{ 9}}, {{ 47},{ 9}}, {{303},{ 9}}, {{175},{ 9}},
{{431},{ 9}}, {{111},{ 9}}, {{367},{ 9}}, {{239},{ 9}}, {{495},{ 9}},
{{ 31},{ 9}}, {{287},{ 9}}, {{159},{ 9}}, {{415},{ 9}}, {{ 95},{ 9}},
{{351},{ 9}}, {{223},{ 9}}, {{479},{ 9}}, {{ 63},{ 9}}, {{319},{ 9}},
{{191},{ 9}}, {{447},{ 9}}, {{127},{ 9}}, {{383},{ 9}}, {{255},{ 9}},
{{511},{ 9}}, {{ 0},{ 7}}, {{ 64},{ 7}}, {{ 32},{ 7}}, {{ 96},{ 7}},
{{ 16},{ 7}}, {{ 80},{ 7}}, {{ 48},{ 7}}, {{112},{ 7}}, {{ 8},{ 7}},
{{ 72},{ 7}}, {{ 40},{ 7}}, {{104},{ 7}}, {{ 24},{ 7}}, {{ 88},{ 7}},
{{ 56},{ 7}}, {{120},{ 7}}, {{ 4},{ 7}}, {{ 68},{ 7}}, {{ 36},{ 7}},
{{100},{ 7}}, {{ 20},{ 7}}, {{ 84},{ 7}}, {{ 52},{ 7}}, {{116},{ 7}},
{{ 3},{ 8}}, {{131},{ 8}}, {{ 67},{ 8}}, {{195},{ 8}}, {{ 35},{ 8}},
{{163},{ 8}}, {{ 99},{ 8}}, {{227},{ 8}}
};

static const ct_data static_dtree[30] = {
{{ 0},{ 5}}, {{16},{ 5}}, {{ 8},{ 5}}, {{24},{ 5}}, {{ 4},{ 5}},
{{20},{ 5}}, {{12},{ 5}}, {{28},{ 5}}, {{ 2},{ 5}}, {{18},{ 5}},
{{10},{ 5}}, {{26},{ 5}}, {{ 6},{ 5}}, {{22},{ 5}}, {{14},{ 5}},
{{30},{ 5}}, {{ 1},{ 5}}, {{17},{ 5}}, {{ 9},{ 5}}, {{25},{ 5}},
{{ 5},{ 5}}, {{21},{ 5}}, {{13},{ 5}}, {{29},{ 5}}, {{ 3},{ 5}},
{{19},{ 5}}, {{11},{ 5}}, {{27},{ 5}}, {{ 7},{ 5}}, {{23},{ 5}}
};

const uch _dist_code[512] = {
 0, 1, 2, 3, 4, 4, 5, 5, 6, 6, 6, 6, 7, 7, 7, 7, 8, 8, 8, 8,
 8, 8, 8, 8, 9, 9, 9, 9, 9, 9, 9, 9, 10, 10, 10, 10, 10, 10, 10, 10,
10, 10, 10, 10, 10, 10, 10, 10, 11, 11, 11, 11, 11, 11, 11, 11, 11, 11, 11, 11,
11, 11, 11, 11, 12, 12, 12, 12, 12, 12, 12, 12, 12, 12, 12, 12, 12, 12, 12, 12,
12, 12, 12, 12, 12, 12, 12, 12, 12, 12, 12, 12, 12, 12, 12, 12, 13, 13, 13, 13,
13, 13, 13, 13, 13, 13, 13, 13, 13, 13, 13, 13, 13, 13, 13, 13, 13, 13, 13, 13,
13, 13, 13, 13, 13, 13, 13, 13, 14, 14, 14, 14, 14, 14, 14, 14, 14, 14, 14, 14,
14, 14, 14, 14, 14, 14, 14, 14, 14, 14, 14, 14, 14, 14, 14, 14, 14, 14, 14, 14,
14, 14, 14, 14, 14, 14, 14, 14, 14, 14, 14, 14, 14, 14, 14, 14, 14, 14, 14, 14,
14, 14, 14, 14, 14, 14, 14, 14, 14, 14, 14, 14, 15, 15, 15, 15, 15, 15, 15, 15,
15, 15, 15, 15, 15, 15, 15, 15, 15, 15, 15, 15, 15, 15, 15, 15, 15, 15, 15, 15,
15, 15, 15, 15, 15, 15, 15, 15, 15, 15, 15, 15, 15, 15, 15, 15, 15, 15, 15, 15,
15, 15, 15, 15, 15, 15, 15, 15, 15, 15, 15, 15, 15, 15, 15, 15, 0, 0, 16, 17,
18, 18, 19, 19, 20, 20, 20, 20, 21, 21, 21, 21, 22, 22, 22, 22, 22, 22, 22, 22,
23, 23, 23, 23, 23, 23, 23, 23, 24, 24, 24, 24, 24, 24, 24, 24, 24, 24, 24, 24,
24, 24, 24, 24, 25, 25, 25, 25, 25, 25, 25, 25, 25, 25, 25, 25, 25, 25, 25, 25,
26, 26, 26, 26, 26, 26, 26, 26, 26, 26, 26, 26, 26, 26, 26, 26, 26, 26, 26, 26,
26, 26, 26, 26, 26, 26, 26, 26, 26, 26, 26, 26, 27, 27, 27, 27, 27, 27, 27, 27,
27, 27, 27, 27, 27, 27, 27, 27, 27, 27, 27, 27, 27, 27, 27, 27, 27, 27, 27, 27,
27, 27, 27, 27, 28, 28, 28, 28, 28, 28, 28, 28, 28, 28, 28, 28, 28, 28, 28, 28,
28, 28, 28, 28, 28, 28, 28, 28, 28, 28, 28, 28, 28, 28, 28, 28, 28, 28, 28, 28,
28, 28, 28, 28, 28, 28, 28, 28, 28, 28, 28, 28, 28, 28, 28, 28, 28, 28, 28, 28,
28, 28, 28, 28, 28, 28, 28, 28, 29, 29, 29, 29, 29, 29, 29, 29, 29, 29, 29, 29,
29, 29, 29, 29, 29, 29, 29, 29, 29, 29, 29, 29, 29, 29, 29, 29, 29, 29, 29, 29,
29, 29, 29, 29, 29, 29, 29, 29, 29, 29, 29, 29, 29, 29, 29, 29, 29, 29, 29, 29,
29, 29, 29, 29, 29, 29, 29, 29, 29, 29, 29, 29
};

const uch _length_code[258 -3 +1]= {
 0, 1, 2, 3, 4, 5, 6, 7, 8, 8, 9, 9, 10, 10, 11, 11, 12, 12, 12, 12,
13, 13, 13, 13, 14, 14, 14, 14, 15, 15, 15, 15, 16, 16, 16, 16, 16, 16, 16, 16,
17, 17, 17, 17, 17, 17, 17, 17, 18, 18, 18, 18, 18, 18, 18, 18, 19, 19, 19, 19,
19, 19, 19, 19, 20, 20, 20, 20, 20, 20, 20, 20, 20, 20, 20, 20, 20, 20, 20, 20,
21, 21, 21, 21, 21, 21, 21, 21, 21, 21, 21, 21, 21, 21, 21, 21, 22, 22, 22, 22,
22, 22, 22, 22, 22, 22, 22, 22, 22, 22, 22, 22, 23, 23, 23, 23, 23, 23, 23, 23,
23, 23, 23, 23, 23, 23, 23, 23, 24, 24, 24, 24, 24, 24, 24, 24, 24, 24, 24, 24,
24, 24, 24, 24, 24, 24, 24, 24, 24, 24, 24, 24, 24, 24, 24, 24, 24, 24, 24, 24,
25, 25, 25, 25, 25, 25, 25, 25, 25, 25, 25, 25, 25, 25, 25, 25, 25, 25, 25, 25,
25, 25, 25, 25, 25, 25, 25, 25, 25, 25, 25, 25, 26, 26, 26, 26, 26, 26, 26, 26,
26, 26, 26, 26, 26, 26, 26, 26, 26, 26, 26, 26, 26, 26, 26, 26, 26, 26, 26, 26,
26, 26, 26, 26, 27, 27, 27, 27, 27, 27, 27, 27, 27, 27, 27, 27, 27, 27, 27, 27,
27, 27, 27, 27, 27, 27, 27, 27, 27, 27, 27, 27, 27, 27, 27, 28
};

static const int base_length[29] = {
0, 1, 2, 3, 4, 5, 6, 7, 8, 10, 12, 14, 16, 20, 24, 28, 32, 40, 48, 56,
64, 80, 96, 112, 128, 160, 192, 224, 0
};

static const int base_dist[30] = {
    0, 1, 2, 3, 4, 6, 8, 12, 16, 24,
   32, 48, 64, 96, 128, 192, 256, 384, 512, 768,
 1024, 1536, 2048, 3072, 4096, 6144, 8192, 12288, 16384, 24576
};
# 119 "c:/users/plu/documents/petetrlu/kitchen/spices/airplay4.4/modules/third_party/zlib/upstream/trees.c" 2


struct static_tree_desc_s {
    const ct_data *static_tree;
    const intf *extra_bits;
    int extra_base;
    int elems;
    int max_length;
};

static static_tree_desc static_l_desc =
{static_ltree, extra_lbits, 256 +1, (256 +1+29), 15};

static static_tree_desc static_d_desc =
{static_dtree, extra_dbits, 0, 30, 15};

static static_tree_desc static_bl_desc =
{(const ct_data *)0, extra_blbits, 0, 19, 7};





static void tr_static_init (void);
static void init_block (deflate_state *s);
static void pqdownheap (deflate_state *s, ct_data *tree, int k);
static void gen_bitlen (deflate_state *s, tree_desc *desc);
static void gen_codes (ct_data *tree, int max_code, ushf *bl_count);
static void build_tree (deflate_state *s, tree_desc *desc);
static void scan_tree (deflate_state *s, ct_data *tree, int max_code);
static void send_tree (deflate_state *s, ct_data *tree, int max_code);
static int build_bl_tree (deflate_state *s);
static void send_all_trees (deflate_state *s, int lcodes, int dcodes, int blcodes);

static void compress_block (deflate_state *s, ct_data *ltree, ct_data *dtree);

static void set_data_type (deflate_state *s);
static unsigned bi_reverse (unsigned value, int length);
static void bi_windup (deflate_state *s);
static void bi_flush (deflate_state *s);
static void copy_block (deflate_state *s, charf *buf, unsigned len, int header);
# 238 "c:/users/plu/documents/petetrlu/kitchen/spices/airplay4.4/modules/third_party/zlib/upstream/trees.c"
static void tr_static_init()
{
# 316 "c:/users/plu/documents/petetrlu/kitchen/spices/airplay4.4/modules/third_party/zlib/upstream/trees.c"
}
# 382 "c:/users/plu/documents/petetrlu/kitchen/spices/airplay4.4/modules/third_party/zlib/upstream/trees.c"
void _tr_init(s)
    deflate_state *s;
{
    tr_static_init();

    s->l_desc.dyn_tree = s->dyn_ltree;
    s->l_desc.stat_desc = &static_l_desc;

    s->d_desc.dyn_tree = s->dyn_dtree;
    s->d_desc.stat_desc = &static_d_desc;

    s->bl_desc.dyn_tree = s->bl_tree;
    s->bl_desc.stat_desc = &static_bl_desc;

    s->bi_buf = 0;
    s->bi_valid = 0;
    s->last_eob_len = 8;






    init_block(s);
}




static void init_block(s)
    deflate_state *s;
{
    int n;


    for (n = 0; n < (256 +1+29); n++) s->dyn_ltree[n].fc.freq = 0;
    for (n = 0; n < 30; n++) s->dyn_dtree[n].fc.freq = 0;
    for (n = 0; n < 19; n++) s->bl_tree[n].fc.freq = 0;

    s->dyn_ltree[256].fc.freq = 1;
    s->opt_len = s->static_len = 0L;
    s->last_lit = s->matches = 0;
}
# 455 "c:/users/plu/documents/petetrlu/kitchen/spices/airplay4.4/modules/third_party/zlib/upstream/trees.c"
static void pqdownheap(s, tree, k)
    deflate_state *s;
    ct_data *tree;
    int k;
{
    int v = s->heap[k];
    int j = k << 1;
    while (j <= s->heap_len) {

        if (j < s->heap_len &&
            (tree[s->heap[j+1]].fc.freq < tree[s->heap[j]].fc.freq || (tree[s->heap[j+1]].fc.freq == tree[s->heap[j]].fc.freq && s->depth[s->heap[j+1]] <= s->depth[s->heap[j]]))) {
            j++;
        }

        if ((tree[v].fc.freq < tree[s->heap[j]].fc.freq || (tree[v].fc.freq == tree[s->heap[j]].fc.freq && s->depth[v] <= s->depth[s->heap[j]]))) break;


        s->heap[k] = s->heap[j]; k = j;


        j <<= 1;
    }
    s->heap[k] = v;
}
# 490 "c:/users/plu/documents/petetrlu/kitchen/spices/airplay4.4/modules/third_party/zlib/upstream/trees.c"
static void gen_bitlen(s, desc)
    deflate_state *s;
    tree_desc *desc;
{
    ct_data *tree = desc->dyn_tree;
    int max_code = desc->max_code;
    const ct_data *stree = desc->stat_desc->static_tree;
    const intf *extra = desc->stat_desc->extra_bits;
    int base = desc->stat_desc->extra_base;
    int max_length = desc->stat_desc->max_length;
    int h;
    int n, m;
    int bits;
    int xbits;
    ush f;
    int overflow = 0;

    for (bits = 0; bits <= 15; bits++) s->bl_count[bits] = 0;




    tree[s->heap[s->heap_max]].dl.len = 0;

    for (h = s->heap_max+1; h < (2*(256 +1+29)+1); h++) {
        n = s->heap[h];
        bits = tree[tree[n].dl.dad].dl.len + 1;
        if (bits > max_length) bits = max_length, overflow++;
        tree[n].dl.len = (ush)bits;


        if (n > max_code) continue;

        s->bl_count[bits]++;
        xbits = 0;
        if (n >= base) xbits = extra[n-base];
        f = tree[n].fc.freq;
        s->opt_len += (ulg)f * (bits + xbits);
        if (stree) s->static_len += (ulg)f * (stree[n].dl.len + xbits);
    }
    if (overflow == 0) return;

    ;



    do {
        bits = max_length-1;
        while (s->bl_count[bits] == 0) bits--;
        s->bl_count[bits]--;
        s->bl_count[bits+1] += 2;
        s->bl_count[max_length]--;



        overflow -= 2;
    } while (overflow > 0);






    for (bits = max_length; bits != 0; bits--) {
        n = s->bl_count[bits];
        while (n != 0) {
            m = s->heap[--h];
            if (m > max_code) continue;
            if ((unsigned) tree[m].dl.len != (unsigned) bits) {
                ;
                s->opt_len += ((long)bits - (long)tree[m].dl.len)
                              *(long)tree[m].fc.freq;
                tree[m].dl.len = (ush)bits;
            }
            n--;
        }
    }
}
# 577 "c:/users/plu/documents/petetrlu/kitchen/spices/airplay4.4/modules/third_party/zlib/upstream/trees.c"
static void gen_codes (tree, max_code, bl_count)
    ct_data *tree;
    int max_code;
    ushf *bl_count;
{
    ush next_code[15 +1];
    ush code = 0;
    int bits;
    int n;




    for (bits = 1; bits <= 15; bits++) {
        next_code[bits] = code = (code + bl_count[bits-1]) << 1;
    }



    ;

    ;

    for (n = 0; n <= max_code; n++) {
        int len = tree[n].dl.len;
        if (len == 0) continue;

        tree[n].fc.code = bi_reverse(next_code[len]++, len);

        ;

    }
}
# 619 "c:/users/plu/documents/petetrlu/kitchen/spices/airplay4.4/modules/third_party/zlib/upstream/trees.c"
static void build_tree(s, desc)
    deflate_state *s;
    tree_desc *desc;
{
    ct_data *tree = desc->dyn_tree;
    const ct_data *stree = desc->stat_desc->static_tree;
    int elems = desc->stat_desc->elems;
    int n, m;
    int max_code = -1;
    int node;





    s->heap_len = 0, s->heap_max = (2*(256 +1+29)+1);

    for (n = 0; n < elems; n++) {
        if (tree[n].fc.freq != 0) {
            s->heap[++(s->heap_len)] = max_code = n;
            s->depth[n] = 0;
        } else {
            tree[n].dl.len = 0;
        }
    }






    while (s->heap_len < 2) {
        node = s->heap[++(s->heap_len)] = (max_code < 2 ? ++max_code : 0);
        tree[node].fc.freq = 1;
        s->depth[node] = 0;
        s->opt_len--; if (stree) s->static_len -= stree[node].dl.len;

    }
    desc->max_code = max_code;




    for (n = s->heap_len/2; n >= 1; n--) pqdownheap(s, tree, n);




    node = elems;
    do {
        { n = s->heap[1]; s->heap[1] = s->heap[s->heap_len--]; pqdownheap(s, tree, 1); };
        m = s->heap[1];

        s->heap[--(s->heap_max)] = n;
        s->heap[--(s->heap_max)] = m;


        tree[node].fc.freq = tree[n].fc.freq + tree[m].fc.freq;
        s->depth[node] = (uch)((s->depth[n] >= s->depth[m] ?
                                s->depth[n] : s->depth[m]) + 1);
        tree[n].dl.dad = tree[m].dl.dad = (ush)node;







        s->heap[1] = node++;
        pqdownheap(s, tree, 1);

    } while (s->heap_len >= 2);

    s->heap[--(s->heap_max)] = s->heap[1];




    gen_bitlen(s, (tree_desc *)desc);


    gen_codes ((ct_data *)tree, max_code, s->bl_count);
}





static void scan_tree (s, tree, max_code)
    deflate_state *s;
    ct_data *tree;
    int max_code;
{
    int n;
    int prevlen = -1;
    int curlen;
    int nextlen = tree[0].dl.len;
    int count = 0;
    int max_count = 7;
    int min_count = 4;

    if (nextlen == 0) max_count = 138, min_count = 3;
    tree[max_code+1].dl.len = (ush)0xffff;

    for (n = 0; n <= max_code; n++) {
        curlen = nextlen; nextlen = tree[n+1].dl.len;
        if (++count < max_count && curlen == nextlen) {
            continue;
        } else if (count < min_count) {
            s->bl_tree[curlen].fc.freq += count;
        } else if (curlen != 0) {
            if (curlen != prevlen) s->bl_tree[curlen].fc.freq++;
            s->bl_tree[16].fc.freq++;
        } else if (count <= 10) {
            s->bl_tree[17].fc.freq++;
        } else {
            s->bl_tree[18].fc.freq++;
        }
        count = 0; prevlen = curlen;
        if (nextlen == 0) {
            max_count = 138, min_count = 3;
        } else if (curlen == nextlen) {
            max_count = 6, min_count = 3;
        } else {
            max_count = 7, min_count = 4;
        }
    }
}





static void send_tree (s, tree, max_code)
    deflate_state *s;
    ct_data *tree;
    int max_code;
{
    int n;
    int prevlen = -1;
    int curlen;
    int nextlen = tree[0].dl.len;
    int count = 0;
    int max_count = 7;
    int min_count = 4;


    if (nextlen == 0) max_count = 138, min_count = 3;

    for (n = 0; n <= max_code; n++) {
        curlen = nextlen; nextlen = tree[n+1].dl.len;
        if (++count < max_count && curlen == nextlen) {
            continue;
        } else if (count < min_count) {
            do { { int len = s->bl_tree[curlen].dl.len; if (s->bi_valid > (int)(8 * 2*sizeof(char)) - len) { int val = s->bl_tree[curlen].fc.code; s->bi_buf |= (val << s->bi_valid); { {s->pending_buf[s->pending++] = ((uch)((s->bi_buf) & 0xff));}; {s->pending_buf[s->pending++] = ((uch)((ush)(s->bi_buf) >> 8));}; }; s->bi_buf = (ush)val >> ((8 * 2*sizeof(char)) - s->bi_valid); s->bi_valid += len - (8 * 2*sizeof(char)); } else { s->bi_buf |= (s->bl_tree[curlen].fc.code) << s->bi_valid; s->bi_valid += len; }}; } while (--count != 0);

        } else if (curlen != 0) {
            if (curlen != prevlen) {
                { int len = s->bl_tree[curlen].dl.len; if (s->bi_valid > (int)(8 * 2*sizeof(char)) - len) { int val = s->bl_tree[curlen].fc.code; s->bi_buf |= (val << s->bi_valid); { {s->pending_buf[s->pending++] = ((uch)((s->bi_buf) & 0xff));}; {s->pending_buf[s->pending++] = ((uch)((ush)(s->bi_buf) >> 8));}; }; s->bi_buf = (ush)val >> ((8 * 2*sizeof(char)) - s->bi_valid); s->bi_valid += len - (8 * 2*sizeof(char)); } else { s->bi_buf |= (s->bl_tree[curlen].fc.code) << s->bi_valid; s->bi_valid += len; }}; count--;
            }
            ;
            { int len = s->bl_tree[16].dl.len; if (s->bi_valid > (int)(8 * 2*sizeof(char)) - len) { int val = s->bl_tree[16].fc.code; s->bi_buf |= (val << s->bi_valid); { {s->pending_buf[s->pending++] = ((uch)((s->bi_buf) & 0xff));}; {s->pending_buf[s->pending++] = ((uch)((ush)(s->bi_buf) >> 8));}; }; s->bi_buf = (ush)val >> ((8 * 2*sizeof(char)) - s->bi_valid); s->bi_valid += len - (8 * 2*sizeof(char)); } else { s->bi_buf |= (s->bl_tree[16].fc.code) << s->bi_valid; s->bi_valid += len; }}; { int len = 2; if (s->bi_valid > (int)(8 * 2*sizeof(char)) - len) { int val = count-3; s->bi_buf |= (val << s->bi_valid); { {s->pending_buf[s->pending++] = ((uch)((s->bi_buf) & 0xff));}; {s->pending_buf[s->pending++] = ((uch)((ush)(s->bi_buf) >> 8));}; }; s->bi_buf = (ush)val >> ((8 * 2*sizeof(char)) - s->bi_valid); s->bi_valid += len - (8 * 2*sizeof(char)); } else { s->bi_buf |= (count-3) << s->bi_valid; s->bi_valid += len; }};

        } else if (count <= 10) {
            { int len = s->bl_tree[17].dl.len; if (s->bi_valid > (int)(8 * 2*sizeof(char)) - len) { int val = s->bl_tree[17].fc.code; s->bi_buf |= (val << s->bi_valid); { {s->pending_buf[s->pending++] = ((uch)((s->bi_buf) & 0xff));}; {s->pending_buf[s->pending++] = ((uch)((ush)(s->bi_buf) >> 8));}; }; s->bi_buf = (ush)val >> ((8 * 2*sizeof(char)) - s->bi_valid); s->bi_valid += len - (8 * 2*sizeof(char)); } else { s->bi_buf |= (s->bl_tree[17].fc.code) << s->bi_valid; s->bi_valid += len; }}; { int len = 3; if (s->bi_valid > (int)(8 * 2*sizeof(char)) - len) { int val = count-3; s->bi_buf |= (val << s->bi_valid); { {s->pending_buf[s->pending++] = ((uch)((s->bi_buf) & 0xff));}; {s->pending_buf[s->pending++] = ((uch)((ush)(s->bi_buf) >> 8));}; }; s->bi_buf = (ush)val >> ((8 * 2*sizeof(char)) - s->bi_valid); s->bi_valid += len - (8 * 2*sizeof(char)); } else { s->bi_buf |= (count-3) << s->bi_valid; s->bi_valid += len; }};

        } else {
            { int len = s->bl_tree[18].dl.len; if (s->bi_valid > (int)(8 * 2*sizeof(char)) - len) { int val = s->bl_tree[18].fc.code; s->bi_buf |= (val << s->bi_valid); { {s->pending_buf[s->pending++] = ((uch)((s->bi_buf) & 0xff));}; {s->pending_buf[s->pending++] = ((uch)((ush)(s->bi_buf) >> 8));}; }; s->bi_buf = (ush)val >> ((8 * 2*sizeof(char)) - s->bi_valid); s->bi_valid += len - (8 * 2*sizeof(char)); } else { s->bi_buf |= (s->bl_tree[18].fc.code) << s->bi_valid; s->bi_valid += len; }}; { int len = 7; if (s->bi_valid > (int)(8 * 2*sizeof(char)) - len) { int val = count-11; s->bi_buf |= (val << s->bi_valid); { {s->pending_buf[s->pending++] = ((uch)((s->bi_buf) & 0xff));}; {s->pending_buf[s->pending++] = ((uch)((ush)(s->bi_buf) >> 8));}; }; s->bi_buf = (ush)val >> ((8 * 2*sizeof(char)) - s->bi_valid); s->bi_valid += len - (8 * 2*sizeof(char)); } else { s->bi_buf |= (count-11) << s->bi_valid; s->bi_valid += len; }};
        }
        count = 0; prevlen = curlen;
        if (nextlen == 0) {
            max_count = 138, min_count = 3;
        } else if (curlen == nextlen) {
            max_count = 6, min_count = 3;
        } else {
            max_count = 7, min_count = 4;
        }
    }
}





static int build_bl_tree(s)
    deflate_state *s;
{
    int max_blindex;


    scan_tree(s, (ct_data *)s->dyn_ltree, s->l_desc.max_code);
    scan_tree(s, (ct_data *)s->dyn_dtree, s->d_desc.max_code);


    build_tree(s, (tree_desc *)(&(s->bl_desc)));
# 822 "c:/users/plu/documents/petetrlu/kitchen/spices/airplay4.4/modules/third_party/zlib/upstream/trees.c"
    for (max_blindex = 19 -1; max_blindex >= 3; max_blindex--) {
        if (s->bl_tree[bl_order[max_blindex]].dl.len != 0) break;
    }

    s->opt_len += 3*(max_blindex+1) + 5+5+4;
    ;


    return max_blindex;
}






static void send_all_trees(s, lcodes, dcodes, blcodes)
    deflate_state *s;
    int lcodes, dcodes, blcodes;
{
    int rank;

    ;
    ;

    ;
    { int len = 5; if (s->bi_valid > (int)(8 * 2*sizeof(char)) - len) { int val = lcodes-257; s->bi_buf |= (val << s->bi_valid); { {s->pending_buf[s->pending++] = ((uch)((s->bi_buf) & 0xff));}; {s->pending_buf[s->pending++] = ((uch)((ush)(s->bi_buf) >> 8));}; }; s->bi_buf = (ush)val >> ((8 * 2*sizeof(char)) - s->bi_valid); s->bi_valid += len - (8 * 2*sizeof(char)); } else { s->bi_buf |= (lcodes-257) << s->bi_valid; s->bi_valid += len; }};
    { int len = 5; if (s->bi_valid > (int)(8 * 2*sizeof(char)) - len) { int val = dcodes-1; s->bi_buf |= (val << s->bi_valid); { {s->pending_buf[s->pending++] = ((uch)((s->bi_buf) & 0xff));}; {s->pending_buf[s->pending++] = ((uch)((ush)(s->bi_buf) >> 8));}; }; s->bi_buf = (ush)val >> ((8 * 2*sizeof(char)) - s->bi_valid); s->bi_valid += len - (8 * 2*sizeof(char)); } else { s->bi_buf |= (dcodes-1) << s->bi_valid; s->bi_valid += len; }};
    { int len = 4; if (s->bi_valid > (int)(8 * 2*sizeof(char)) - len) { int val = blcodes-4; s->bi_buf |= (val << s->bi_valid); { {s->pending_buf[s->pending++] = ((uch)((s->bi_buf) & 0xff));}; {s->pending_buf[s->pending++] = ((uch)((ush)(s->bi_buf) >> 8));}; }; s->bi_buf = (ush)val >> ((8 * 2*sizeof(char)) - s->bi_valid); s->bi_valid += len - (8 * 2*sizeof(char)); } else { s->bi_buf |= (blcodes-4) << s->bi_valid; s->bi_valid += len; }};
    for (rank = 0; rank < blcodes; rank++) {
        ;
        { int len = 3; if (s->bi_valid > (int)(8 * 2*sizeof(char)) - len) { int val = s->bl_tree[bl_order[rank]].dl.len; s->bi_buf |= (val << s->bi_valid); { {s->pending_buf[s->pending++] = ((uch)((s->bi_buf) & 0xff));}; {s->pending_buf[s->pending++] = ((uch)((ush)(s->bi_buf) >> 8));}; }; s->bi_buf = (ush)val >> ((8 * 2*sizeof(char)) - s->bi_valid); s->bi_valid += len - (8 * 2*sizeof(char)); } else { s->bi_buf |= (s->bl_tree[bl_order[rank]].dl.len) << s->bi_valid; s->bi_valid += len; }};
    }
    ;

    send_tree(s, (ct_data *)s->dyn_ltree, lcodes-1);
    ;

    send_tree(s, (ct_data *)s->dyn_dtree, dcodes-1);
    ;
}




void _tr_stored_block(s, buf, stored_len, eof)
    deflate_state *s;
    charf *buf;
    ulg stored_len;
    int eof;
{
    { int len = 3; if (s->bi_valid > (int)(8 * 2*sizeof(char)) - len) { int val = (0<<1)+eof; s->bi_buf |= (val << s->bi_valid); { {s->pending_buf[s->pending++] = ((uch)((s->bi_buf) & 0xff));}; {s->pending_buf[s->pending++] = ((uch)((ush)(s->bi_buf) >> 8));}; }; s->bi_buf = (ush)val >> ((8 * 2*sizeof(char)) - s->bi_valid); s->bi_valid += len - (8 * 2*sizeof(char)); } else { s->bi_buf |= ((0<<1)+eof) << s->bi_valid; s->bi_valid += len; }};




    copy_block(s, buf, (unsigned)stored_len, 1);
}
# 892 "c:/users/plu/documents/petetrlu/kitchen/spices/airplay4.4/modules/third_party/zlib/upstream/trees.c"
void _tr_align(s)
    deflate_state *s;
{
    { int len = 3; if (s->bi_valid > (int)(8 * 2*sizeof(char)) - len) { int val = 1<<1; s->bi_buf |= (val << s->bi_valid); { {s->pending_buf[s->pending++] = ((uch)((s->bi_buf) & 0xff));}; {s->pending_buf[s->pending++] = ((uch)((ush)(s->bi_buf) >> 8));}; }; s->bi_buf = (ush)val >> ((8 * 2*sizeof(char)) - s->bi_valid); s->bi_valid += len - (8 * 2*sizeof(char)); } else { s->bi_buf |= (1<<1) << s->bi_valid; s->bi_valid += len; }};
    { int len = static_ltree[256].dl.len; if (s->bi_valid > (int)(8 * 2*sizeof(char)) - len) { int val = static_ltree[256].fc.code; s->bi_buf |= (val << s->bi_valid); { {s->pending_buf[s->pending++] = ((uch)((s->bi_buf) & 0xff));}; {s->pending_buf[s->pending++] = ((uch)((ush)(s->bi_buf) >> 8));}; }; s->bi_buf = (ush)val >> ((8 * 2*sizeof(char)) - s->bi_valid); s->bi_valid += len - (8 * 2*sizeof(char)); } else { s->bi_buf |= (static_ltree[256].fc.code) << s->bi_valid; s->bi_valid += len; }};



    bi_flush(s);





    if (1 + s->last_eob_len + 10 - s->bi_valid < 9) {
        { int len = 3; if (s->bi_valid > (int)(8 * 2*sizeof(char)) - len) { int val = 1<<1; s->bi_buf |= (val << s->bi_valid); { {s->pending_buf[s->pending++] = ((uch)((s->bi_buf) & 0xff));}; {s->pending_buf[s->pending++] = ((uch)((ush)(s->bi_buf) >> 8));}; }; s->bi_buf = (ush)val >> ((8 * 2*sizeof(char)) - s->bi_valid); s->bi_valid += len - (8 * 2*sizeof(char)); } else { s->bi_buf |= (1<<1) << s->bi_valid; s->bi_valid += len; }};
        { int len = static_ltree[256].dl.len; if (s->bi_valid > (int)(8 * 2*sizeof(char)) - len) { int val = static_ltree[256].fc.code; s->bi_buf |= (val << s->bi_valid); { {s->pending_buf[s->pending++] = ((uch)((s->bi_buf) & 0xff));}; {s->pending_buf[s->pending++] = ((uch)((ush)(s->bi_buf) >> 8));}; }; s->bi_buf = (ush)val >> ((8 * 2*sizeof(char)) - s->bi_valid); s->bi_valid += len - (8 * 2*sizeof(char)); } else { s->bi_buf |= (static_ltree[256].fc.code) << s->bi_valid; s->bi_valid += len; }};



        bi_flush(s);
    }
    s->last_eob_len = 7;
}





void _tr_flush_block(s, buf, stored_len, eof)
    deflate_state *s;
    charf *buf;
    ulg stored_len;
    int eof;
{
    ulg opt_lenb, static_lenb;
    int max_blindex = 0;


    if (s->level > 0) {


        if (stored_len > 0 && s->strm->data_type == 2)
            set_data_type(s);


        build_tree(s, (tree_desc *)(&(s->l_desc)));
        ;


        build_tree(s, (tree_desc *)(&(s->d_desc)));
        ;
# 952 "c:/users/plu/documents/petetrlu/kitchen/spices/airplay4.4/modules/third_party/zlib/upstream/trees.c"
        max_blindex = build_bl_tree(s);


        opt_lenb = (s->opt_len+3+7)>>3;
        static_lenb = (s->static_len+3+7)>>3;

        ;



        if (static_lenb <= opt_lenb) opt_lenb = static_lenb;

    } else {
        ;
        opt_lenb = static_lenb = stored_len + 5;
    }




    if (stored_len+4 <= opt_lenb && buf != (char*)0) {
# 981 "c:/users/plu/documents/petetrlu/kitchen/spices/airplay4.4/modules/third_party/zlib/upstream/trees.c"
        _tr_stored_block(s, buf, stored_len, eof);




    } else if (s->strategy == 4 || static_lenb == opt_lenb) {

        { int len = 3; if (s->bi_valid > (int)(8 * 2*sizeof(char)) - len) { int val = (1<<1)+eof; s->bi_buf |= (val << s->bi_valid); { {s->pending_buf[s->pending++] = ((uch)((s->bi_buf) & 0xff));}; {s->pending_buf[s->pending++] = ((uch)((ush)(s->bi_buf) >> 8));}; }; s->bi_buf = (ush)val >> ((8 * 2*sizeof(char)) - s->bi_valid); s->bi_valid += len - (8 * 2*sizeof(char)); } else { s->bi_buf |= ((1<<1)+eof) << s->bi_valid; s->bi_valid += len; }};
        compress_block(s, (ct_data *)static_ltree, (ct_data *)static_dtree);



    } else {
        { int len = 3; if (s->bi_valid > (int)(8 * 2*sizeof(char)) - len) { int val = (2<<1)+eof; s->bi_buf |= (val << s->bi_valid); { {s->pending_buf[s->pending++] = ((uch)((s->bi_buf) & 0xff));}; {s->pending_buf[s->pending++] = ((uch)((ush)(s->bi_buf) >> 8));}; }; s->bi_buf = (ush)val >> ((8 * 2*sizeof(char)) - s->bi_valid); s->bi_valid += len - (8 * 2*sizeof(char)); } else { s->bi_buf |= ((2<<1)+eof) << s->bi_valid; s->bi_valid += len; }};
        send_all_trees(s, s->l_desc.max_code+1, s->d_desc.max_code+1,
                       max_blindex+1);
        compress_block(s, (ct_data *)s->dyn_ltree, (ct_data *)s->dyn_dtree);



    }
    ;



    init_block(s);

    if (eof) {
        bi_windup(s);



    }
    ;

}





int _tr_tally (s, dist, lc)
    deflate_state *s;
    unsigned dist;
    unsigned lc;
{
    s->d_buf[s->last_lit] = (ush)dist;
    s->l_buf[s->last_lit++] = (uch)lc;
    if (dist == 0) {

        s->dyn_ltree[lc].fc.freq++;
    } else {
        s->matches++;

        dist--;
        ;



        s->dyn_ltree[_length_code[lc]+256 +1].fc.freq++;
        s->dyn_dtree[((dist) < 256 ? _dist_code[dist] : _dist_code[256+((dist)>>7)])].fc.freq++;
    }
# 1062 "c:/users/plu/documents/petetrlu/kitchen/spices/airplay4.4/modules/third_party/zlib/upstream/trees.c"
    return (s->last_lit == s->lit_bufsize-1);




}




static void compress_block(s, ltree, dtree)
    deflate_state *s;
    ct_data *ltree;
    ct_data *dtree;
{
    unsigned dist;
    int lc;
    unsigned lx = 0;
    unsigned code;
    int extra;

    if (s->last_lit != 0) do {
        dist = s->d_buf[lx];
        lc = s->l_buf[lx++];
        if (dist == 0) {
            { int len = ltree[lc].dl.len; if (s->bi_valid > (int)(8 * 2*sizeof(char)) - len) { int val = ltree[lc].fc.code; s->bi_buf |= (val << s->bi_valid); { {s->pending_buf[s->pending++] = ((uch)((s->bi_buf) & 0xff));}; {s->pending_buf[s->pending++] = ((uch)((ush)(s->bi_buf) >> 8));}; }; s->bi_buf = (ush)val >> ((8 * 2*sizeof(char)) - s->bi_valid); s->bi_valid += len - (8 * 2*sizeof(char)); } else { s->bi_buf |= (ltree[lc].fc.code) << s->bi_valid; s->bi_valid += len; }};
            ;
        } else {

            code = _length_code[lc];
            { int len = ltree[code+256 +1].dl.len; if (s->bi_valid > (int)(8 * 2*sizeof(char)) - len) { int val = ltree[code+256 +1].fc.code; s->bi_buf |= (val << s->bi_valid); { {s->pending_buf[s->pending++] = ((uch)((s->bi_buf) & 0xff));}; {s->pending_buf[s->pending++] = ((uch)((ush)(s->bi_buf) >> 8));}; }; s->bi_buf = (ush)val >> ((8 * 2*sizeof(char)) - s->bi_valid); s->bi_valid += len - (8 * 2*sizeof(char)); } else { s->bi_buf |= (ltree[code+256 +1].fc.code) << s->bi_valid; s->bi_valid += len; }};
            extra = extra_lbits[code];
            if (extra != 0) {
                lc -= base_length[code];
                { int len = extra; if (s->bi_valid > (int)(8 * 2*sizeof(char)) - len) { int val = lc; s->bi_buf |= (val << s->bi_valid); { {s->pending_buf[s->pending++] = ((uch)((s->bi_buf) & 0xff));}; {s->pending_buf[s->pending++] = ((uch)((ush)(s->bi_buf) >> 8));}; }; s->bi_buf = (ush)val >> ((8 * 2*sizeof(char)) - s->bi_valid); s->bi_valid += len - (8 * 2*sizeof(char)); } else { s->bi_buf |= (lc) << s->bi_valid; s->bi_valid += len; }};
            }
            dist--;
            code = ((dist) < 256 ? _dist_code[dist] : _dist_code[256+((dist)>>7)]);
            ;

            { int len = dtree[code].dl.len; if (s->bi_valid > (int)(8 * 2*sizeof(char)) - len) { int val = dtree[code].fc.code; s->bi_buf |= (val << s->bi_valid); { {s->pending_buf[s->pending++] = ((uch)((s->bi_buf) & 0xff));}; {s->pending_buf[s->pending++] = ((uch)((ush)(s->bi_buf) >> 8));}; }; s->bi_buf = (ush)val >> ((8 * 2*sizeof(char)) - s->bi_valid); s->bi_valid += len - (8 * 2*sizeof(char)); } else { s->bi_buf |= (dtree[code].fc.code) << s->bi_valid; s->bi_valid += len; }};
            extra = extra_dbits[code];
            if (extra != 0) {
                dist -= base_dist[code];
                { int len = extra; if (s->bi_valid > (int)(8 * 2*sizeof(char)) - len) { int val = dist; s->bi_buf |= (val << s->bi_valid); { {s->pending_buf[s->pending++] = ((uch)((s->bi_buf) & 0xff));}; {s->pending_buf[s->pending++] = ((uch)((ush)(s->bi_buf) >> 8));}; }; s->bi_buf = (ush)val >> ((8 * 2*sizeof(char)) - s->bi_valid); s->bi_valid += len - (8 * 2*sizeof(char)); } else { s->bi_buf |= (dist) << s->bi_valid; s->bi_valid += len; }};
            }
        }


        ;


    } while (lx < s->last_lit);

    { int len = ltree[256].dl.len; if (s->bi_valid > (int)(8 * 2*sizeof(char)) - len) { int val = ltree[256].fc.code; s->bi_buf |= (val << s->bi_valid); { {s->pending_buf[s->pending++] = ((uch)((s->bi_buf) & 0xff));}; {s->pending_buf[s->pending++] = ((uch)((ush)(s->bi_buf) >> 8));}; }; s->bi_buf = (ush)val >> ((8 * 2*sizeof(char)) - s->bi_valid); s->bi_valid += len - (8 * 2*sizeof(char)); } else { s->bi_buf |= (ltree[256].fc.code) << s->bi_valid; s->bi_valid += len; }};
    s->last_eob_len = ltree[256].dl.len;
}







static void set_data_type(s)
    deflate_state *s;
{
    int n;

    for (n = 0; n < 9; n++)
        if (s->dyn_ltree[n].fc.freq != 0)
            break;
    if (n == 9)
        for (n = 14; n < 32; n++)
            if (s->dyn_ltree[n].fc.freq != 0)
                break;
    s->strm->data_type = (n == 32) ? 1 : 0;
}






static unsigned bi_reverse(code, len)
    unsigned code;
    int len;
{
    register unsigned res = 0;
    do {
        res |= code & 1;
        code >>= 1, res <<= 1;
    } while (--len > 0);
    return res >> 1;
}




static void bi_flush(s)
    deflate_state *s;
{
    if (s->bi_valid == 16) {
        { {s->pending_buf[s->pending++] = ((uch)((s->bi_buf) & 0xff));}; {s->pending_buf[s->pending++] = ((uch)((ush)(s->bi_buf) >> 8));}; };
        s->bi_buf = 0;
        s->bi_valid = 0;
    } else if (s->bi_valid >= 8) {
        {s->pending_buf[s->pending++] = ((Byte)s->bi_buf);};
        s->bi_buf >>= 8;
        s->bi_valid -= 8;
    }
}




static void bi_windup(s)
    deflate_state *s;
{
    if (s->bi_valid > 8) {
        { {s->pending_buf[s->pending++] = ((uch)((s->bi_buf) & 0xff));}; {s->pending_buf[s->pending++] = ((uch)((ush)(s->bi_buf) >> 8));}; };
    } else if (s->bi_valid > 0) {
        {s->pending_buf[s->pending++] = ((Byte)s->bi_buf);};
    }
    s->bi_buf = 0;
    s->bi_valid = 0;



}





static void copy_block(s, buf, len, header)
    deflate_state *s;
    charf *buf;
    unsigned len;
    int header;
{
    bi_windup(s);
    s->last_eob_len = 8;

    if (header) {
        { {s->pending_buf[s->pending++] = ((uch)(((ush)len) & 0xff));}; {s->pending_buf[s->pending++] = ((uch)((ush)((ush)len) >> 8));}; };
        { {s->pending_buf[s->pending++] = ((uch)(((ush)~len) & 0xff));}; {s->pending_buf[s->pending++] = ((uch)((ush)((ush)~len) >> 8));}; };



    }



    while (len--) {
        {s->pending_buf[s->pending++] = (*buf++);};
    }
}
