# 1 "c:/users/plu/documents/petetrlu/kitchen/faucet/airplaygl44template/ug/uglu.c"
# 1 "<built-in>"
# 1 "<command-line>"
# 1 "C:/Users/plu/Documents/petetrlu/kitchen/faucet/self_help/test1/build_test1_vc10/temp_defines_release.h" 1
# 1 "<command-line>" 2
# 1 "c:/users/plu/documents/petetrlu/kitchen/faucet/airplaygl44template/ug/uglu.c"
# 25 "c:/users/plu/documents/petetrlu/kitchen/faucet/airplaygl44template/ug/uglu.c"
# 1 "c:/users/plu/documents/petetrlu/kitchen/spices/airplay4.4/s3e/h/std/stdlib.h" 1
# 15 "c:/users/plu/documents/petetrlu/kitchen/spices/airplay4.4/s3e/h/std/stdlib.h"
# 1 "c:/users/plu/documents/petetrlu/kitchen/spices/airplay4.4/s3e/h/std/sys/types.h" 1
# 15 "c:/users/plu/documents/petetrlu/kitchen/spices/airplay4.4/s3e/h/std/sys/types.h"
# 1 "c:/users/plu/documents/petetrlu/kitchen/spices/airplay4.4/s3e/h/s3eTypes.h" 1
# 37 "c:/users/plu/documents/petetrlu/kitchen/spices/airplay4.4/s3e/h/s3eTypes.h"
typedef unsigned char s3e_uint8_t;
typedef signed char s3e_int8_t;
typedef unsigned short int s3e_uint16_t;
typedef signed short int s3e_int16_t;
typedef unsigned int s3e_uint32_t;
typedef signed int s3e_int32_t;
# 51 "c:/users/plu/documents/petetrlu/kitchen/spices/airplay4.4/s3e/h/s3eTypes.h"
  typedef signed long long s3e_int64_t;
  typedef unsigned long long s3e_uint64_t;
# 72 "c:/users/plu/documents/petetrlu/kitchen/spices/airplay4.4/s3e/h/s3eTypes.h"
typedef s3e_uint64_t uint64_t;
typedef s3e_int64_t int64_t;
typedef s3e_uint32_t uint32_t;
typedef s3e_int32_t int32_t;
typedef s3e_uint16_t uint16_t;
typedef s3e_int16_t int16_t;
typedef s3e_uint8_t uint8_t;
typedef s3e_int8_t int8_t;
# 93 "c:/users/plu/documents/petetrlu/kitchen/spices/airplay4.4/s3e/h/s3eTypes.h"
 typedef int intptr_t;
 typedef unsigned int uintptr_t;
# 104 "c:/users/plu/documents/petetrlu/kitchen/spices/airplay4.4/s3e/h/s3eTypes.h"
typedef unsigned int uint;
typedef unsigned short int ushort;
typedef unsigned long int ulong;
typedef unsigned char uint8;
typedef signed char int8;







typedef int64_t int64;
typedef uint64_t uint64;
# 126 "c:/users/plu/documents/petetrlu/kitchen/spices/airplay4.4/s3e/h/s3eTypes.h"
typedef unsigned int uint32;
# 135 "c:/users/plu/documents/petetrlu/kitchen/spices/airplay4.4/s3e/h/s3eTypes.h"
typedef signed int int32;





typedef uint16_t uint16;




typedef int16_t int16;
# 217 "c:/users/plu/documents/petetrlu/kitchen/spices/airplay4.4/s3e/h/s3eTypes.h"
typedef enum s3eResult
{
    S3E_RESULT_SUCCESS = 0,
    S3E_RESULT_ERROR = 1
} s3eResult;




typedef uint8 s3eBool;
# 237 "c:/users/plu/documents/petetrlu/kitchen/spices/airplay4.4/s3e/h/s3eTypes.h"
typedef unsigned short s3eWChar;
# 308 "c:/users/plu/documents/petetrlu/kitchen/spices/airplay4.4/s3e/h/s3eTypes.h"
typedef int32 (*s3eCallback) (void* systemData, void* userData);
# 16 "c:/users/plu/documents/petetrlu/kitchen/spices/airplay4.4/s3e/h/std/sys/types.h" 2
# 1 "c:/users/plu/documents/petetrlu/kitchen/spices/airplay4.4/s3e/h/std/stddef.h" 1
# 15 "c:/users/plu/documents/petetrlu/kitchen/spices/airplay4.4/s3e/h/std/stddef.h"
typedef signed int ptrdiff_t;


    typedef unsigned int wint_t;
    typedef unsigned long int wctype_t;



    typedef unsigned short wchar_t;



typedef unsigned int size_t;
# 17 "c:/users/plu/documents/petetrlu/kitchen/spices/airplay4.4/s3e/h/std/sys/types.h" 2
# 1 "c:/users/plu/documents/petetrlu/kitchen/spices/airplay4.4/s3e/h/std/stdint.h" 1
# 19 "c:/users/plu/documents/petetrlu/kitchen/spices/airplay4.4/s3e/h/std/stdint.h"
typedef signed char int_least8_t;
typedef short int_least16_t;
typedef long int_least32_t;
typedef int64_t int_least64_t;

typedef unsigned char uint_least8_t;
typedef unsigned short uint_least16_t;
typedef unsigned long uint_least32_t;
typedef uint64_t uint_least64_t;

typedef signed char int_fast8_t;
typedef short int_fast16_t;
typedef long int_fast32_t;
typedef int64_t int_fast64_t;

typedef unsigned char uint_fast8_t;
typedef unsigned short uint_fast16_t;
typedef unsigned long uint_fast32_t;
typedef uint64_t uint_fast64_t;

typedef int64_t intmax_t;
typedef uint64_t uintmax_t;
# 18 "c:/users/plu/documents/petetrlu/kitchen/spices/airplay4.4/s3e/h/std/sys/types.h" 2
# 1 "c:/users/plu/documents/petetrlu/kitchen/spices/airplay4.4/s3e/h/std/sys/select.h" 1
# 24 "c:/users/plu/documents/petetrlu/kitchen/spices/airplay4.4/s3e/h/std/sys/select.h"
struct timeval;

typedef struct fd_set
{
    char fds_bits[256/8];
} fd_set;
# 39 "c:/users/plu/documents/petetrlu/kitchen/spices/airplay4.4/s3e/h/std/sys/select.h"


int select(int nfds, fd_set *readfds, fd_set *writefds, fd_set *exceptfds, struct timeval *timeout);


# 19 "c:/users/plu/documents/petetrlu/kitchen/spices/airplay4.4/s3e/h/std/sys/types.h" 2



typedef long off_t;

typedef int64_t off64_t;
# 33 "c:/users/plu/documents/petetrlu/kitchen/spices/airplay4.4/s3e/h/std/sys/types.h"
typedef uint u_int;
typedef uint8_t u_int8_t;
typedef uint16_t u_int16_t;
typedef uint32_t u_int32_t;
typedef uint64_t u_int64_t;

typedef unsigned short u_short;
typedef unsigned long u_long;
typedef unsigned char u_char;

typedef int ssize_t;
typedef int pid_t;
typedef short uid_t;
typedef short gid_t;
typedef int idtype_t;
typedef int id_t;
typedef uint32 mode_t;
typedef short dev_t;
typedef short ino_t;
typedef int key_t;
typedef void* caddr_t;
# 16 "c:/users/plu/documents/petetrlu/kitchen/spices/airplay4.4/s3e/h/std/stdlib.h" 2
# 1 "c:/users/plu/documents/petetrlu/kitchen/spices/airplay4.4/s3e/h/std/malloc.h" 1
# 16 "c:/users/plu/documents/petetrlu/kitchen/spices/airplay4.4/s3e/h/std/malloc.h"
# 1 "c:/users/plu/documents/petetrlu/kitchen/spices/airplay4.4/s3e/h/std/alloca.h" 1
# 17 "c:/users/plu/documents/petetrlu/kitchen/spices/airplay4.4/s3e/h/std/alloca.h"



    extern void *alloca(size_t __size);
# 35 "c:/users/plu/documents/petetrlu/kitchen/spices/airplay4.4/s3e/h/std/alloca.h"

# 17 "c:/users/plu/documents/petetrlu/kitchen/spices/airplay4.4/s3e/h/std/malloc.h" 2



void *calloc(size_t nmemb, size_t size);
void *malloc(size_t size);
void free(void *ptr);
void *realloc(void *ptr, size_t size);


# 17 "c:/users/plu/documents/petetrlu/kitchen/spices/airplay4.4/s3e/h/std/stdlib.h" 2
# 28 "c:/users/plu/documents/petetrlu/kitchen/spices/airplay4.4/s3e/h/std/stdlib.h"


double atof(const char* string);
int atoi(const char *nptr);
long atol(const char *nptr);
int64_t atoll(const char *nptr);
int64_t atoq(const char *nptr);
int abs(int j);
long int labs(long int j);
int64_t llabs(int64_t j);
void qsort(void *base, size_t nmemb, size_t size, int(*compar)(const void *, const void *));
void *bsearch(const void *key, const void *base, size_t nmemb, size_t size, int (*compar)(const void *, const void *));
void abort(void);
int putenv(char *string);
char *getenv(const char *name);
int setenv(const char *name, const char *value, int overwrite);
int unsetenv(const char *name);
void exit(int status) __attribute__ ((noreturn));
void _exit(int status) __attribute__ ((noreturn));
void _Exit(int status) __attribute__ ((noreturn));
unsigned long int strtoul(const char *nptr, char **endptr, int base);
uint64_t strtoull(const char *nptr, char **endptr, int base);
long int strtol(const char *nptr, char **endptr, int base);
int64_t strtoll(const char *nptr, char **endptr, int base);
double strtod(const char *nptr, char **endptr);
float strtof(const char *nptr, char **endptr);
long double strtold(const char *nptr, char **endptr);
int atexit(void (*function)(void));
int system(const char *command);
int posix_memalign(void **memptr, size_t alignment, size_t size);
char *mktemp(char *templ);
int mkstemp(char *templ);



int rand(void);
void srand(unsigned int seed);

long int random(void);
void srandom(unsigned int seed);

size_t __ctype_get_mb_cur_max();


int mblen(const char *s, size_t n);
int mbtowc(wchar_t *pwc, const char *s, size_t n);
int wctomb(char *s, wchar_t wc);
size_t mbstowcs(wchar_t *dest, const char *src, size_t n);
size_t wcstombs(char *dest, const wchar_t *src, size_t n);

typedef struct
{
    int quot;
    int rem;
} div_t;

typedef struct
{
    int quot;
    int rem;
} ldiv_t;

typedef struct
{
    int64_t quot;
    int64_t rem;
} lldiv_t;

div_t div(int numerator, int denominator);
ldiv_t ldiv(long numerator, long denominator);
lldiv_t lldiv(int64_t numerator, int64_t denominator);
# 117 "c:/users/plu/documents/petetrlu/kitchen/spices/airplay4.4/s3e/h/std/stdlib.h"

# 26 "c:/users/plu/documents/petetrlu/kitchen/faucet/airplaygl44template/ug/uglu.c" 2
# 1 "c:/users/plu/documents/petetrlu/kitchen/spices/airplay4.4/s3e/h/std/string.h" 1
# 17 "c:/users/plu/documents/petetrlu/kitchen/spices/airplay4.4/s3e/h/std/string.h"


void *memcpy(void *dest, const void *src, size_t n);
void *memset(void *s, int c, size_t n);
int memcmp(const void *s1, const void *s2, size_t n);
void *memmove(void *dest, const void *src, size_t n);
void *memchr(const void *s, int c, size_t n);
void *memrchr(const void *s, int c, size_t n);







int strcmp(const char *s1, const char *s2);
int strncmp(const char *s1, const char *s2, size_t n);
char *strsep(char **stringp, const char *delim);
char *strcpy(char *dest, const char *src);
char *strncpy(char *dest, const char *src, size_t n);
char *strchr(const char *s, int c);
char *strstr(const char *haystack, const char *needle);
char *strrchr(const char *s, int c);
char *strdup(const char *s);
char *strtok(char *str, const char *delim);
char *strtok_r(char *str, const char *delim, char **saveptr);
char *strcat(char *dest, const char *src);
char *strncat(char *dest, const char *src, size_t n);
size_t strlen(const char *s);
size_t strnlen(const char *s, size_t n);
int strcasecmp(const char *s1, const char *s2);
int strncasecmp(const char *s1, const char *s2, size_t n);
size_t strspn(const char *s, const char *accept);
size_t strcspn(const char *s, const char *reject);
char *strpbrk(const char *s, const char *accept);
int strcoll(const char *s1, const char *s2);
char *strerror(int errnum);
size_t strxfrm(char *dest, const char *src, size_t n);

int strerror_r(int errnum, char *buf, size_t buflen);





size_t strlcpy(char* dest, const char* src, size_t len);
size_t strlcat(char* dest, const char* src, size_t len);


# 27 "c:/users/plu/documents/petetrlu/kitchen/faucet/airplaygl44template/ug/uglu.c" 2
# 1 "c:/users/plu/documents/petetrlu/kitchen/spices/airplay4.4/s3e/h/GLES/egl.h" 1
# 12 "c:/users/plu/documents/petetrlu/kitchen/spices/airplay4.4/s3e/h/GLES/egl.h"
# 1 "c:/users/plu/documents/petetrlu/kitchen/spices/airplay4.4/s3e/h/EGL/egl.h" 1
# 36 "c:/users/plu/documents/petetrlu/kitchen/spices/airplay4.4/s3e/h/EGL/egl.h"
# 1 "c:/users/plu/documents/petetrlu/kitchen/spices/airplay4.4/s3e/h/EGL/eglplatform.h" 1
# 29 "c:/users/plu/documents/petetrlu/kitchen/spices/airplay4.4/s3e/h/EGL/eglplatform.h"
typedef signed int EGLint;
# 38 "c:/users/plu/documents/petetrlu/kitchen/spices/airplay4.4/s3e/h/EGL/eglplatform.h"
typedef void* NativeDisplayType;
typedef void* NativeWindowType;
typedef void *NativePixmapType;


typedef NativeDisplayType EGLNativeDisplayType;
typedef NativePixmapType EGLNativePixmapType;
typedef NativeWindowType EGLNativeWindowType;
# 37 "c:/users/plu/documents/petetrlu/kitchen/spices/airplay4.4/s3e/h/EGL/egl.h" 2







typedef unsigned int EGLBoolean;
typedef unsigned int EGLenum;
typedef void *EGLConfig;
typedef void *EGLContext;
typedef void *EGLDisplay;
typedef void *EGLSurface;
typedef void *EGLClientBuffer;
# 250 "c:/users/plu/documents/petetrlu/kitchen/spices/airplay4.4/s3e/h/EGL/egl.h"
 EGLint eglGetError(void);

 EGLDisplay eglGetDisplay(EGLNativeDisplayType display_id);
 EGLBoolean eglInitialize(EGLDisplay dpy, EGLint *major, EGLint *minor);
 EGLBoolean eglTerminate(EGLDisplay dpy);

 const char * eglQueryString(EGLDisplay dpy, EGLint name);

 EGLBoolean eglGetConfigs(EGLDisplay dpy, EGLConfig *configs,
    EGLint config_size, EGLint *num_config);
 EGLBoolean eglChooseConfig(EGLDisplay dpy, const EGLint *attrib_list,
      EGLConfig *configs, EGLint config_size,
      EGLint *num_config);
 EGLBoolean eglGetConfigAttrib(EGLDisplay dpy, EGLConfig config,
         EGLint attribute, EGLint *value);

 EGLSurface eglCreateWindowSurface(EGLDisplay dpy, EGLConfig config,
      EGLNativeWindowType win,
      const EGLint *attrib_list);
 EGLSurface eglCreatePbufferSurface(EGLDisplay dpy, EGLConfig config,
       const EGLint *attrib_list);
 EGLSurface eglCreatePixmapSurface(EGLDisplay dpy, EGLConfig config,
      EGLNativePixmapType pixmap,
      const EGLint *attrib_list);
 EGLBoolean eglDestroySurface(EGLDisplay dpy, EGLSurface surface);
 EGLBoolean eglQuerySurface(EGLDisplay dpy, EGLSurface surface,
      EGLint attribute, EGLint *value);

 EGLBoolean eglBindAPI(EGLenum api);
 EGLenum eglQueryAPI(void);

 EGLBoolean eglWaitClient(void);

 EGLBoolean eglReleaseThread(void);

 EGLSurface eglCreatePbufferFromClientBuffer(
       EGLDisplay dpy, EGLenum buftype, EGLClientBuffer buffer,
       EGLConfig config, const EGLint *attrib_list);

 EGLBoolean eglSurfaceAttrib(EGLDisplay dpy, EGLSurface surface,
       EGLint attribute, EGLint value);
 EGLBoolean eglBindTexImage(EGLDisplay dpy, EGLSurface surface, EGLint buffer);
 EGLBoolean eglReleaseTexImage(EGLDisplay dpy, EGLSurface surface, EGLint buffer);


 EGLBoolean eglSwapInterval(EGLDisplay dpy, EGLint interval);


 EGLContext eglCreateContext(EGLDisplay dpy, EGLConfig config,
       EGLContext share_context,
       const EGLint *attrib_list);
 EGLBoolean eglDestroyContext(EGLDisplay dpy, EGLContext ctx);
 EGLBoolean eglMakeCurrent(EGLDisplay dpy, EGLSurface draw,
     EGLSurface read, EGLContext ctx);

 EGLContext eglGetCurrentContext(void);
 EGLSurface eglGetCurrentSurface(EGLint readdraw);
 EGLDisplay eglGetCurrentDisplay(void);
 EGLBoolean eglQueryContext(EGLDisplay dpy, EGLContext ctx,
      EGLint attribute, EGLint *value);

 EGLBoolean eglWaitGL(void);
 EGLBoolean eglWaitNative(EGLint engine);
 EGLBoolean eglSwapBuffers(EGLDisplay dpy, EGLSurface surface);
 EGLBoolean eglCopyBuffers(EGLDisplay dpy, EGLSurface surface,
     EGLNativePixmapType target);




typedef void (*__eglMustCastToProperFunctionPointerType)(void);


 __eglMustCastToProperFunctionPointerType
       eglGetProcAddress(const char *procname);
# 13 "c:/users/plu/documents/petetrlu/kitchen/spices/airplay4.4/s3e/h/GLES/egl.h" 2
# 1 "c:/users/plu/documents/petetrlu/kitchen/spices/airplay4.4/s3e/h/GLES/gl.h" 1





# 1 "c:/users/plu/documents/petetrlu/kitchen/spices/airplay4.4/s3e/h/GLES/glplatform.h" 1
# 32 "c:/users/plu/documents/petetrlu/kitchen/spices/airplay4.4/s3e/h/GLES/glplatform.h"
typedef signed char khronos_int8_t;
typedef unsigned char khronos_uint8_t;
typedef float khronos_float_t;
typedef int khronos_int32_t;
typedef intptr_t khronos_intptr_t;
typedef int khronos_ssize_t;
# 7 "c:/users/plu/documents/petetrlu/kitchen/spices/airplay4.4/s3e/h/GLES/gl.h" 2
# 17 "c:/users/plu/documents/petetrlu/kitchen/spices/airplay4.4/s3e/h/GLES/gl.h"
typedef void GLvoid;
typedef char GLchar;
typedef unsigned int GLenum;
typedef unsigned char GLboolean;
typedef unsigned int GLbitfield;
typedef khronos_int8_t GLbyte;
typedef short GLshort;
typedef int GLint;
typedef int GLsizei;
typedef khronos_uint8_t GLubyte;
typedef unsigned short GLushort;
typedef unsigned int GLuint;
typedef khronos_float_t GLfloat;
typedef khronos_float_t GLclampf;
typedef khronos_int32_t GLfixed;
typedef khronos_int32_t GLclampx;

typedef khronos_intptr_t GLintptr;
typedef khronos_ssize_t GLsizeiptr;
# 593 "c:/users/plu/documents/petetrlu/kitchen/spices/airplay4.4/s3e/h/GLES/gl.h"
 void glAlphaFunc (GLenum func, GLclampf ref);
 void glClearColor (GLclampf red, GLclampf green, GLclampf blue, GLclampf alpha);
 void glClearDepthf (GLclampf depth);
 void glClipPlanef (GLenum plane, const GLfloat *equation);
 void glColor4f (GLfloat red, GLfloat green, GLfloat blue, GLfloat alpha);
 void glDepthRangef (GLclampf zNear, GLclampf zFar);
 void glFogf (GLenum pname, GLfloat param);
 void glFogfv (GLenum pname, const GLfloat *params);
 void glFrustumf (GLfloat left, GLfloat right, GLfloat bottom, GLfloat top, GLfloat zNear, GLfloat zFar);
 void glGetClipPlanef (GLenum pname, GLfloat eqn[4]);
 void glGetFloatv (GLenum pname, GLfloat *params);
 void glGetLightfv (GLenum light, GLenum pname, GLfloat *params);
 void glGetMaterialfv (GLenum face, GLenum pname, GLfloat *params);
 void glGetTexEnvfv (GLenum env, GLenum pname, GLfloat *params);
 void glGetTexParameterfv (GLenum target, GLenum pname, GLfloat *params);
 void glLightModelf (GLenum pname, GLfloat param);
 void glLightModelfv (GLenum pname, const GLfloat *params);
 void glLightf (GLenum light, GLenum pname, GLfloat param);
 void glLightfv (GLenum light, GLenum pname, const GLfloat *params);
 void glLineWidth (GLfloat width);
 void glLoadMatrixf (const GLfloat *m);
 void glMaterialf (GLenum face, GLenum pname, GLfloat param);
 void glMaterialfv (GLenum face, GLenum pname, const GLfloat *params);
 void glMultMatrixf (const GLfloat *m);
 void glMultiTexCoord4f (GLenum target, GLfloat s, GLfloat t, GLfloat r, GLfloat q);
 void glNormal3f (GLfloat nx, GLfloat ny, GLfloat nz);
 void glOrthof (GLfloat left, GLfloat right, GLfloat bottom, GLfloat top, GLfloat zNear, GLfloat zFar);
 void glPointParameterf (GLenum pname, GLfloat param);
 void glPointParameterfv (GLenum pname, const GLfloat *params);
 void glPointSize (GLfloat size);
 void glPolygonOffset (GLfloat factor, GLfloat units);
 void glRotatef (GLfloat angle, GLfloat x, GLfloat y, GLfloat z);
 void glScalef (GLfloat x, GLfloat y, GLfloat z);
 void glTexEnvf (GLenum target, GLenum pname, GLfloat param);
 void glTexEnvfv (GLenum target, GLenum pname, const GLfloat *params);
 void glTexParameterf (GLenum target, GLenum pname, GLfloat param);
 void glTexParameterfv (GLenum target, GLenum pname, const GLfloat *params);
 void glTranslatef (GLfloat x, GLfloat y, GLfloat z);


 void glActiveTexture (GLenum texture);
 void glAlphaFuncx (GLenum func, GLclampx ref);
 void glBindBuffer (GLenum target, GLuint buffer);
 void glBindTexture (GLenum target, GLuint texture);
 void glBlendFunc (GLenum sfactor, GLenum dfactor);
 void glBufferData (GLenum target, GLsizeiptr size, const GLvoid *data, GLenum usage);
 void glBufferSubData (GLenum target, GLintptr offset, GLsizeiptr size, const GLvoid *data);
 void glClear (GLbitfield mask);
 void glClearColorx (GLclampx red, GLclampx green, GLclampx blue, GLclampx alpha);
 void glClearDepthx (GLclampx depth);
 void glClearStencil (GLint s);
 void glClientActiveTexture (GLenum texture);
 void glClipPlanex (GLenum plane, const GLfixed *equation);
 void glColor4ub (GLubyte red, GLubyte green, GLubyte blue, GLubyte alpha);
 void glColor4x (GLfixed red, GLfixed green, GLfixed blue, GLfixed alpha);
 void glColorMask (GLboolean red, GLboolean green, GLboolean blue, GLboolean alpha);
 void glColorPointer (GLint size, GLenum type, GLsizei stride, const GLvoid *pointer);
 void glCompressedTexImage2D (GLenum target, GLint level, GLenum internalformat, GLsizei width, GLsizei height, GLint border, GLsizei imageSize, const GLvoid *data);
 void glCompressedTexSubImage2D (GLenum target, GLint level, GLint xoffset, GLint yoffset, GLsizei width, GLsizei height, GLenum format, GLsizei imageSize, const GLvoid *data);
 void glCopyTexImage2D (GLenum target, GLint level, GLenum internalformat, GLint x, GLint y, GLsizei width, GLsizei height, GLint border);
 void glCopyTexSubImage2D (GLenum target, GLint level, GLint xoffset, GLint yoffset, GLint x, GLint y, GLsizei width, GLsizei height);
 void glCullFace (GLenum mode);
 void glDeleteBuffers (GLsizei n, const GLuint *buffers);
 void glDeleteTextures (GLsizei n, const GLuint *textures);
 void glDepthFunc (GLenum func);
 void glDepthMask (GLboolean flag);
 void glDepthRangex (GLclampx zNear, GLclampx zFar);
 void glDisable (GLenum cap);
 void glDisableClientState (GLenum array);
 void glDrawArrays (GLenum mode, GLint first, GLsizei count);
 void glDrawElements (GLenum mode, GLsizei count, GLenum type, const GLvoid *indices);
 void glEnable (GLenum cap);
 void glEnableClientState (GLenum array);
 void glFinish (void);
 void glFlush (void);
 void glFogx (GLenum pname, GLfixed param);
 void glFogxv (GLenum pname, const GLfixed *params);
 void glFrontFace (GLenum mode);
 void glFrustumx (GLfixed left, GLfixed right, GLfixed bottom, GLfixed top, GLfixed zNear, GLfixed zFar);
 void glGetBooleanv (GLenum pname, GLboolean *params);
 void glGetBufferParameteriv (GLenum target, GLenum pname, GLint *params);
 void glGetClipPlanex (GLenum pname, GLfixed eqn[4]);
 void glGenBuffers (GLsizei n, GLuint *buffers);
 void glGenTextures (GLsizei n, GLuint *textures);
 GLenum glGetError (void);
 void glGetFixedv (GLenum pname, GLfixed *params);
 void glGetIntegerv (GLenum pname, GLint *params);
 void glGetLightxv (GLenum light, GLenum pname, GLfixed *params);
 void glGetMaterialxv (GLenum face, GLenum pname, GLfixed *params);
 void glGetPointerv (GLenum pname, GLvoid **params);
 const GLubyte * glGetString (GLenum name);
 void glGetTexEnviv (GLenum env, GLenum pname, GLint *params);
 void glGetTexEnvxv (GLenum env, GLenum pname, GLfixed *params);
 void glGetTexParameteriv (GLenum target, GLenum pname, GLint *params);
 void glGetTexParameterxv (GLenum target, GLenum pname, GLfixed *params);
 void glHint (GLenum target, GLenum mode);
 GLboolean glIsBuffer (GLuint buffer);
 GLboolean glIsEnabled (GLenum cap);
 GLboolean glIsTexture (GLuint texture);
 void glLightModelx (GLenum pname, GLfixed param);
 void glLightModelxv (GLenum pname, const GLfixed *params);
 void glLightx (GLenum light, GLenum pname, GLfixed param);
 void glLightxv (GLenum light, GLenum pname, const GLfixed *params);
 void glLineWidthx (GLfixed width);
 void glLoadIdentity (void);
 void glLoadMatrixx (const GLfixed *m);
 void glLogicOp (GLenum opcode);
 void glMaterialx (GLenum face, GLenum pname, GLfixed param);
 void glMaterialxv (GLenum face, GLenum pname, const GLfixed *params);
 void glMatrixMode (GLenum mode);
 void glMultMatrixx (const GLfixed *m);
 void glMultiTexCoord4x (GLenum target, GLfixed s, GLfixed t, GLfixed r, GLfixed q);
 void glNormal3x (GLfixed nx, GLfixed ny, GLfixed nz);
 void glNormalPointer (GLenum type, GLsizei stride, const GLvoid *pointer);
 void glOrthox (GLfixed left, GLfixed right, GLfixed bottom, GLfixed top, GLfixed zNear, GLfixed zFar);
 void glPixelStorei (GLenum pname, GLint param);
 void glPointParameterx (GLenum pname, GLfixed param);
 void glPointParameterxv (GLenum pname, const GLfixed *params);
 void glPointSizex (GLfixed size);
 void glPolygonOffsetx (GLfixed factor, GLfixed units);
 void glPopMatrix (void);
 void glPushMatrix (void);
 void glReadPixels (GLint x, GLint y, GLsizei width, GLsizei height, GLenum format, GLenum type, GLvoid *pixels);
 void glRotatex (GLfixed angle, GLfixed x, GLfixed y, GLfixed z);
 void glSampleCoverage (GLclampf value, GLboolean invert);
 void glSampleCoveragex (GLclampx value, GLboolean invert);
 void glScalex (GLfixed x, GLfixed y, GLfixed z);
 void glScissor (GLint x, GLint y, GLsizei width, GLsizei height);
 void glShadeModel (GLenum mode);
 void glStencilFunc (GLenum func, GLint ref, GLuint mask);
 void glStencilMask (GLuint mask);
 void glStencilOp (GLenum fail, GLenum zfail, GLenum zpass);
 void glTexCoordPointer (GLint size, GLenum type, GLsizei stride, const GLvoid *pointer);
 void glTexEnvi (GLenum target, GLenum pname, GLint param);
 void glTexEnvx (GLenum target, GLenum pname, GLfixed param);
 void glTexEnviv (GLenum target, GLenum pname, const GLint *params);
 void glTexEnvxv (GLenum target, GLenum pname, const GLfixed *params);

 void glTexImage2D (GLenum target, GLint level, GLint internalformat, GLsizei width, GLsizei height, GLint border, GLenum format, GLenum type, const GLvoid *pixels);

 void glTexParameteri (GLenum target, GLenum pname, GLint param);
 void glTexParameterx (GLenum target, GLenum pname, GLfixed param);
 void glTexParameteriv (GLenum target, GLenum pname, const GLint *params);
 void glTexParameterxv (GLenum target, GLenum pname, const GLfixed *params);
 void glTexSubImage2D (GLenum target, GLint level, GLint xoffset, GLint yoffset, GLsizei width, GLsizei height, GLenum format, GLenum type, const GLvoid *pixels);
 void glTranslatex (GLfixed x, GLfixed y, GLfixed z);
 void glVertexPointer (GLint size, GLenum type, GLsizei stride, const GLvoid *pointer);
 void glViewport (GLint x, GLint y, GLsizei width, GLsizei height);
# 759 "c:/users/plu/documents/petetrlu/kitchen/spices/airplay4.4/s3e/h/GLES/gl.h"
 void glPointSizePointerOES (GLenum type, GLsizei stride, const GLvoid *pointer);
# 14 "c:/users/plu/documents/petetrlu/kitchen/spices/airplay4.4/s3e/h/GLES/egl.h" 2
# 28 "c:/users/plu/documents/petetrlu/kitchen/faucet/airplaygl44template/ug/uglu.c" 2



# 1 "c:/users/plu/documents/petetrlu/kitchen/spices/airplay4.4/s3e/h/std/math.h" 1
# 17 "c:/users/plu/documents/petetrlu/kitchen/spices/airplay4.4/s3e/h/std/math.h"

# 48 "c:/users/plu/documents/petetrlu/kitchen/spices/airplay4.4/s3e/h/std/math.h"
double pow(double x, double y);
float powf(float x, float y);
long double powl(long double x, long double y);

double sin(double x);
float sinf(float x);
long double sinl(long double x);

double asin(double x);
float asinf(float x);
long double asinl(long double x);

double sinh(double x);
float sinhf(float x);
long double sinhl(long double x);

double cos(double x);
float cosf(float x);
long double cosl(long double x);

double cosh(double x);
float coshf(float x);
long double coshl(long double x);

double acos(double x);
float acosf(float x);
long double acosl(long double x);

double tan(double x);
float tanf(float x);
long double tanl(long double x);

double atan(double x);
float atanf(float x);
long double atanl( long double x);

double atan2(double y, double x);
float atan2f(float y, float x);
long double atan2l(long double y, long double x);

double tanh(double x);
float tanhf(float x);
long double tanhl(long double x);

double fabs(double x);
float fabsf(float x);
long double fabsl(long double x);

double ceil(double x);
float ceilf(float x);
long double ceill(long double x);

double floor(double x);
float floorf(float x);
long double floorl(long double x);

double sqrt(double x);
float sqrtf(float x);
long double sqrtl(long double x);

double cbrt(double x);
float cbrtf(float x);
long double cbrtl(long double x);

double fmod(double x, double y);
float fmodf(float x, float y);
long double fmodl(long double x, long double y);

double modf(double x, double *iptr);
float modff(float x, float *iptr);
long double modfl(long double x, long double *iptr);

double ldexp(double x, int exp);
float ldexpf(float x, int exp);
long double ldexpl(long double x, int exp);

double exp(double x);
float expf(float x);
long double expl(long double x);

double log(double x);
float logf(float x);
long double logl(long double x);

double log10(double x);
float log10f(float x);
long double log10l(long double x);

double rint(double x);
float rintf(float x);
long double rintl(long double x);

double round(double x);
float roundf(float x);
long double roundl(long double x);

double frexp(double x, int *exp);
float frexpf(float x, int *exp);
long double frexpl(long double x, int *exp);

long int lround(double x);
long int lroundf(float x);
long int lroundl(long double x);

int64 llround(double x);
int64 llroundf(float x);
int64 llroundl(long double x);

double nextafter(double x, double y);
float nextafterf(float x, float y);
long double nextafterl(long double x, long double y);

double nexttoward(double x, long double y);
float nexttowardf(float x, long double y);
long double nexttowardl(long double x, long double y);

double trunc(double x);
float truncf(float x);
long double truncl(long double x);

double hypot(double x, double y);

double copysign(double x, double y);
float copysignf(float x, float y);
long double copysignl(long double x, long double y);

int finite(double x);




# 1 "c:/users/plu/documents/petetrlu/kitchen/spices/airplay4.4/s3e/h/std/math_gcc.h" 1
# 26 "c:/users/plu/documents/petetrlu/kitchen/spices/airplay4.4/s3e/h/std/math_gcc.h"
int __isnanf(float);
int __isnand(double);
int __isinff(float);
int __isinfd(double);
int __signbitf(float);
int __signbitd(double);
int __fpclassify(double);
int __fpclassifyf(float);
int __fpclassifyl(double);
# 180 "c:/users/plu/documents/petetrlu/kitchen/spices/airplay4.4/s3e/h/std/math.h" 2
# 205 "c:/users/plu/documents/petetrlu/kitchen/spices/airplay4.4/s3e/h/std/math.h"

# 32 "c:/users/plu/documents/petetrlu/kitchen/faucet/airplaygl44template/ug/uglu.c" 2



# 1 "c:/users/plu/documents/petetrlu/kitchen/faucet/airplaygl44template/ug/ug.h" 1
# 78 "c:/users/plu/documents/petetrlu/kitchen/faucet/airplaygl44template/ug/ug.h"
typedef long UGCtx;
typedef long UGWindow;

extern UGCtx ugInit(void);
extern void ugFini(UGCtx ug);

extern UGCtx ugCtxFromWin(UGWindow uwin);

extern UGWindow ugCreateWindow(UGCtx ug, const char* config,
  const char* title, int width, int height, int x, int y);
extern void ugDestroyWindow(UGWindow uwin, EGLDisplay egldpy);

extern void ugDisplayFunc(UGWindow uwin, void (*f)(UGWindow uwin));
extern void ugReshapeFunc(UGWindow uwin, void (*f)(UGWindow uwin, int width, int height));
extern void ugKeyboardFunc(UGWindow uwin, void (*f)(UGWindow uwin, int key, int x, int y));
extern void ugPointerFunc(UGWindow uwin, void (*f)(UGWindow uwin, int button, int state, int x, int y));
extern void ugMotionFunc(UGWindow uwin, void (*f)(UGWindow uwin, int x, int y));
extern void ugIdleFunc(UGCtx ug, void (*f)(UGWindow uwin));

extern void ugMainLoop(UGCtx ug);

extern void ugPostRedisplay(UGWindow uwin);
extern void ugSwapBuffers(UGWindow uwin);
# 121 "c:/users/plu/documents/petetrlu/kitchen/faucet/airplaygl44template/ug/ug.h"
extern void ugluPerspectivef(GLfloat fovy, GLfloat aspect, GLfloat n, GLfloat f);
extern void ugluPerspectivex(GLfixed fovy, GLfixed aspect, GLfixed n, GLfixed f);
extern void ugluLookAtf(GLfloat eyex, GLfloat eyey, GLfloat eyez, GLfloat centerx,
    GLfloat centery, GLfloat centerz, GLfloat upx, GLfloat upy, GLfloat upz);
extern void ugluLookAtx(GLfixed eyex, GLfixed eyey, GLfixed eyez, GLfixed centerx,
    GLfixed centery, GLfixed centerz, GLfixed upx, GLfixed upy, GLfixed upz);
# 36 "c:/users/plu/documents/petetrlu/kitchen/faucet/airplaygl44template/ug/uglu.c" 2


 typedef int64 __int64;







static const unsigned short __gl_sin_tab[] = {
# 1 "c:/users/plu/documents/petetrlu/kitchen/faucet/airplaygl44template/ug/gl_sin.h" 1
0x0000,
0x0064,
0x00c9,
0x012d,
0x0192,
0x01f7,
0x025b,
0x02c0,
0x0325,
0x0389,
0x03ee,
0x0452,
0x04b7,
0x051c,
0x0580,
0x05e5,
0x0649,
0x06ae,
0x0713,
0x0777,
0x07dc,
0x0840,
0x08a5,
0x0909,
0x096e,
0x09d3,
0x0a37,
0x0a9c,
0x0b00,
0x0b65,
0x0bc9,
0x0c2e,
0x0c92,
0x0cf7,
0x0d5b,
0x0dc0,
0x0e24,
0x0e89,
0x0eed,
0x0f52,
0x0fb6,
0x101b,
0x107f,
0x10e3,
0x1148,
0x11ac,
0x1211,
0x1275,
0x12d9,
0x133e,
0x13a2,
0x1406,
0x146b,
0x14cf,
0x1533,
0x1597,
0x15fc,
0x1660,
0x16c4,
0x1728,
0x178d,
0x17f1,
0x1855,
0x18b9,
0x191d,
0x1981,
0x19e6,
0x1a4a,
0x1aae,
0x1b12,
0x1b76,
0x1bda,
0x1c3e,
0x1ca2,
0x1d06,
0x1d6a,
0x1dce,
0x1e32,
0x1e96,
0x1efa,
0x1f5d,
0x1fc1,
0x2025,
0x2089,
0x20ed,
0x2151,
0x21b4,
0x2218,
0x227c,
0x22e0,
0x2343,
0x23a7,
0x240a,
0x246e,
0x24d2,
0x2535,
0x2599,
0x25fc,
0x2660,
0x26c3,
0x2727,
0x278a,
0x27ee,
0x2851,
0x28b4,
0x2918,
0x297b,
0x29de,
0x2a42,
0x2aa5,
0x2b08,
0x2b6b,
0x2bce,
0x2c31,
0x2c95,
0x2cf8,
0x2d5b,
0x2dbe,
0x2e21,
0x2e84,
0x2ee7,
0x2f4a,
0x2fac,
0x300f,
0x3072,
0x30d5,
0x3138,
0x319a,
0x31fd,
0x3260,
0x32c2,
0x3325,
0x3388,
0x33ea,
0x344d,
0x34af,
0x3512,
0x3574,
0x35d6,
0x3639,
0x369b,
0x36fd,
0x3760,
0x37c2,
0x3824,
0x3886,
0x38e8,
0x394a,
0x39ad,
0x3a0f,
0x3a71,
0x3ad3,
0x3b34,
0x3b96,
0x3bf8,
0x3c5a,
0x3cbc,
0x3d1d,
0x3d7f,
0x3de1,
0x3e42,
0x3ea4,
0x3f06,
0x3f67,
0x3fc9,
0x402a,
0x408b,
0x40ed,
0x414e,
0x41af,
0x4211,
0x4272,
0x42d3,
0x4334,
0x4395,
0x43f6,
0x4457,
0x44b8,
0x4519,
0x457a,
0x45db,
0x463c,
0x469c,
0x46fd,
0x475e,
0x47be,
0x481f,
0x487f,
0x48e0,
0x4940,
0x49a1,
0x4a01,
0x4a61,
0x4ac2,
0x4b22,
0x4b82,
0x4be2,
0x4c42,
0x4ca2,
0x4d02,
0x4d62,
0x4dc2,
0x4e22,
0x4e82,
0x4ee1,
0x4f41,
0x4fa1,
0x5000,
0x5060,
0x50c0,
0x511f,
0x517e,
0x51de,
0x523d,
0x529c,
0x52fc,
0x535b,
0x53ba,
0x5419,
0x5478,
0x54d7,
0x5536,
0x5595,
0x55f4,
0x5652,
0x56b1,
0x5710,
0x576e,
0x57cd,
0x582b,
0x588a,
0x58e8,
0x5946,
0x59a5,
0x5a03,
0x5a61,
0x5abf,
0x5b1d,
0x5b7b,
0x5bd9,
0x5c37,
0x5c95,
0x5cf3,
0x5d51,
0x5dae,
0x5e0c,
0x5e69,
0x5ec7,
0x5f24,
0x5f82,
0x5fdf,
0x603c,
0x609a,
0x60f7,
0x6154,
0x61b1,
0x620e,
0x626b,
0x62c8,
0x6324,
0x6381,
0x63de,
0x643b,
0x6497,
0x64f4,
0x6550,
0x65ac,
0x6609,
0x6665,
0x66c1,
0x671d,
0x6779,
0x67d5,
0x6831,
0x688d,
0x68e9,
0x6945,
0x69a1,
0x69fc,
0x6a58,
0x6ab3,
0x6b0f,
0x6b6a,
0x6bc5,
0x6c21,
0x6c7c,
0x6cd7,
0x6d32,
0x6d8d,
0x6de8,
0x6e43,
0x6e9d,
0x6ef8,
0x6f53,
0x6fad,
0x7008,
0x7062,
0x70bd,
0x7117,
0x7171,
0x71cb,
0x7226,
0x7280,
0x72da,
0x7333,
0x738d,
0x73e7,
0x7441,
0x749a,
0x74f4,
0x754d,
0x75a7,
0x7600,
0x7659,
0x76b3,
0x770c,
0x7765,
0x77be,
0x7817,
0x786f,
0x78c8,
0x7921,
0x797a,
0x79d2,
0x7a2b,
0x7a83,
0x7adb,
0x7b33,
0x7b8c,
0x7be4,
0x7c3c,
0x7c94,
0x7cec,
0x7d43,
0x7d9b,
0x7df3,
0x7e4a,
0x7ea2,
0x7ef9,
0x7f51,
0x7fa8,
0x7fff,
0x8056,
0x80ad,
0x8104,
0x815b,
0x81b2,
0x8208,
0x825f,
0x82b6,
0x830c,
0x8363,
0x83b9,
0x840f,
0x8465,
0x84bb,
0x8511,
0x8567,
0x85bd,
0x8613,
0x8669,
0x86be,
0x8714,
0x8769,
0x87bf,
0x8814,
0x8869,
0x88be,
0x8913,
0x8968,
0x89bd,
0x8a12,
0x8a66,
0x8abb,
0x8b10,
0x8b64,
0x8bb8,
0x8c0d,
0x8c61,
0x8cb5,
0x8d09,
0x8d5d,
0x8db1,
0x8e04,
0x8e58,
0x8eac,
0x8eff,
0x8f53,
0x8fa6,
0x8ff9,
0x904c,
0x90a0,
0x90f2,
0x9145,
0x9198,
0x91eb,
0x923e,
0x9290,
0x92e3,
0x9335,
0x9387,
0x93d9,
0x942c,
0x947e,
0x94cf,
0x9521,
0x9573,
0x95c5,
0x9616,
0x9668,
0x96b9,
0x970a,
0x975c,
0x97ad,
0x97fe,
0x984f,
0x989f,
0x98f0,
0x9941,
0x9991,
0x99e2,
0x9a32,
0x9a83,
0x9ad3,
0x9b23,
0x9b73,
0x9bc3,
0x9c13,
0x9c62,
0x9cb2,
0x9d01,
0x9d51,
0x9da0,
0x9def,
0x9e3f,
0x9e8e,
0x9edd,
0x9f2b,
0x9f7a,
0x9fc9,
0xa017,
0xa066,
0xa0b4,
0xa103,
0xa151,
0xa19f,
0xa1ed,
0xa23b,
0xa288,
0xa2d6,
0xa324,
0xa371,
0xa3bf,
0xa40c,
0xa459,
0xa4a6,
0xa4f3,
0xa540,
0xa58d,
0xa5da,
0xa626,
0xa673,
0xa6bf,
0xa70b,
0xa758,
0xa7a4,
0xa7f0,
0xa83c,
0xa887,
0xa8d3,
0xa91f,
0xa96a,
0xa9b6,
0xaa01,
0xaa4c,
0xaa97,
0xaae2,
0xab2d,
0xab78,
0xabc2,
0xac0d,
0xac58,
0xaca2,
0xacec,
0xad36,
0xad80,
0xadca,
0xae14,
0xae5e,
0xaea7,
0xaef1,
0xaf3a,
0xaf84,
0xafcd,
0xb016,
0xb05f,
0xb0a8,
0xb0f1,
0xb139,
0xb182,
0xb1ca,
0xb213,
0xb25b,
0xb2a3,
0xb2eb,
0xb333,
0xb37b,
0xb3c2,
0xb40a,
0xb452,
0xb499,
0xb4e0,
0xb527,
0xb56e,
0xb5b5,
0xb5fc,
0xb643,
0xb689,
0xb6d0,
0xb716,
0xb75d,
0xb7a3,
0xb7e9,
0xb82f,
0xb875,
0xb8ba,
0xb900,
0xb945,
0xb98b,
0xb9d0,
0xba15,
0xba5a,
0xba9f,
0xbae4,
0xbb29,
0xbb6d,
0xbbb2,
0xbbf6,
0xbc3a,
0xbc7f,
0xbcc3,
0xbd07,
0xbd4a,
0xbd8e,
0xbdd2,
0xbe15,
0xbe58,
0xbe9c,
0xbedf,
0xbf22,
0xbf65,
0xbfa7,
0xbfea,
0xc02d,
0xc06f,
0xc0b1,
0xc0f4,
0xc136,
0xc178,
0xc1b9,
0xc1fb,
0xc23d,
0xc27e,
0xc2c0,
0xc301,
0xc342,
0xc383,
0xc3c4,
0xc405,
0xc445,
0xc486,
0xc4c6,
0xc507,
0xc547,
0xc587,
0xc5c7,
0xc607,
0xc646,
0xc686,
0xc6c5,
0xc705,
0xc744,
0xc783,
0xc7c2,
0xc801,
0xc840,
0xc87e,
0xc8bd,
0xc8fb,
0xc939,
0xc978,
0xc9b6,
0xc9f4,
0xca31,
0xca6f,
0xcaad,
0xcaea,
0xcb27,
0xcb64,
0xcba1,
0xcbde,
0xcc1b,
0xcc58,
0xcc94,
0xccd1,
0xcd0d,
0xcd49,
0xcd85,
0xcdc1,
0xcdfd,
0xce39,
0xce74,
0xceb0,
0xceeb,
0xcf26,
0xcf61,
0xcf9c,
0xcfd7,
0xd012,
0xd04c,
0xd087,
0xd0c1,
0xd0fb,
0xd135,
0xd16f,
0xd1a9,
0xd1e3,
0xd21c,
0xd256,
0xd28f,
0xd2c8,
0xd301,
0xd33a,
0xd373,
0xd3ac,
0xd3e4,
0xd41c,
0xd455,
0xd48d,
0xd4c5,
0xd4fd,
0xd535,
0xd56c,
0xd5a4,
0xd5db,
0xd612,
0xd649,
0xd680,
0xd6b7,
0xd6ee,
0xd725,
0xd75b,
0xd791,
0xd7c8,
0xd7fe,
0xd834,
0xd869,
0xd89f,
0xd8d5,
0xd90a,
0xd93f,
0xd975,
0xd9aa,
0xd9de,
0xda13,
0xda48,
0xda7c,
0xdab1,
0xdae5,
0xdb19,
0xdb4d,
0xdb81,
0xdbb5,
0xdbe8,
0xdc1c,
0xdc4f,
0xdc82,
0xdcb5,
0xdce8,
0xdd1b,
0xdd4e,
0xdd80,
0xddb2,
0xdde5,
0xde17,
0xde49,
0xde7b,
0xdeac,
0xdede,
0xdf0f,
0xdf41,
0xdf72,
0xdfa3,
0xdfd4,
0xe005,
0xe035,
0xe066,
0xe096,
0xe0c6,
0xe0f6,
0xe126,
0xe156,
0xe186,
0xe1b5,
0xe1e5,
0xe214,
0xe243,
0xe272,
0xe2a1,
0xe2d0,
0xe2fe,
0xe32d,
0xe35b,
0xe389,
0xe3b7,
0xe3e5,
0xe413,
0xe441,
0xe46e,
0xe49c,
0xe4c9,
0xe4f6,
0xe523,
0xe550,
0xe57c,
0xe5a9,
0xe5d5,
0xe601,
0xe62d,
0xe659,
0xe685,
0xe6b1,
0xe6dd,
0xe708,
0xe733,
0xe75e,
0xe789,
0xe7b4,
0xe7df,
0xe809,
0xe834,
0xe85e,
0xe888,
0xe8b2,
0xe8dc,
0xe906,
0xe930,
0xe959,
0xe982,
0xe9ab,
0xe9d5,
0xe9fd,
0xea26,
0xea4f,
0xea77,
0xeaa0,
0xeac8,
0xeaf0,
0xeb18,
0xeb3f,
0xeb67,
0xeb8e,
0xebb6,
0xebdd,
0xec04,
0xec2b,
0xec52,
0xec78,
0xec9f,
0xecc5,
0xeceb,
0xed11,
0xed37,
0xed5d,
0xed83,
0xeda8,
0xedcd,
0xedf3,
0xee18,
0xee3d,
0xee61,
0xee86,
0xeeaa,
0xeecf,
0xeef3,
0xef17,
0xef3b,
0xef5f,
0xef82,
0xefa6,
0xefc9,
0xefec,
0xf00f,
0xf032,
0xf055,
0xf077,
0xf09a,
0xf0bc,
0xf0de,
0xf100,
0xf122,
0xf144,
0xf165,
0xf187,
0xf1a8,
0xf1c9,
0xf1ea,
0xf20b,
0xf22c,
0xf24c,
0xf26d,
0xf28d,
0xf2ad,
0xf2cd,
0xf2ed,
0xf30c,
0xf32c,
0xf34b,
0xf36b,
0xf38a,
0xf3a9,
0xf3c7,
0xf3e6,
0xf404,
0xf423,
0xf441,
0xf45f,
0xf47d,
0xf49b,
0xf4b8,
0xf4d6,
0xf4f3,
0xf510,
0xf52d,
0xf54a,
0xf567,
0xf583,
0xf5a0,
0xf5bc,
0xf5d8,
0xf5f4,
0xf610,
0xf62c,
0xf647,
0xf663,
0xf67e,
0xf699,
0xf6b4,
0xf6cf,
0xf6e9,
0xf704,
0xf71e,
0xf738,
0xf752,
0xf76c,
0xf786,
0xf7a0,
0xf7b9,
0xf7d2,
0xf7ec,
0xf805,
0xf81d,
0xf836,
0xf84f,
0xf867,
0xf87f,
0xf897,
0xf8af,
0xf8c7,
0xf8df,
0xf8f6,
0xf90e,
0xf925,
0xf93c,
0xf953,
0xf96a,
0xf980,
0xf997,
0xf9ad,
0xf9c3,
0xf9d9,
0xf9ef,
0xfa05,
0xfa1a,
0xfa2f,
0xfa45,
0xfa5a,
0xfa6f,
0xfa84,
0xfa98,
0xfaad,
0xfac1,
0xfad5,
0xfae9,
0xfafd,
0xfb11,
0xfb24,
0xfb38,
0xfb4b,
0xfb5e,
0xfb71,
0xfb84,
0xfb97,
0xfba9,
0xfbbc,
0xfbce,
0xfbe0,
0xfbf2,
0xfc03,
0xfc15,
0xfc26,
0xfc38,
0xfc49,
0xfc5a,
0xfc6b,
0xfc7b,
0xfc8c,
0xfc9c,
0xfcad,
0xfcbd,
0xfccd,
0xfcdc,
0xfcec,
0xfcfb,
0xfd0b,
0xfd1a,
0xfd29,
0xfd38,
0xfd47,
0xfd55,
0xfd63,
0xfd72,
0xfd80,
0xfd8e,
0xfd9c,
0xfda9,
0xfdb7,
0xfdc4,
0xfdd1,
0xfdde,
0xfdeb,
0xfdf8,
0xfe04,
0xfe11,
0xfe1d,
0xfe29,
0xfe35,
0xfe41,
0xfe4c,
0xfe58,
0xfe63,
0xfe6e,
0xfe79,
0xfe84,
0xfe8f,
0xfe9a,
0xfea4,
0xfeae,
0xfeb8,
0xfec2,
0xfecc,
0xfed6,
0xfedf,
0xfee9,
0xfef2,
0xfefb,
0xff04,
0xff0c,
0xff15,
0xff1d,
0xff26,
0xff2e,
0xff36,
0xff3d,
0xff45,
0xff4d,
0xff54,
0xff5b,
0xff62,
0xff69,
0xff70,
0xff76,
0xff7d,
0xff83,
0xff89,
0xff8f,
0xff95,
0xff9a,
0xffa0,
0xffa5,
0xffaa,
0xffaf,
0xffb4,
0xffb9,
0xffbe,
0xffc2,
0xffc6,
0xffca,
0xffce,
0xffd2,
0xffd6,
0xffd9,
0xffdc,
0xffe0,
0xffe3,
0xffe5,
0xffe8,
0xffeb,
0xffed,
0xffef,
0xfff1,
0xfff3,
0xfff5,
0xfff7,
0xfff8,
0xfffa,
0xfffb,
0xfffc,
0xfffd,
0xfffd,
0xfffe,
0xfffe,
0xfffe,
0xfffe,
# 48 "c:/users/plu/documents/petetrlu/kitchen/faucet/airplaygl44template/ug/uglu.c" 2
};

GLfixed
__cosx(GLfixed a) {
    GLfixed v;

    while (a < 0) a += 2*((int)(3.14159265358979323846f*65536));
    a *= ((int)(1.0f/(2.f*3.14159265358979323846f)*65536));
    a >>= 16;
    a += 0x4000;


    a >>= 4;

    v = (a & 0x400) ? __gl_sin_tab[0x3ff - (a & 0x3ff)] : __gl_sin_tab[a & 0x3ff];
    v = (int)((((__int64)(v))*(((int)(1*65536))))>>16);
    return (a & 0x800) ? -v : v;
}

GLfixed
__sinx(GLfixed a) {
    GLfixed v;


    while (a < 0) a += 2*((int)(3.14159265358979323846f*65536));
    a *= ((int)(1.0f/(2.f*3.14159265358979323846f)*65536));
    a >>= 16;


    a >>= 4;

    v = (a & 0x400) ? __gl_sin_tab[0x3ff - (a & 0x3ff)] : __gl_sin_tab[a & 0x3ff];
    v = (int)((((__int64)(v))*(((int)(1*65536))))>>16);
    return (a & 0x800) ? -v : v;
}


static void
__identf(GLfloat m[]) {
    memset(m, 0, sizeof m[0]*16);
    m[0] = m[5] = m[10] = m[15] = 1.0f;
}


static void
__identx(GLfixed m[]) {
    memset(m, 0, sizeof m[0]*16);
    m[0] = m[5] = m[10] = m[15] = ((int)(1.0f*65536));
}


void
ugluPerspectivef(GLfloat fovy, GLfloat aspect, GLfloat n, GLfloat f)
{
    GLfloat m[4][4];
    GLfloat s, cot, dz = f - n;
    GLfloat rad = fovy/2.f*3.14159265358979323846f/180.f;

    s = (float)sin(rad);
    if (dz == 0 || s == 0 || aspect == 0) return;

    cot = (float)cos(rad)/s;

    __identf(&m[0][0]);
    m[0][0] = cot/aspect;
    m[1][1] = cot;
    m[2][2] = -(f + n)/dz;
    m[2][3] = -1.f;
    m[3][2] = -2.f*f*n/dz;
    m[3][3] = 0.f;
    glMultMatrixf(&m[0][0]);
}


void
ugluPerspectivex(GLfixed fovy, GLfixed aspect, GLfixed n, GLfixed f)
{
    GLfixed m[4][4];
    GLfixed s, cot, dz = f - n;
    GLfixed rad = (GLfixed)((((__int64)(fovy))*(((int)(3.14159265358979323846f/360.f*65536))))>>16);

    s = __sinx(rad);
    if (dz == 0 || s == 0 || aspect == 0) return;

    cot = __cosx(rad)/s;

    __identx(&m[0][0]);
    m[0][0] = (int)(((__int64)(cot)<<16)/(aspect));
    m[1][1] = cot;
    m[2][2] = (int)-(((__int64)((f + n))<<16)/(dz));
    m[2][3] = -((int)(1*65536));
    m[3][2] = (int)(((__int64)(-2*((((__int64)(f))*(n))>>16))<<16)/(dz));
    m[3][3] = 0;
    glMultMatrixx(&m[0][0]);
}


static void
normalizef(float v[3]) {
    float r;

    r = (float)sqrt(v[0]*v[0] + v[1]*v[1] + v[2]*v[2]);
    if (r == 0.0) return;
    r = 1.f/r;

    v[0] *= r;
    v[1] *= r;
    v[2] *= r;
}

static void
crossf(float v0[3], float v1[3], float r[3])
{
    r[0] = v0[1]*v1[2] - v0[2]*v1[1];
    r[1] = v0[2]*v1[0] - v0[0]*v1[2];
    r[2] = v0[0]*v1[1] - v0[1]*v1[0];
}

void
ugluLookAtf(GLfloat eyex, GLfloat eyey, GLfloat eyez, GLfloat centerx,
      GLfloat centery, GLfloat centerz, GLfloat upx, GLfloat upy, GLfloat upz) {
    GLfloat forward[3], side[3], up[3];
    GLfloat m[4][4];

    forward[0] = centerx - eyex;
    forward[1] = centery - eyey;
    forward[2] = centerz - eyez;

    normalizef(forward);

    up[0] = upx;
    up[1] = upy;
    up[2] = upz;

    crossf(forward, up, side);

    normalizef(side);
    crossf(side, forward, up);

    __identf(&m[0][0]);
    m[0][0] = side[0];
    m[1][0] = side[1];
    m[2][0] = side[2];

    m[0][1] = up[0];
    m[1][1] = up[1];
    m[2][1] = up[2];

    m[0][2] = -forward[0];
    m[1][2] = -forward[1];
    m[2][2] = -forward[2];

    glMultMatrixf(&m[0][0]);
    glTranslatef(-eyex, -eyey, -eyez);
}


GLfixed
__sqrtx(GLfixed a) {
    GLfixed s;
    int i;
    s = (a + ((int)(1*65536))) >> 1;

    for (i = 0; i < 6; i++)
 s = (GLfixed)(s + (((__int64)(a)<<16)/(s))) >> 1;
    return s;
}
static void
normalizex(GLfixed v[3]) {
    float r;

    r = (float)__sqrtx((int)(((((__int64)(v[0]))*(v[0]))>>16) + ((((__int64)(v[1]))*(v[1]))>>16) + ((((__int64)(v[2]))*(v[2]))>>16)));
    if (r == 0.0f) return;
    r = (((__int64)(1.f)<<16)/(r));

    v[0] *= (int)r;
    v[1] *= (int)r;
    v[2] *= (int)r;
}

static void
crossx(GLfixed v0[3], GLfixed v1[3], GLfixed r[3])
{
    r[0] = (int) (((((__int64)(v0[1]))*(v1[2]))>>16) - ((((__int64)(v0[2]))*(v1[1]))>>16));
    r[1] = (int) (((((__int64)(v0[2]))*(v1[0]))>>16) - ((((__int64)(v0[0]))*(v1[2]))>>16));
    r[2] = (int) (((((__int64)(v0[0]))*(v1[1]))>>16) - ((((__int64)(v0[1]))*(v1[0]))>>16));
}

void
ugluLookAtx(GLfixed eyex, GLfixed eyey, GLfixed eyez, GLfixed centerx,
      GLfixed centery, GLfixed centerz, GLfixed upx, GLfixed upy, GLfixed upz) {
    GLfixed forward[3], side[3], up[3];
    GLfixed m[4][4];

    forward[0] = centerx - eyex;
    forward[1] = centery - eyey;
    forward[2] = centerz - eyez;

    normalizex(forward);

    up[0] = upx;
    up[1] = upy;
    up[2] = upz;

    crossx(forward, up, side);

    normalizex(side);
    crossx(side, forward, up);

    __identx(&m[0][0]);
    m[0][0] = side[0];
    m[1][0] = side[1];
    m[2][0] = side[2];

    m[0][1] = up[0];
    m[1][1] = up[1];
    m[2][1] = up[2];

    m[0][2] = -forward[0];
    m[1][2] = -forward[1];
    m[2][2] = -forward[2];

    glMultMatrixx(&m[0][0]);
    glTranslatex(-eyex, -eyey, -eyez);
}
