# 1 "c:/users/plu/documents/petetrlu/kitchen/faucet/airplaygl44template/ug/ugshape.c"
# 1 "<built-in>"
# 1 "<command-line>"
# 1 "C:/Users/plu/Documents/petetrlu/kitchen/faucet/self_help/test1/build_test1_vc10/temp_defines_release.h" 1
# 1 "<command-line>" 2
# 1 "c:/users/plu/documents/petetrlu/kitchen/faucet/airplaygl44template/ug/ugshape.c"
# 25 "c:/users/plu/documents/petetrlu/kitchen/faucet/airplaygl44template/ug/ugshape.c"
# 1 "c:/users/plu/documents/petetrlu/kitchen/spices/airplay4.4/s3e/h/std/stdlib.h" 1
# 15 "c:/users/plu/documents/petetrlu/kitchen/spices/airplay4.4/s3e/h/std/stdlib.h"
# 1 "c:/users/plu/documents/petetrlu/kitchen/spices/airplay4.4/s3e/h/std/sys/types.h" 1
# 15 "c:/users/plu/documents/petetrlu/kitchen/spices/airplay4.4/s3e/h/std/sys/types.h"
# 1 "c:/users/plu/documents/petetrlu/kitchen/spices/airplay4.4/s3e/h/s3eTypes.h" 1
# 37 "c:/users/plu/documents/petetrlu/kitchen/spices/airplay4.4/s3e/h/s3eTypes.h"
typedef unsigned char s3e_uint8_t;
typedef signed char s3e_int8_t;
typedef unsigned short int s3e_uint16_t;
typedef signed short int s3e_int16_t;
typedef unsigned int s3e_uint32_t;
typedef signed int s3e_int32_t;
# 51 "c:/users/plu/documents/petetrlu/kitchen/spices/airplay4.4/s3e/h/s3eTypes.h"
  typedef signed long long s3e_int64_t;
  typedef unsigned long long s3e_uint64_t;
# 72 "c:/users/plu/documents/petetrlu/kitchen/spices/airplay4.4/s3e/h/s3eTypes.h"
typedef s3e_uint64_t uint64_t;
typedef s3e_int64_t int64_t;
typedef s3e_uint32_t uint32_t;
typedef s3e_int32_t int32_t;
typedef s3e_uint16_t uint16_t;
typedef s3e_int16_t int16_t;
typedef s3e_uint8_t uint8_t;
typedef s3e_int8_t int8_t;
# 93 "c:/users/plu/documents/petetrlu/kitchen/spices/airplay4.4/s3e/h/s3eTypes.h"
 typedef int intptr_t;
 typedef unsigned int uintptr_t;
# 104 "c:/users/plu/documents/petetrlu/kitchen/spices/airplay4.4/s3e/h/s3eTypes.h"
typedef unsigned int uint;
typedef unsigned short int ushort;
typedef unsigned long int ulong;
typedef unsigned char uint8;
typedef signed char int8;







typedef int64_t int64;
typedef uint64_t uint64;
# 126 "c:/users/plu/documents/petetrlu/kitchen/spices/airplay4.4/s3e/h/s3eTypes.h"
typedef unsigned int uint32;
# 135 "c:/users/plu/documents/petetrlu/kitchen/spices/airplay4.4/s3e/h/s3eTypes.h"
typedef signed int int32;





typedef uint16_t uint16;




typedef int16_t int16;
# 217 "c:/users/plu/documents/petetrlu/kitchen/spices/airplay4.4/s3e/h/s3eTypes.h"
typedef enum s3eResult
{
    S3E_RESULT_SUCCESS = 0,
    S3E_RESULT_ERROR = 1
} s3eResult;




typedef uint8 s3eBool;
# 237 "c:/users/plu/documents/petetrlu/kitchen/spices/airplay4.4/s3e/h/s3eTypes.h"
typedef unsigned short s3eWChar;
# 308 "c:/users/plu/documents/petetrlu/kitchen/spices/airplay4.4/s3e/h/s3eTypes.h"
typedef int32 (*s3eCallback) (void* systemData, void* userData);
# 16 "c:/users/plu/documents/petetrlu/kitchen/spices/airplay4.4/s3e/h/std/sys/types.h" 2
# 1 "c:/users/plu/documents/petetrlu/kitchen/spices/airplay4.4/s3e/h/std/stddef.h" 1
# 15 "c:/users/plu/documents/petetrlu/kitchen/spices/airplay4.4/s3e/h/std/stddef.h"
typedef signed int ptrdiff_t;


    typedef unsigned int wint_t;
    typedef unsigned long int wctype_t;



    typedef unsigned short wchar_t;



typedef unsigned int size_t;
# 17 "c:/users/plu/documents/petetrlu/kitchen/spices/airplay4.4/s3e/h/std/sys/types.h" 2
# 1 "c:/users/plu/documents/petetrlu/kitchen/spices/airplay4.4/s3e/h/std/stdint.h" 1
# 19 "c:/users/plu/documents/petetrlu/kitchen/spices/airplay4.4/s3e/h/std/stdint.h"
typedef signed char int_least8_t;
typedef short int_least16_t;
typedef long int_least32_t;
typedef int64_t int_least64_t;

typedef unsigned char uint_least8_t;
typedef unsigned short uint_least16_t;
typedef unsigned long uint_least32_t;
typedef uint64_t uint_least64_t;

typedef signed char int_fast8_t;
typedef short int_fast16_t;
typedef long int_fast32_t;
typedef int64_t int_fast64_t;

typedef unsigned char uint_fast8_t;
typedef unsigned short uint_fast16_t;
typedef unsigned long uint_fast32_t;
typedef uint64_t uint_fast64_t;

typedef int64_t intmax_t;
typedef uint64_t uintmax_t;
# 18 "c:/users/plu/documents/petetrlu/kitchen/spices/airplay4.4/s3e/h/std/sys/types.h" 2
# 1 "c:/users/plu/documents/petetrlu/kitchen/spices/airplay4.4/s3e/h/std/sys/select.h" 1
# 24 "c:/users/plu/documents/petetrlu/kitchen/spices/airplay4.4/s3e/h/std/sys/select.h"
struct timeval;

typedef struct fd_set
{
    char fds_bits[256/8];
} fd_set;
# 39 "c:/users/plu/documents/petetrlu/kitchen/spices/airplay4.4/s3e/h/std/sys/select.h"


int select(int nfds, fd_set *readfds, fd_set *writefds, fd_set *exceptfds, struct timeval *timeout);


# 19 "c:/users/plu/documents/petetrlu/kitchen/spices/airplay4.4/s3e/h/std/sys/types.h" 2



typedef long off_t;

typedef int64_t off64_t;
# 33 "c:/users/plu/documents/petetrlu/kitchen/spices/airplay4.4/s3e/h/std/sys/types.h"
typedef uint u_int;
typedef uint8_t u_int8_t;
typedef uint16_t u_int16_t;
typedef uint32_t u_int32_t;
typedef uint64_t u_int64_t;

typedef unsigned short u_short;
typedef unsigned long u_long;
typedef unsigned char u_char;

typedef int ssize_t;
typedef int pid_t;
typedef short uid_t;
typedef short gid_t;
typedef int idtype_t;
typedef int id_t;
typedef uint32 mode_t;
typedef short dev_t;
typedef short ino_t;
typedef int key_t;
typedef void* caddr_t;
# 16 "c:/users/plu/documents/petetrlu/kitchen/spices/airplay4.4/s3e/h/std/stdlib.h" 2
# 1 "c:/users/plu/documents/petetrlu/kitchen/spices/airplay4.4/s3e/h/std/malloc.h" 1
# 16 "c:/users/plu/documents/petetrlu/kitchen/spices/airplay4.4/s3e/h/std/malloc.h"
# 1 "c:/users/plu/documents/petetrlu/kitchen/spices/airplay4.4/s3e/h/std/alloca.h" 1
# 17 "c:/users/plu/documents/petetrlu/kitchen/spices/airplay4.4/s3e/h/std/alloca.h"



    extern void *alloca(size_t __size);
# 35 "c:/users/plu/documents/petetrlu/kitchen/spices/airplay4.4/s3e/h/std/alloca.h"

# 17 "c:/users/plu/documents/petetrlu/kitchen/spices/airplay4.4/s3e/h/std/malloc.h" 2



void *calloc(size_t nmemb, size_t size);
void *malloc(size_t size);
void free(void *ptr);
void *realloc(void *ptr, size_t size);


# 17 "c:/users/plu/documents/petetrlu/kitchen/spices/airplay4.4/s3e/h/std/stdlib.h" 2
# 28 "c:/users/plu/documents/petetrlu/kitchen/spices/airplay4.4/s3e/h/std/stdlib.h"


double atof(const char* string);
int atoi(const char *nptr);
long atol(const char *nptr);
int64_t atoll(const char *nptr);
int64_t atoq(const char *nptr);
int abs(int j);
long int labs(long int j);
int64_t llabs(int64_t j);
void qsort(void *base, size_t nmemb, size_t size, int(*compar)(const void *, const void *));
void *bsearch(const void *key, const void *base, size_t nmemb, size_t size, int (*compar)(const void *, const void *));
void abort(void);
int putenv(char *string);
char *getenv(const char *name);
int setenv(const char *name, const char *value, int overwrite);
int unsetenv(const char *name);
void exit(int status) __attribute__ ((noreturn));
void _exit(int status) __attribute__ ((noreturn));
void _Exit(int status) __attribute__ ((noreturn));
unsigned long int strtoul(const char *nptr, char **endptr, int base);
uint64_t strtoull(const char *nptr, char **endptr, int base);
long int strtol(const char *nptr, char **endptr, int base);
int64_t strtoll(const char *nptr, char **endptr, int base);
double strtod(const char *nptr, char **endptr);
float strtof(const char *nptr, char **endptr);
long double strtold(const char *nptr, char **endptr);
int atexit(void (*function)(void));
int system(const char *command);
int posix_memalign(void **memptr, size_t alignment, size_t size);
char *mktemp(char *templ);
int mkstemp(char *templ);



int rand(void);
void srand(unsigned int seed);

long int random(void);
void srandom(unsigned int seed);

size_t __ctype_get_mb_cur_max();


int mblen(const char *s, size_t n);
int mbtowc(wchar_t *pwc, const char *s, size_t n);
int wctomb(char *s, wchar_t wc);
size_t mbstowcs(wchar_t *dest, const char *src, size_t n);
size_t wcstombs(char *dest, const wchar_t *src, size_t n);

typedef struct
{
    int quot;
    int rem;
} div_t;

typedef struct
{
    int quot;
    int rem;
} ldiv_t;

typedef struct
{
    int64_t quot;
    int64_t rem;
} lldiv_t;

div_t div(int numerator, int denominator);
ldiv_t ldiv(long numerator, long denominator);
lldiv_t lldiv(int64_t numerator, int64_t denominator);
# 117 "c:/users/plu/documents/petetrlu/kitchen/spices/airplay4.4/s3e/h/std/stdlib.h"

# 26 "c:/users/plu/documents/petetrlu/kitchen/faucet/airplaygl44template/ug/ugshape.c" 2
# 1 "c:/users/plu/documents/petetrlu/kitchen/spices/airplay4.4/s3e/h/std/string.h" 1
# 17 "c:/users/plu/documents/petetrlu/kitchen/spices/airplay4.4/s3e/h/std/string.h"


void *memcpy(void *dest, const void *src, size_t n);
void *memset(void *s, int c, size_t n);
int memcmp(const void *s1, const void *s2, size_t n);
void *memmove(void *dest, const void *src, size_t n);
void *memchr(const void *s, int c, size_t n);
void *memrchr(const void *s, int c, size_t n);







int strcmp(const char *s1, const char *s2);
int strncmp(const char *s1, const char *s2, size_t n);
char *strsep(char **stringp, const char *delim);
char *strcpy(char *dest, const char *src);
char *strncpy(char *dest, const char *src, size_t n);
char *strchr(const char *s, int c);
char *strstr(const char *haystack, const char *needle);
char *strrchr(const char *s, int c);
char *strdup(const char *s);
char *strtok(char *str, const char *delim);
char *strtok_r(char *str, const char *delim, char **saveptr);
char *strcat(char *dest, const char *src);
char *strncat(char *dest, const char *src, size_t n);
size_t strlen(const char *s);
size_t strnlen(const char *s, size_t n);
int strcasecmp(const char *s1, const char *s2);
int strncasecmp(const char *s1, const char *s2, size_t n);
size_t strspn(const char *s, const char *accept);
size_t strcspn(const char *s, const char *reject);
char *strpbrk(const char *s, const char *accept);
int strcoll(const char *s1, const char *s2);
char *strerror(int errnum);
size_t strxfrm(char *dest, const char *src, size_t n);

int strerror_r(int errnum, char *buf, size_t buflen);





size_t strlcpy(char* dest, const char* src, size_t len);
size_t strlcat(char* dest, const char* src, size_t len);


# 27 "c:/users/plu/documents/petetrlu/kitchen/faucet/airplaygl44template/ug/ugshape.c" 2
# 1 "c:/users/plu/documents/petetrlu/kitchen/faucet/airplaygl44template/ug/ug.h" 1
# 28 "c:/users/plu/documents/petetrlu/kitchen/faucet/airplaygl44template/ug/ug.h"
# 1 "c:/users/plu/documents/petetrlu/kitchen/spices/airplay4.4/s3e/h/GLES/egl.h" 1
# 12 "c:/users/plu/documents/petetrlu/kitchen/spices/airplay4.4/s3e/h/GLES/egl.h"
# 1 "c:/users/plu/documents/petetrlu/kitchen/spices/airplay4.4/s3e/h/EGL/egl.h" 1
# 36 "c:/users/plu/documents/petetrlu/kitchen/spices/airplay4.4/s3e/h/EGL/egl.h"
# 1 "c:/users/plu/documents/petetrlu/kitchen/spices/airplay4.4/s3e/h/EGL/eglplatform.h" 1
# 29 "c:/users/plu/documents/petetrlu/kitchen/spices/airplay4.4/s3e/h/EGL/eglplatform.h"
typedef signed int EGLint;
# 38 "c:/users/plu/documents/petetrlu/kitchen/spices/airplay4.4/s3e/h/EGL/eglplatform.h"
typedef void* NativeDisplayType;
typedef void* NativeWindowType;
typedef void *NativePixmapType;


typedef NativeDisplayType EGLNativeDisplayType;
typedef NativePixmapType EGLNativePixmapType;
typedef NativeWindowType EGLNativeWindowType;
# 37 "c:/users/plu/documents/petetrlu/kitchen/spices/airplay4.4/s3e/h/EGL/egl.h" 2







typedef unsigned int EGLBoolean;
typedef unsigned int EGLenum;
typedef void *EGLConfig;
typedef void *EGLContext;
typedef void *EGLDisplay;
typedef void *EGLSurface;
typedef void *EGLClientBuffer;
# 250 "c:/users/plu/documents/petetrlu/kitchen/spices/airplay4.4/s3e/h/EGL/egl.h"
 EGLint eglGetError(void);

 EGLDisplay eglGetDisplay(EGLNativeDisplayType display_id);
 EGLBoolean eglInitialize(EGLDisplay dpy, EGLint *major, EGLint *minor);
 EGLBoolean eglTerminate(EGLDisplay dpy);

 const char * eglQueryString(EGLDisplay dpy, EGLint name);

 EGLBoolean eglGetConfigs(EGLDisplay dpy, EGLConfig *configs,
    EGLint config_size, EGLint *num_config);
 EGLBoolean eglChooseConfig(EGLDisplay dpy, const EGLint *attrib_list,
      EGLConfig *configs, EGLint config_size,
      EGLint *num_config);
 EGLBoolean eglGetConfigAttrib(EGLDisplay dpy, EGLConfig config,
         EGLint attribute, EGLint *value);

 EGLSurface eglCreateWindowSurface(EGLDisplay dpy, EGLConfig config,
      EGLNativeWindowType win,
      const EGLint *attrib_list);
 EGLSurface eglCreatePbufferSurface(EGLDisplay dpy, EGLConfig config,
       const EGLint *attrib_list);
 EGLSurface eglCreatePixmapSurface(EGLDisplay dpy, EGLConfig config,
      EGLNativePixmapType pixmap,
      const EGLint *attrib_list);
 EGLBoolean eglDestroySurface(EGLDisplay dpy, EGLSurface surface);
 EGLBoolean eglQuerySurface(EGLDisplay dpy, EGLSurface surface,
      EGLint attribute, EGLint *value);

 EGLBoolean eglBindAPI(EGLenum api);
 EGLenum eglQueryAPI(void);

 EGLBoolean eglWaitClient(void);

 EGLBoolean eglReleaseThread(void);

 EGLSurface eglCreatePbufferFromClientBuffer(
       EGLDisplay dpy, EGLenum buftype, EGLClientBuffer buffer,
       EGLConfig config, const EGLint *attrib_list);

 EGLBoolean eglSurfaceAttrib(EGLDisplay dpy, EGLSurface surface,
       EGLint attribute, EGLint value);
 EGLBoolean eglBindTexImage(EGLDisplay dpy, EGLSurface surface, EGLint buffer);
 EGLBoolean eglReleaseTexImage(EGLDisplay dpy, EGLSurface surface, EGLint buffer);


 EGLBoolean eglSwapInterval(EGLDisplay dpy, EGLint interval);


 EGLContext eglCreateContext(EGLDisplay dpy, EGLConfig config,
       EGLContext share_context,
       const EGLint *attrib_list);
 EGLBoolean eglDestroyContext(EGLDisplay dpy, EGLContext ctx);
 EGLBoolean eglMakeCurrent(EGLDisplay dpy, EGLSurface draw,
     EGLSurface read, EGLContext ctx);

 EGLContext eglGetCurrentContext(void);
 EGLSurface eglGetCurrentSurface(EGLint readdraw);
 EGLDisplay eglGetCurrentDisplay(void);
 EGLBoolean eglQueryContext(EGLDisplay dpy, EGLContext ctx,
      EGLint attribute, EGLint *value);

 EGLBoolean eglWaitGL(void);
 EGLBoolean eglWaitNative(EGLint engine);
 EGLBoolean eglSwapBuffers(EGLDisplay dpy, EGLSurface surface);
 EGLBoolean eglCopyBuffers(EGLDisplay dpy, EGLSurface surface,
     EGLNativePixmapType target);




typedef void (*__eglMustCastToProperFunctionPointerType)(void);


 __eglMustCastToProperFunctionPointerType
       eglGetProcAddress(const char *procname);
# 13 "c:/users/plu/documents/petetrlu/kitchen/spices/airplay4.4/s3e/h/GLES/egl.h" 2
# 1 "c:/users/plu/documents/petetrlu/kitchen/spices/airplay4.4/s3e/h/GLES/gl.h" 1





# 1 "c:/users/plu/documents/petetrlu/kitchen/spices/airplay4.4/s3e/h/GLES/glplatform.h" 1
# 32 "c:/users/plu/documents/petetrlu/kitchen/spices/airplay4.4/s3e/h/GLES/glplatform.h"
typedef signed char khronos_int8_t;
typedef unsigned char khronos_uint8_t;
typedef float khronos_float_t;
typedef int khronos_int32_t;
typedef intptr_t khronos_intptr_t;
typedef int khronos_ssize_t;
# 7 "c:/users/plu/documents/petetrlu/kitchen/spices/airplay4.4/s3e/h/GLES/gl.h" 2
# 17 "c:/users/plu/documents/petetrlu/kitchen/spices/airplay4.4/s3e/h/GLES/gl.h"
typedef void GLvoid;
typedef char GLchar;
typedef unsigned int GLenum;
typedef unsigned char GLboolean;
typedef unsigned int GLbitfield;
typedef khronos_int8_t GLbyte;
typedef short GLshort;
typedef int GLint;
typedef int GLsizei;
typedef khronos_uint8_t GLubyte;
typedef unsigned short GLushort;
typedef unsigned int GLuint;
typedef khronos_float_t GLfloat;
typedef khronos_float_t GLclampf;
typedef khronos_int32_t GLfixed;
typedef khronos_int32_t GLclampx;

typedef khronos_intptr_t GLintptr;
typedef khronos_ssize_t GLsizeiptr;
# 593 "c:/users/plu/documents/petetrlu/kitchen/spices/airplay4.4/s3e/h/GLES/gl.h"
 void glAlphaFunc (GLenum func, GLclampf ref);
 void glClearColor (GLclampf red, GLclampf green, GLclampf blue, GLclampf alpha);
 void glClearDepthf (GLclampf depth);
 void glClipPlanef (GLenum plane, const GLfloat *equation);
 void glColor4f (GLfloat red, GLfloat green, GLfloat blue, GLfloat alpha);
 void glDepthRangef (GLclampf zNear, GLclampf zFar);
 void glFogf (GLenum pname, GLfloat param);
 void glFogfv (GLenum pname, const GLfloat *params);
 void glFrustumf (GLfloat left, GLfloat right, GLfloat bottom, GLfloat top, GLfloat zNear, GLfloat zFar);
 void glGetClipPlanef (GLenum pname, GLfloat eqn[4]);
 void glGetFloatv (GLenum pname, GLfloat *params);
 void glGetLightfv (GLenum light, GLenum pname, GLfloat *params);
 void glGetMaterialfv (GLenum face, GLenum pname, GLfloat *params);
 void glGetTexEnvfv (GLenum env, GLenum pname, GLfloat *params);
 void glGetTexParameterfv (GLenum target, GLenum pname, GLfloat *params);
 void glLightModelf (GLenum pname, GLfloat param);
 void glLightModelfv (GLenum pname, const GLfloat *params);
 void glLightf (GLenum light, GLenum pname, GLfloat param);
 void glLightfv (GLenum light, GLenum pname, const GLfloat *params);
 void glLineWidth (GLfloat width);
 void glLoadMatrixf (const GLfloat *m);
 void glMaterialf (GLenum face, GLenum pname, GLfloat param);
 void glMaterialfv (GLenum face, GLenum pname, const GLfloat *params);
 void glMultMatrixf (const GLfloat *m);
 void glMultiTexCoord4f (GLenum target, GLfloat s, GLfloat t, GLfloat r, GLfloat q);
 void glNormal3f (GLfloat nx, GLfloat ny, GLfloat nz);
 void glOrthof (GLfloat left, GLfloat right, GLfloat bottom, GLfloat top, GLfloat zNear, GLfloat zFar);
 void glPointParameterf (GLenum pname, GLfloat param);
 void glPointParameterfv (GLenum pname, const GLfloat *params);
 void glPointSize (GLfloat size);
 void glPolygonOffset (GLfloat factor, GLfloat units);
 void glRotatef (GLfloat angle, GLfloat x, GLfloat y, GLfloat z);
 void glScalef (GLfloat x, GLfloat y, GLfloat z);
 void glTexEnvf (GLenum target, GLenum pname, GLfloat param);
 void glTexEnvfv (GLenum target, GLenum pname, const GLfloat *params);
 void glTexParameterf (GLenum target, GLenum pname, GLfloat param);
 void glTexParameterfv (GLenum target, GLenum pname, const GLfloat *params);
 void glTranslatef (GLfloat x, GLfloat y, GLfloat z);


 void glActiveTexture (GLenum texture);
 void glAlphaFuncx (GLenum func, GLclampx ref);
 void glBindBuffer (GLenum target, GLuint buffer);
 void glBindTexture (GLenum target, GLuint texture);
 void glBlendFunc (GLenum sfactor, GLenum dfactor);
 void glBufferData (GLenum target, GLsizeiptr size, const GLvoid *data, GLenum usage);
 void glBufferSubData (GLenum target, GLintptr offset, GLsizeiptr size, const GLvoid *data);
 void glClear (GLbitfield mask);
 void glClearColorx (GLclampx red, GLclampx green, GLclampx blue, GLclampx alpha);
 void glClearDepthx (GLclampx depth);
 void glClearStencil (GLint s);
 void glClientActiveTexture (GLenum texture);
 void glClipPlanex (GLenum plane, const GLfixed *equation);
 void glColor4ub (GLubyte red, GLubyte green, GLubyte blue, GLubyte alpha);
 void glColor4x (GLfixed red, GLfixed green, GLfixed blue, GLfixed alpha);
 void glColorMask (GLboolean red, GLboolean green, GLboolean blue, GLboolean alpha);
 void glColorPointer (GLint size, GLenum type, GLsizei stride, const GLvoid *pointer);
 void glCompressedTexImage2D (GLenum target, GLint level, GLenum internalformat, GLsizei width, GLsizei height, GLint border, GLsizei imageSize, const GLvoid *data);
 void glCompressedTexSubImage2D (GLenum target, GLint level, GLint xoffset, GLint yoffset, GLsizei width, GLsizei height, GLenum format, GLsizei imageSize, const GLvoid *data);
 void glCopyTexImage2D (GLenum target, GLint level, GLenum internalformat, GLint x, GLint y, GLsizei width, GLsizei height, GLint border);
 void glCopyTexSubImage2D (GLenum target, GLint level, GLint xoffset, GLint yoffset, GLint x, GLint y, GLsizei width, GLsizei height);
 void glCullFace (GLenum mode);
 void glDeleteBuffers (GLsizei n, const GLuint *buffers);
 void glDeleteTextures (GLsizei n, const GLuint *textures);
 void glDepthFunc (GLenum func);
 void glDepthMask (GLboolean flag);
 void glDepthRangex (GLclampx zNear, GLclampx zFar);
 void glDisable (GLenum cap);
 void glDisableClientState (GLenum array);
 void glDrawArrays (GLenum mode, GLint first, GLsizei count);
 void glDrawElements (GLenum mode, GLsizei count, GLenum type, const GLvoid *indices);
 void glEnable (GLenum cap);
 void glEnableClientState (GLenum array);
 void glFinish (void);
 void glFlush (void);
 void glFogx (GLenum pname, GLfixed param);
 void glFogxv (GLenum pname, const GLfixed *params);
 void glFrontFace (GLenum mode);
 void glFrustumx (GLfixed left, GLfixed right, GLfixed bottom, GLfixed top, GLfixed zNear, GLfixed zFar);
 void glGetBooleanv (GLenum pname, GLboolean *params);
 void glGetBufferParameteriv (GLenum target, GLenum pname, GLint *params);
 void glGetClipPlanex (GLenum pname, GLfixed eqn[4]);
 void glGenBuffers (GLsizei n, GLuint *buffers);
 void glGenTextures (GLsizei n, GLuint *textures);
 GLenum glGetError (void);
 void glGetFixedv (GLenum pname, GLfixed *params);
 void glGetIntegerv (GLenum pname, GLint *params);
 void glGetLightxv (GLenum light, GLenum pname, GLfixed *params);
 void glGetMaterialxv (GLenum face, GLenum pname, GLfixed *params);
 void glGetPointerv (GLenum pname, GLvoid **params);
 const GLubyte * glGetString (GLenum name);
 void glGetTexEnviv (GLenum env, GLenum pname, GLint *params);
 void glGetTexEnvxv (GLenum env, GLenum pname, GLfixed *params);
 void glGetTexParameteriv (GLenum target, GLenum pname, GLint *params);
 void glGetTexParameterxv (GLenum target, GLenum pname, GLfixed *params);
 void glHint (GLenum target, GLenum mode);
 GLboolean glIsBuffer (GLuint buffer);
 GLboolean glIsEnabled (GLenum cap);
 GLboolean glIsTexture (GLuint texture);
 void glLightModelx (GLenum pname, GLfixed param);
 void glLightModelxv (GLenum pname, const GLfixed *params);
 void glLightx (GLenum light, GLenum pname, GLfixed param);
 void glLightxv (GLenum light, GLenum pname, const GLfixed *params);
 void glLineWidthx (GLfixed width);
 void glLoadIdentity (void);
 void glLoadMatrixx (const GLfixed *m);
 void glLogicOp (GLenum opcode);
 void glMaterialx (GLenum face, GLenum pname, GLfixed param);
 void glMaterialxv (GLenum face, GLenum pname, const GLfixed *params);
 void glMatrixMode (GLenum mode);
 void glMultMatrixx (const GLfixed *m);
 void glMultiTexCoord4x (GLenum target, GLfixed s, GLfixed t, GLfixed r, GLfixed q);
 void glNormal3x (GLfixed nx, GLfixed ny, GLfixed nz);
 void glNormalPointer (GLenum type, GLsizei stride, const GLvoid *pointer);
 void glOrthox (GLfixed left, GLfixed right, GLfixed bottom, GLfixed top, GLfixed zNear, GLfixed zFar);
 void glPixelStorei (GLenum pname, GLint param);
 void glPointParameterx (GLenum pname, GLfixed param);
 void glPointParameterxv (GLenum pname, const GLfixed *params);
 void glPointSizex (GLfixed size);
 void glPolygonOffsetx (GLfixed factor, GLfixed units);
 void glPopMatrix (void);
 void glPushMatrix (void);
 void glReadPixels (GLint x, GLint y, GLsizei width, GLsizei height, GLenum format, GLenum type, GLvoid *pixels);
 void glRotatex (GLfixed angle, GLfixed x, GLfixed y, GLfixed z);
 void glSampleCoverage (GLclampf value, GLboolean invert);
 void glSampleCoveragex (GLclampx value, GLboolean invert);
 void glScalex (GLfixed x, GLfixed y, GLfixed z);
 void glScissor (GLint x, GLint y, GLsizei width, GLsizei height);
 void glShadeModel (GLenum mode);
 void glStencilFunc (GLenum func, GLint ref, GLuint mask);
 void glStencilMask (GLuint mask);
 void glStencilOp (GLenum fail, GLenum zfail, GLenum zpass);
 void glTexCoordPointer (GLint size, GLenum type, GLsizei stride, const GLvoid *pointer);
 void glTexEnvi (GLenum target, GLenum pname, GLint param);
 void glTexEnvx (GLenum target, GLenum pname, GLfixed param);
 void glTexEnviv (GLenum target, GLenum pname, const GLint *params);
 void glTexEnvxv (GLenum target, GLenum pname, const GLfixed *params);

 void glTexImage2D (GLenum target, GLint level, GLint internalformat, GLsizei width, GLsizei height, GLint border, GLenum format, GLenum type, const GLvoid *pixels);

 void glTexParameteri (GLenum target, GLenum pname, GLint param);
 void glTexParameterx (GLenum target, GLenum pname, GLfixed param);
 void glTexParameteriv (GLenum target, GLenum pname, const GLint *params);
 void glTexParameterxv (GLenum target, GLenum pname, const GLfixed *params);
 void glTexSubImage2D (GLenum target, GLint level, GLint xoffset, GLint yoffset, GLsizei width, GLsizei height, GLenum format, GLenum type, const GLvoid *pixels);
 void glTranslatex (GLfixed x, GLfixed y, GLfixed z);
 void glVertexPointer (GLint size, GLenum type, GLsizei stride, const GLvoid *pointer);
 void glViewport (GLint x, GLint y, GLsizei width, GLsizei height);
# 759 "c:/users/plu/documents/petetrlu/kitchen/spices/airplay4.4/s3e/h/GLES/gl.h"
 void glPointSizePointerOES (GLenum type, GLsizei stride, const GLvoid *pointer);
# 14 "c:/users/plu/documents/petetrlu/kitchen/spices/airplay4.4/s3e/h/GLES/egl.h" 2
# 29 "c:/users/plu/documents/petetrlu/kitchen/faucet/airplaygl44template/ug/ug.h" 2
# 78 "c:/users/plu/documents/petetrlu/kitchen/faucet/airplaygl44template/ug/ug.h"
typedef long UGCtx;
typedef long UGWindow;

extern UGCtx ugInit(void);
extern void ugFini(UGCtx ug);

extern UGCtx ugCtxFromWin(UGWindow uwin);

extern UGWindow ugCreateWindow(UGCtx ug, const char* config,
  const char* title, int width, int height, int x, int y);
extern void ugDestroyWindow(UGWindow uwin, EGLDisplay egldpy);

extern void ugDisplayFunc(UGWindow uwin, void (*f)(UGWindow uwin));
extern void ugReshapeFunc(UGWindow uwin, void (*f)(UGWindow uwin, int width, int height));
extern void ugKeyboardFunc(UGWindow uwin, void (*f)(UGWindow uwin, int key, int x, int y));
extern void ugPointerFunc(UGWindow uwin, void (*f)(UGWindow uwin, int button, int state, int x, int y));
extern void ugMotionFunc(UGWindow uwin, void (*f)(UGWindow uwin, int x, int y));
extern void ugIdleFunc(UGCtx ug, void (*f)(UGWindow uwin));

extern void ugMainLoop(UGCtx ug);

extern void ugPostRedisplay(UGWindow uwin);
extern void ugSwapBuffers(UGWindow uwin);
# 121 "c:/users/plu/documents/petetrlu/kitchen/faucet/airplaygl44template/ug/ug.h"
extern void ugluPerspectivef(GLfloat fovy, GLfloat aspect, GLfloat n, GLfloat f);
extern void ugluPerspectivex(GLfixed fovy, GLfixed aspect, GLfixed n, GLfixed f);
extern void ugluLookAtf(GLfloat eyex, GLfloat eyey, GLfloat eyez, GLfloat centerx,
    GLfloat centery, GLfloat centerz, GLfloat upx, GLfloat upy, GLfloat upz);
extern void ugluLookAtx(GLfixed eyex, GLfixed eyey, GLfixed eyez, GLfixed centerx,
    GLfixed centery, GLfixed centerz, GLfixed upx, GLfixed upy, GLfixed upz);
# 28 "c:/users/plu/documents/petetrlu/kitchen/faucet/airplaygl44template/ug/ugshape.c" 2
# 1 "c:/users/plu/documents/petetrlu/kitchen/spices/airplay4.4/s3e/h/std/math.h" 1
# 17 "c:/users/plu/documents/petetrlu/kitchen/spices/airplay4.4/s3e/h/std/math.h"

# 48 "c:/users/plu/documents/petetrlu/kitchen/spices/airplay4.4/s3e/h/std/math.h"
double pow(double x, double y);
float powf(float x, float y);
long double powl(long double x, long double y);

double sin(double x);
float sinf(float x);
long double sinl(long double x);

double asin(double x);
float asinf(float x);
long double asinl(long double x);

double sinh(double x);
float sinhf(float x);
long double sinhl(long double x);

double cos(double x);
float cosf(float x);
long double cosl(long double x);

double cosh(double x);
float coshf(float x);
long double coshl(long double x);

double acos(double x);
float acosf(float x);
long double acosl(long double x);

double tan(double x);
float tanf(float x);
long double tanl(long double x);

double atan(double x);
float atanf(float x);
long double atanl( long double x);

double atan2(double y, double x);
float atan2f(float y, float x);
long double atan2l(long double y, long double x);

double tanh(double x);
float tanhf(float x);
long double tanhl(long double x);

double fabs(double x);
float fabsf(float x);
long double fabsl(long double x);

double ceil(double x);
float ceilf(float x);
long double ceill(long double x);

double floor(double x);
float floorf(float x);
long double floorl(long double x);

double sqrt(double x);
float sqrtf(float x);
long double sqrtl(long double x);

double cbrt(double x);
float cbrtf(float x);
long double cbrtl(long double x);

double fmod(double x, double y);
float fmodf(float x, float y);
long double fmodl(long double x, long double y);

double modf(double x, double *iptr);
float modff(float x, float *iptr);
long double modfl(long double x, long double *iptr);

double ldexp(double x, int exp);
float ldexpf(float x, int exp);
long double ldexpl(long double x, int exp);

double exp(double x);
float expf(float x);
long double expl(long double x);

double log(double x);
float logf(float x);
long double logl(long double x);

double log10(double x);
float log10f(float x);
long double log10l(long double x);

double rint(double x);
float rintf(float x);
long double rintl(long double x);

double round(double x);
float roundf(float x);
long double roundl(long double x);

double frexp(double x, int *exp);
float frexpf(float x, int *exp);
long double frexpl(long double x, int *exp);

long int lround(double x);
long int lroundf(float x);
long int lroundl(long double x);

int64 llround(double x);
int64 llroundf(float x);
int64 llroundl(long double x);

double nextafter(double x, double y);
float nextafterf(float x, float y);
long double nextafterl(long double x, long double y);

double nexttoward(double x, long double y);
float nexttowardf(float x, long double y);
long double nexttowardl(long double x, long double y);

double trunc(double x);
float truncf(float x);
long double truncl(long double x);

double hypot(double x, double y);

double copysign(double x, double y);
float copysignf(float x, float y);
long double copysignl(long double x, long double y);

int finite(double x);




# 1 "c:/users/plu/documents/petetrlu/kitchen/spices/airplay4.4/s3e/h/std/math_gcc.h" 1
# 26 "c:/users/plu/documents/petetrlu/kitchen/spices/airplay4.4/s3e/h/std/math_gcc.h"
int __isnanf(float);
int __isnand(double);
int __isinff(float);
int __isinfd(double);
int __signbitf(float);
int __signbitd(double);
int __fpclassify(double);
int __fpclassifyf(float);
int __fpclassifyl(double);
# 180 "c:/users/plu/documents/petetrlu/kitchen/spices/airplay4.4/s3e/h/std/math.h" 2
# 205 "c:/users/plu/documents/petetrlu/kitchen/spices/airplay4.4/s3e/h/std/math.h"

# 29 "c:/users/plu/documents/petetrlu/kitchen/faucet/airplaygl44template/ug/ugshape.c" 2



void
ugSolidTorusf(GLfloat ir, GLfloat or, GLint sides, GLint rings)
{
    GLint i, j, k, triangles;
    GLfloat s, t, x, y, z, twopi, nx, ny, nz;
 GLfloat sin_s, cos_s, cos_t, sin_t, twopi_s, twopi_t;
 GLfloat twopi_sides, twopi_rings;
    static GLfloat* v, *n;
    static GLfloat parms[4];
    GLfloat* p, *q;

    if (v)
 {
  if (parms[0] != ir || parms[1] != or || parms[2] != sides || parms[3] != rings)
  {
   free(v);
   free(n);
   n = v = 0;

   glVertexPointer(3, 0x1406, 0, 0);
   glNormalPointer(0x1406, 0, 0);
  }
    }

    if (!v)
 {
  parms[0] = ir;
  parms[1] = or;
  parms[2] = (GLfloat)sides;
  parms[3] = (GLfloat)rings;

  p = v = malloc(sides*(rings+1)*2*3*sizeof *v);
  q = n = malloc(sides*(rings+1)*2*3*sizeof *n);

        twopi = 2.0f * (GLfloat)3.14159265358979323846;
  twopi_sides = twopi/sides;
  twopi_rings = twopi/rings;

        for (i = 0; i < sides; i++)
  {
   for (j = 0; j <= rings; j++)
   {
    for (k = 1; k >= 0; k--)
    {
     s = (i + k) % sides + 0.5f;
     t = (GLfloat)( j % rings);

     twopi_s= s*twopi_sides;
     twopi_t = t*twopi_rings;

     cos_s = (GLfloat)cos(twopi_s);
     sin_s = (GLfloat)sin(twopi_s);

     cos_t = (GLfloat)cos(twopi_t);
     sin_t = (GLfloat)sin(twopi_t);

     x = (or+ir*(GLfloat)cos_s)*(GLfloat)cos_t;
     y = (or+ir*(GLfloat)cos_s)*(GLfloat)sin_t;
     z = ir * (GLfloat)sin_s;

     *p++ = x;
     *p++ = y;
     *p++ = z;

     nx = (GLfloat)cos_s*(GLfloat)cos_t;
     ny = (GLfloat)cos_s*(GLfloat)sin_t;
     nz = (GLfloat)sin_s;

     *q++ = nx;
     *q++ = ny;
     *q++ = nz;
    }
   }
  }
    }

    glVertexPointer(3, 0x1406, 0, v);
    glNormalPointer(0x1406, 0, n);

    glEnableClientState (0x8074);
    glEnableClientState (0x8075);

 triangles = (rings + 1) * 2;

    for(i = 0; i < sides; i++)
  glDrawArrays(0x0005, triangles * i, triangles);

 glDisableClientState(0x8074);
 glDisableClientState(0x8075);

}



static GLfloat boxvec[6][3] =
{
   {-1.0, 0.0, 0.0},
   {0.0, 1.0, 0.0},
   {1.0, 0.0, 0.0},
   {0.0, -1.0, 0.0},
   {0.0, 0.0, 1.0},
   {0.0, 0.0, -1.0}
};

static GLushort boxndex [12][3] =
{
 {0, 1, 2},
 {0, 2, 3},
 {3, 2, 6},
 {3, 6, 7},
 {6, 4, 7},
 {6, 5, 4},
 {4, 5, 1},
 {4, 1, 0},
 {2, 1, 5},
 {2, 5, 6},
 {3, 7, 4},
 {3, 4, 0}
};

static GLushort wireboxndex[6][4] =
{
   {0, 1, 2, 3},
   {3, 2, 6, 7},
   {7, 6, 5, 4},
   {4, 5, 1, 0},
   {5, 6, 2, 1},
   {7, 4, 0, 3}
};


void
ugSolidBox(GLfloat Width, GLfloat Depth, GLfloat Height)
{

 int i;
 GLfloat v[8][3];

 v[0][0] = v[1][0] = v[2][0] = v[3][0] = - Width/ 2.0f;
 v[4][0] = v[5][0] = v[6][0] = v[7][0] = Width / 2.0f;
 v[0][1] = v[1][1] = v[4][1] = v[5][1] = -Depth / 2.0f;
 v[2][1] = v[3][1] = v[6][1] = v[7][1] = Depth / 2.0f;
 v[0][2] = v[3][2] = v[4][2] = v[7][2] = -Height / 2.0f;
 v[1][2] = v[2][2] = v[5][2] = v[6][2] = Height / 2.0f;

 glVertexPointer(3, 0x1406, 0, v);
 glEnableClientState (0x8074);

 for (i = 0; i < 6; i++)
 {
  glNormal3f(boxvec[i][0], boxvec[i][1], boxvec[i][2]);
  glDrawElements(0x0004, 6, 0x1403, boxndex[i*2]);
 }

 glDisableClientState (0x8074);
}


void
ugWireBox(GLfloat Width, GLfloat Depth, GLfloat Height)
{
 GLfloat v[8][3];
 int i;

 v[0][0] = v[1][0] = v[2][0] = v[3][0] = - Width/ 2.0f;
 v[4][0] = v[5][0] = v[6][0] = v[7][0] = Width / 2.0f;
 v[0][1] = v[1][1] = v[4][1] = v[5][1] = -Depth / 2.0f;
 v[2][1] = v[3][1] = v[6][1] = v[7][1] = Depth / 2.0f;
 v[0][2] = v[3][2] = v[4][2] = v[7][2] = -Height / 2.0f;
 v[1][2] = v[2][2] = v[5][2] = v[6][2] = Height / 2.0f;

 glVertexPointer(3, 0x1406, 0, v);
 glEnableClientState (0x8074);

 for ( i = 0; i < 6; i++)
 {
  glNormal3f(boxvec[i][0], boxvec[i][1], boxvec[i][2]);
  glDrawElements(0x0002, 4, 0x1403, wireboxndex[i]);
 }
 glDisableClientState (0x8074);
}

void PlotTubePoints(GLfloat radius, GLfloat height, GLshort stacks, GLshort slices, GLfloat* v, GLfloat* n)
{

 float theta_step = 2.0f*((GLfloat)3.14159265358979323846)/((float)slices);
 float height_step = height/((float)stacks);

 float theta, h1, h2;
 float c_theta, s_theta;

 float* v_ptr = v;
 float* n_ptr = n;

 int i, j;

 for ( i = 0; i < stacks; i++)
 {

  h1 = 0.0f + ((float)i) * height_step;
  h2 = h1 + height_step;

  for (j = 0; j <= slices; j++)
  {
   if (j != slices)
    theta = 0.0f - (theta_step * j);
   else
    theta = 0.0;

   c_theta = (float)cos(theta);
   s_theta = (float)sin(theta);


   *v_ptr++ = c_theta * radius;
   *v_ptr++ = s_theta * radius;
   *v_ptr++ = h1;

   *n_ptr++ = c_theta;
   *n_ptr++ = s_theta;
   *n_ptr++ = 0.0f;

   *v_ptr = *(v_ptr - 3); v_ptr++;
   *v_ptr = *(v_ptr - 3); v_ptr++;
   *v_ptr++ = h2;

   *n_ptr++ = c_theta;
   *n_ptr++ = s_theta;
   *n_ptr++ = 0.0f;

  }
 }
}

void
ugWireTube(GLfloat radius, GLfloat height, GLshort stacks, GLshort slices)
{
    static GLfloat *v, *n;
    static GLfloat parms[4];
 int i, j, f;

 if ((radius <= 0.0)||(height <= 0.0) || (stacks < 1)||( slices < 3))
  return;

 if (v)
 {
  if ((parms[0] != radius) || (parms[1] != height) ||
         (parms[2] !=(float) stacks) || (parms[3] != (float)slices))
  {

   free(v);
   free(n);
   v = n = 0;

   glVertexPointer(3, 0x1406, 0, 0);
   glNormalPointer(0x1406, 0, 0);
  }
 }

    if (!v)
 {
  parms[0] = radius;
  parms[1] = height;
  parms[2] = (GLfloat)stacks;
  parms[3] = (GLfloat)slices;

  v = (float*)malloc(stacks*(slices+1)*2*3*sizeof *v);
  n = (float*)malloc(stacks*(slices+1)*2*3*sizeof *n);


  if ((!v)||(!n))
  {
   if (v)
    free(v);
   if (n)
    free(n);

   return;
  }
  PlotTubePoints(radius, height, stacks, slices, v, n);
 }

 glVertexPointer(3, 0x1406, 0, v);
 glNormalPointer(0x1406, 0, n);

 glEnableClientState (0x8075);
 glEnableClientState (0x8074);

 for(i = 0; i < stacks; i++)
 {
  f = i * (slices + 1);

  for (j = 0; j < slices; ++j)
   glDrawArrays(0x0002, ((f + j)*2) + 1, 3);

 }

 glVertexPointer(3, 0x1406, 24, v);
 glNormalPointer(0x1406, 24, n);

 glDrawArrays(0x0002, 0, slices );

 glDisableClientState(0x8074);
 glDisableClientState(0x8075);

}

void
ugSolidTube(GLfloat radius, GLfloat height, GLshort stacks, GLshort slices)
{
    static GLfloat *v, *n;
    static GLfloat parms[4];
 int i, triangles;

 if ((radius <= 0.0)||(height <= 0.0) || (stacks < 1)||( slices < 3))
  return;

 if (v)
 {
  if ((parms[0] != radius) || (parms[1] != height) ||
         (parms[2] !=(float) stacks) || (parms[3] != (float)slices))
  {

   free(v);
   free(n);
   v = n = 0;

   glVertexPointer(3, 0x1406, 0, 0);
   glNormalPointer(0x1406, 0, 0);
  }
 }

    if (!v)
 {
  parms[0] = radius;
  parms[1] = height;
  parms[2] = (GLfloat)stacks;
  parms[3] = (GLfloat)slices;

  v = (float*)malloc(stacks*(slices+1)*2*3*sizeof *v);
  n = (float*)malloc(stacks*(slices+1)*2*3*sizeof *n);


  if ((!v)||(!n))
  {
   if (v)
    free(v);
   if (n)
    free(n);

   return;
  }
  PlotTubePoints(radius, height, stacks, slices, v, n);
 }

 glVertexPointer(3, 0x1406, 0, v);
 glNormalPointer(0x1406, 0, n);

 glEnableClientState (0x8075);
 glEnableClientState (0x8074);

 triangles = (slices + 1) * 2;

 for(i = 0; i < stacks; i++)
  glDrawArrays(0x0005, i * triangles, triangles);

 glDisableClientState(0x8074);
 glDisableClientState(0x8075);
}

void PlotDiskPoints(GLfloat inner_radius, GLfloat outer_radius, GLshort rings, GLshort slices, GLfloat* v)
{

 float theta_step = 2.0f* ((float)3.14159265358979323846)/slices;

 float r_step = (outer_radius - inner_radius)/((float)rings);
 float theta, r1, r2;
 float c_theta, s_theta;

 int i, j ;

 float* ptr = v;

 for (i = 0; i < rings; i++)
 {
  r1 = inner_radius + (r_step * i);
  r2 = r1 + r_step;


  for (j = 0; j <= slices; j++)
  {
   if (j != slices)
    theta = 0.0f + (theta_step * j);
   else
    theta = 0.0f;

   c_theta = (float)cos(theta);
   s_theta = (float)sin(theta);


   *ptr++ = c_theta * r1;
   *ptr++ = s_theta * r1;
   *ptr++ = 0.0;

   *ptr++ = c_theta * r2;
   *ptr++ = s_theta * r2;
   *ptr++ = 0.0;

  }
 }
}

void
ugWireDisk(GLfloat inner_radius, GLfloat outer_radius, GLshort rings, GLshort slices)
{
    static GLfloat* v;
    static GLfloat parms[4];
 int i, f, j;

 if ((rings <= 0)&&(slices <= 2)&&(inner_radius < 0.0) && (outer_radius <= inner_radius))
  return;

 if (v)
 {
  if ((parms[0] != inner_radius) || (parms[1] != outer_radius) ||
          (parms[2] !=(float) rings) || (parms[3] != (float)slices))
  {

   free(v);
   v = 0;

   glVertexPointer(3, 0x1406, 0, 0);
  }
 }

    if (!v)
 {
  parms[0] = inner_radius;
  parms[1] = outer_radius;
  parms[2] = (GLfloat)rings;
  parms[3] = (GLfloat)slices;

  v = (float*)malloc(rings*(slices+1)*2*3*sizeof *v);

  if (!v)
   return;

  PlotDiskPoints(inner_radius, outer_radius, rings, slices, v);
 }

 glNormal3f(0.0, 0.0, 1.0);

 glVertexPointer(3, 0x1406, 0, v);
 glEnableClientState (0x8074);

 for(i = 0; i < rings; i++)
 {
  f = i * (slices + 1);

  for (j = 0; j < slices; ++j)
   glDrawArrays(0x0002, ((f + j)*2) + 1, 3);

 }

 glVertexPointer(3, 0x1406, 24, v);
 glDrawArrays(0x0002, 0, slices );

 glDisableClientState (0x8074);

}

void
ugSolidDisk(GLfloat inner_radius, GLfloat outer_radius, GLshort rings, GLshort slices)
{
    static GLfloat* v;
    static GLfloat parms[4];
 int i, triangles;

 if ((rings <= 0)&&(slices <= 2)&&(inner_radius < 0.0) && (outer_radius <= inner_radius))
  return;

 if (v)
 {
  if ((parms[0] != inner_radius) || (parms[1] != outer_radius) ||
          (parms[2] !=(float) rings) || (parms[3] != (float)slices))
  {

   free(v);
   v = 0;

   glVertexPointer(3, 0x1406, 0, 0);
  }
 }

    if (!v)
 {
  parms[0] = inner_radius;
  parms[1] = outer_radius;
  parms[2] = (GLfloat)rings;
  parms[3] = (GLfloat)slices;

  v = (float*)malloc(rings*(slices+1)*2*3*sizeof *v);

  if (!v)
   return;

  PlotDiskPoints(inner_radius, outer_radius, rings, slices, v);
 }

 glNormal3f(0.0, 0.0, 1.0);

 glVertexPointer(3, 0x1406, 0, v);
 glEnableClientState (0x8074);

 triangles = (slices + 1) * 2;

 for(i = 0; i < rings; i++)
  glDrawArrays(0x0005, i * triangles, triangles);

 glDisableClientState (0x8074);

}

void PlotSpherePoints(GLfloat radius, GLint stacks, GLint slices, GLfloat* v, GLfloat* n)
{

    GLint i, j;
 GLfloat slicestep, stackstep;

 stackstep = ((GLfloat)3.14159265358979323846) / stacks;
 slicestep = 2.0f * ((GLfloat)3.14159265358979323846) / slices;

 for (i = 0; i < stacks; ++i)
 {
  GLfloat a = i * stackstep;
  GLfloat b = a + stackstep;

  GLfloat s0 = (GLfloat)sin(a);
  GLfloat s1 = (GLfloat)sin(b);

  GLfloat c0 = (GLfloat)cos(a);
  GLfloat c1 = (GLfloat)cos(b);

  for (j = 0; j <= slices; ++j)
  {
   GLfloat c = j * slicestep;
   GLfloat x = (GLfloat)cos(c);
   GLfloat y = (GLfloat)sin(c);

   *n = x * s0;
   *v = *n * radius;

   n++;
   v++;

   *n = y * s0;
   *v = *n * radius;

   n++;
   v++;

   *n = c0;
   *v = *n * radius;

   n++;
   v++;

   *n = x * s1;
   *v = *n * radius;

   n++;
   v++;

   *n = y * s1;
   *v = *n * radius;

   n++;
   v++;

   *n = c1;
   *v = *n * radius;

   n++;
   v++;

  }
 }
}


void
ugSolidSpheref(GLfloat radius, GLint slices, GLint stacks)
{
    GLint i, triangles;
    static GLfloat* v, *n;
    static GLfloat parms[3];

    if (v)
 {
  if (parms[0] != radius || parms[1] != slices || parms[2] != stacks)
  {
   free(v);
   free(n);

   n = v = 0;

   glVertexPointer(3, 0x1406, 0, 0);
   glNormalPointer(0x1406, 0, 0);
  }
    }

    if (!v)
 {
  parms[0] = radius;
  parms[1] = (GLfloat)slices;
  parms[2] = (GLfloat)stacks;

  v = malloc(stacks*(slices+1)*2*3*sizeof *v);
  n = malloc(stacks*(slices+1)*2*3*sizeof *n);

  PlotSpherePoints(radius, stacks, slices, v, n);

 }

    glVertexPointer(3, 0x1406, 0, v);
    glNormalPointer(0x1406, 0, n);

    glEnableClientState (0x8074);
    glEnableClientState (0x8075);

 triangles = (slices + 1) * 2;

    for(i = 0; i < stacks; i++)
  glDrawArrays(0x0005, i * triangles, triangles);

 glDisableClientState(0x8074);
 glDisableClientState(0x8075);

}


void
ugWireSpheref(GLfloat radius, GLint slices, GLint stacks)
{
    GLint i, j, f;
    static GLfloat* v, *n;
    static GLfloat parms[3];

    if (v)
 {
  if (parms[0] != radius || parms[1] != slices || parms[2] != stacks)
  {
   free(v);
   free(n);

   n = v = 0;

   glVertexPointer(3, 0x1406, 0, 0);
   glNormalPointer(0x1406, 0, 0);
  }
    }

    if (!v)
 {
  parms[0] = radius;
  parms[1] = (GLfloat)slices;
  parms[2] = (GLfloat)stacks;

  v = malloc(stacks*(slices+1)*2*3*sizeof *v);
  n = malloc(stacks*(slices+1)*2*3*sizeof *n);

  PlotSpherePoints(radius, stacks, slices, v, n);

 }

    glVertexPointer(3, 0x1406, 0, v);
    glNormalPointer(0x1406, 0, n);

    glEnableClientState (0x8074);
    glEnableClientState (0x8075);

    for(i = 0; i < stacks; ++i)
 {
  f = i * (slices + 1);

  for (j = 0; j <= slices; ++j)
   glDrawArrays(0x0002, (f + j)*2, 3);
 }

 glDisableClientState(0x8074);
 glDisableClientState(0x8075);

}

void
ugSolidConef(GLfloat base, GLfloat height, GLint slices, GLint stacks)
{
    GLint i, j;
    GLfloat twopi, nx, ny, nz;
    static GLfloat* v, *n;
    static GLfloat parms[4];
    GLfloat* p, *q;

    if (v)
 {
  if (parms[0] != base || parms[1] != height || parms[2] != slices || parms[3] != stacks)
  {
   free(v);
   free(n);

   n = v = 0;

   glVertexPointer(3, 0x1406, 0, 0);
   glNormalPointer(0x1406, 0, 0);
  }
    }

    if ((!v) && (height != 0.0f))
 {
  float phi = (float)atan(base/height);
  float cphi = (GLfloat)cos(phi);
  float sphi= (GLfloat)sin(phi);

  parms[0] = base;
  parms[1] = height;
  parms[2] = (GLfloat)slices;
  parms[3] = (GLfloat)stacks;

  p = v = (float*)malloc(stacks*(slices+1)*2*3*sizeof *v);
  q = n = (float*)malloc(stacks*(slices+1)*2*3*sizeof *n);

        twopi = 2.0f * ((float)3.14159265358979323846);

        for (i = 0; i < stacks; i++)
  {
   GLfloat r = base*(1.0f - (GLfloat)i /stacks);
   GLfloat r1 = base*(1.0f - (GLfloat)(i+1.0)/stacks);
   GLfloat z = height*i /stacks;
   GLfloat z1 = height*(1.0f+i) /stacks;

   for (j = 0; j <= slices; j++)
   {
    GLfloat theta = j == slices ? 0.f : (GLfloat) j /slices*twopi;
    GLfloat ctheta = (GLfloat)cos(theta);
    GLfloat stheta = (GLfloat)sin(theta);

    nx = ctheta;
    ny = stheta;
    nz = sphi;

    *p++ = r1*nx;
    *p++ = r1*ny;
    *p++ = z1;

    *q++ = nx*cphi;
    *q++ = ny*cphi;
    *q++ = nz;

    *p++ = r*nx;
    *p++ = r*ny;
    *p++ = z;


    *q++ = nx*cphi;
    *q++ = ny*cphi;
    *q++ = nz;

   }
  }
    }

    glVertexPointer(3, 0x1406, 0, v);
    glNormalPointer(0x1406, 0, n);

    glEnableClientState (0x8074);
    glEnableClientState (0x8075);

    for(i = 0; i < stacks; i++)
  glDrawArrays(0x0005, i*(slices+1)*2, (slices+1)*2);

 glDisableClientState(0x8074);
 glDisableClientState(0x8075);
}

void
ugSolidCubef(GLfloat size)
{
    static GLfloat v[108];

    static const GLfloat cubev[108] =
 {
  -1., -1., 1.,
   1., -1., 1.,
  -1., 1., 1.,

   1., -1., 1.,
   1., 1., 1.,
  -1., 1., 1.,

  -1., 1., -1.,
   1., -1., -1.,
  -1., -1., -1.,

  -1., 1., -1.,
   1., 1., -1.,
   1., -1., -1.,

  -1., -1., -1.,
  -1., -1., 1.,
  -1., 1., -1.,

  -1., -1., 1.,
  -1., 1., 1.,
  -1., 1., -1.,

   1., -1., 1.,
   1., -1., -1.,
   1., 1., 1.,

   1., -1., -1.,
   1., 1., -1.,
   1., 1., 1.,

  -1., 1., 1.,
   1., 1., 1.,
  -1., 1., -1.,

   1., 1., 1.,
   1., 1., -1.,
  -1., 1., -1.,

  -1., -1., -1.,
   1., -1., -1.,
  -1., -1., 1.,

   1., -1., -1.,
   1., -1., 1.,
  -1., -1., 1.,
    };

    static const GLfloat cuben[108] =
 {
  0., 0., 1.,
  0., 0., 1.,
  0., 0., 1.,

  0., 0., 1.,
  0., 0., 1.,
  0., 0., 1.,

  0., 0., -1.,
  0., 0., -1.,
  0., 0., -1.,

  0., 0., -1.,
  0., 0., -1.,
  0., 0., -1.,

  -1., 0., 0.,
  -1., 0., 0.,
  -1., 0., 0.,

  -1., 0., 0.,
  -1., 0., 0.,
  -1., 0., 0.,

  1., 0., 0.,
  1., 0., 0.,
  1., 0., 0.,

  1., 0., 0.,
  1., 0., 0.,
  1., 0., 0.,

  0., 1., 0.,
  0., 1., 0.,
  0., 1., 0.,

  0., 1., 0.,
  0., 1., 0.,
  0., 1., 0.,

  0., -1., 0.,
  0., -1., 0.,
  0., -1., 0.,

  0., -1., 0.,
  0., -1., 0.,
  0., -1., 0.,
    };

    int i;
 size /= 2;

    for(i = 0; i < 108; i++)
  v[i] = cubev[i] * size;

    glVertexPointer(3, 0x1406, 0, v);
    glNormalPointer(0x1406, 0, cuben);

    glEnableClientState (0x8074);
    glEnableClientState (0x8075);

    glDrawArrays(0x0004, 0, 36);

 glDisableClientState(0x8074);
 glDisableClientState(0x8075);

}

void
ugWireCubef(GLfloat size)
{
    static GLfloat v[72];

    static const GLfloat cubev[72] =
 {
  -1., -1., 1.,
   1., -1., 1.,
   1., 1., 1.,
  -1., 1., 1.,

  -1., 1., -1.,
   1., 1., -1.,
   1., -1., -1.,
  -1., -1., -1.,

  -1., -1., -1.,
  -1., -1., 1.,
  -1., 1., 1.,
  -1., 1., -1.,

   1., -1., 1.,
   1., -1., -1.,
   1., 1., -1.,
   1., 1., 1.,

  -1., 1., 1.,
   1., 1., 1.,
   1., 1., -1.,
  -1., 1., -1.,

  -1., -1., -1.,
   1., -1., -1.,
   1., -1., 1.,
  -1., -1., 1.,
    };

    static const GLfloat cuben[72] =
 {
  0., 0., 1.,
  0., 0., 1.,
  0., 0., 1.,
  0., 0., 1.,

  0., 0., -1.,
  0., 0., -1.,
  0., 0., -1.,
  0., 0., -1.,

  -1., 0., 0.,
  -1., 0., 0.,
  -1., 0., 0.,
  -1., 0., 0.,

  1., 0., 0.,
  1., 0., 0.,
  1., 0., 0.,
  1., 0., 0.,

  0., 1., 0.,
  0., 1., 0.,
  0., 1., 0.,
  0., 1., 0.,

  0., -1., 0.,
  0., -1., 0.,
  0., -1., 0.,
  0., -1., 0.,
    };

    int i;
 size /= 2;

    for(i = 0; i < 72; i++)
  v[i] = cubev[i] * size;

    glVertexPointer(3, 0x1406, 0, v);
    glNormalPointer(0x1406, 0, cuben);

    glEnableClientState (0x8074);
    glEnableClientState (0x8075);

    for(i = 0; i < 6; i++)
  glDrawArrays(0x0002, 4*i, 4);

 glDisableClientState(0x8074);
 glDisableClientState(0x8075);

}
